<?xml version="1.0" encoding="ISO-8859-1" standalone="no"?>

<svg 
     version="1.1"
     baseProfile="full"
     xmlns="http://www.w3.org/2000/svg"
     xmlns:xlink="http://www.w3.org/1999/xlink"
     xmlns:ev="http://www.w3.org/2001/xml-events"
     width="53.466464773786775cm"
     height="52.80521874301556cm"
     viewBox="0 0 565 558"
     >
<title>

</title>
<g stroke-linejoin="miter" stroke-dashoffset="0.0000" stroke-dasharray="none" stroke-width="1.0000" stroke-miterlimit="10.000" stroke-linecap="square">
<g id="misc">
</g><!-- misc -->
<g id="layer0">
<g transform="matrix(1.0000, 0.0000, 0.0000, 1.0000, -165.00, -114.00)">
<clipPath id="clipab3cc727-20ed-4a0e-98e6-e79f7d98a18b">
  <path d="M 165.00 114.00 L 165.00 673.00 L 731.00 673.00 L 731.00 114.00 z"/>
</clipPath>
<g clip-path="url(#clip1)">
<g fill-opacity=".098039" fill-rule="nonzero" stroke="none" fill="#000000">
  <path d="M 289.80 394.24 C 289.80 423.47 266.10 447.17 236.87 447.17 C 207.64 447.17 183.94 423.47 183.94 394.24 C 183.94 365.00 207.64 341.31 236.87 341.31 C 266.10 341.31 289.80 365.00 289.80 394.24 z"/>
<title>Cercle c</title>
<desc>Cercle c: Cercle de centre A passant par B</desc>

</g> <!-- drawing style -->
</g> <!-- clip1 -->
</g> <!-- transform -->
<g transform="matrix(1.0000, 0.0000, 0.0000, 1.0000, -165.00, -114.00)">
<clipPath id="clip15cbaac0-efa0-4e19-8e55-d02d559a7b74">
  <path d="M 165.00 114.00 L 165.00 673.00 L 731.00 673.00 L 731.00 114.00 z"/>
</clipPath>
<g clip-path="url(#clip2)">
<g stroke-linejoin="round" stroke-width="4.5000" stroke-linecap="round" fill="none" stroke-opacity=".69804" stroke="#000000">
  <path d="M 289.80 394.24 C 289.80 423.47 266.10 447.17 236.87 447.17 C 207.64 447.17 183.94 423.47 183.94 394.24 C 183.94 365.00 207.64 341.31 236.87 341.31 C 266.10 341.31 289.80 365.00 289.80 394.24 z"/>
<title>Cercle c</title>
<desc>Cercle c: Cercle de centre A passant par B</desc>

</g> <!-- drawing style -->
</g> <!-- clip2 -->
</g> <!-- transform -->
<g transform="matrix(1.0000, 0.0000, 0.0000, 1.0000, -165.00, -114.00)">
<clipPath id="clip75dc2962-d424-4e84-a171-08ac1ee7ae50">
  <path d="M 165.00 114.00 L 165.00 673.00 L 731.00 673.00 L 731.00 114.00 z"/>
</clipPath>
<g clip-path="url(#clip3)">
<g fill-opacity=".098039" fill-rule="nonzero" stroke="none" fill="#000000">
  <path d="M 501.52 394.24 C 501.52 423.47 477.83 447.17 448.59 447.17 C 419.36 447.17 395.66 423.47 395.66 394.24 C 395.66 365.00 419.36 341.31 448.59 341.31 C 477.83 341.31 501.52 365.00 501.52 394.24 z"/>
<title>Cercle d</title>
<desc>Cercle d: Cercle de centre C passant par D</desc>

</g> <!-- drawing style -->
</g> <!-- clip3 -->
</g> <!-- transform -->
<g transform="matrix(1.0000, 0.0000, 0.0000, 1.0000, -165.00, -114.00)">
<clipPath id="clip692bf874-16c3-4e50-a010-e23a48b12fb5">
  <path d="M 165.00 114.00 L 165.00 673.00 L 731.00 673.00 L 731.00 114.00 z"/>
</clipPath>
<g clip-path="url(#clip4)">
<g stroke-linejoin="round" stroke-width="4.5000" stroke-linecap="round" fill="none" stroke-opacity=".69804" stroke="#000000">
  <path d="M 501.52 394.24 C 501.52 423.47 477.83 447.17 448.59 447.17 C 419.36 447.17 395.66 423.47 395.66 394.24 C 395.66 365.00 419.36 341.31 448.59 341.31 C 477.83 341.31 501.52 365.00 501.52 394.24 z"/>
<title>Cercle d</title>
<desc>Cercle d: Cercle de centre C passant par D</desc>

</g> <!-- drawing style -->
</g> <!-- clip4 -->
</g> <!-- transform -->
<g transform="matrix(1.0000, 0.0000, 0.0000, 1.0000, -165.00, -114.00)">
<clipPath id="clip87cf0950-de9f-4317-bd0c-da993f069051">
  <path d="M 165.00 114.00 L 165.00 673.00 L 731.00 673.00 L 731.00 114.00 z"/>
</clipPath>
<g clip-path="url(#clip5)">
<g fill-opacity=".098039" fill-rule="nonzero" stroke="none" fill="#000000">
  <path d="M 713.25 394.24 C 713.25 423.47 689.55 447.17 660.32 447.17 C 631.08 447.17 607.38 423.47 607.38 394.24 C 607.38 365.00 631.08 341.31 660.32 341.31 C 689.55 341.31 713.25 365.00 713.25 394.24 z"/>
<title>Cercle e</title>
<desc>Cercle e: Cercle de centre E passant par F</desc>

</g> <!-- drawing style -->
</g> <!-- clip5 -->
</g> <!-- transform -->
<g transform="matrix(1.0000, 0.0000, 0.0000, 1.0000, -165.00, -114.00)">
<clipPath id="clipa4c4fd21-a025-4b5b-86ef-11a3d9b0342b">
  <path d="M 165.00 114.00 L 165.00 673.00 L 731.00 673.00 L 731.00 114.00 z"/>
</clipPath>
<g clip-path="url(#clip6)">
<g stroke-linejoin="round" stroke-width="4.5000" stroke-linecap="round" fill="none" stroke-opacity=".69804" stroke="#000000">
  <path d="M 713.25 394.24 C 713.25 423.47 689.55 447.17 660.32 447.17 C 631.08 447.17 607.38 423.47 607.38 394.24 C 607.38 365.00 631.08 341.31 660.32 341.31 C 689.55 341.31 713.25 365.00 713.25 394.24 z"/>
<title>Cercle e</title>
<desc>Cercle e: Cercle de centre E passant par F</desc>

</g> <!-- drawing style -->
</g> <!-- clip6 -->
</g> <!-- transform -->
<g transform="matrix(1.0000, 0.0000, 0.0000, 1.0000, -165.00, -114.00)">
<clipPath id="clip4d9d7187-5f9f-421c-9939-444d9dfd64ea">
  <path d="M 165.00 114.00 L 165.00 673.00 L 731.00 673.00 L 731.00 114.00 z"/>
</clipPath>
<g clip-path="url(#clip7)">
<g fill-opacity=".098039" fill-rule="nonzero" stroke="none" fill="#000000">
  <path d="M 289.80 182.52 C 289.80 211.75 266.10 235.45 236.87 235.45 C 207.64 235.45 183.94 211.75 183.94 182.52 C 183.94 153.28 207.64 129.58 236.87 129.58 C 266.10 129.58 289.80 153.28 289.80 182.52 z"/>
<title>Cercle f</title>
<desc>Cercle f: Cercle de centre G passant par H</desc>

</g> <!-- drawing style -->
</g> <!-- clip7 -->
</g> <!-- transform -->
<g transform="matrix(1.0000, 0.0000, 0.0000, 1.0000, -165.00, -114.00)">
<clipPath id="clipe78908e3-e41d-4dd3-8828-4fe3b2541381">
  <path d="M 165.00 114.00 L 165.00 673.00 L 731.00 673.00 L 731.00 114.00 z"/>
</clipPath>
<g clip-path="url(#clip8)">
<g stroke-linejoin="round" stroke-width="4.5000" stroke-linecap="round" fill="none" stroke-opacity=".69804" stroke="#000000">
  <path d="M 289.80 182.52 C 289.80 211.75 266.10 235.45 236.87 235.45 C 207.64 235.45 183.94 211.75 183.94 182.52 C 183.94 153.28 207.64 129.58 236.87 129.58 C 266.10 129.58 289.80 153.28 289.80 182.52 z"/>
<title>Cercle f</title>
<desc>Cercle f: Cercle de centre G passant par H</desc>

</g> <!-- drawing style -->
</g> <!-- clip8 -->
</g> <!-- transform -->
<g transform="matrix(1.0000, 0.0000, 0.0000, 1.0000, -165.00, -114.00)">
<clipPath id="clipb29f9dec-bd73-481c-9948-27b338049df4">
  <path d="M 165.00 114.00 L 165.00 673.00 L 731.00 673.00 L 731.00 114.00 z"/>
</clipPath>
<g clip-path="url(#clip9)">
<g fill-opacity=".098039" fill-rule="nonzero" stroke="none" fill="#000000">
  <path d="M 501.52 182.52 C 501.52 211.75 477.83 235.45 448.59 235.45 C 419.36 235.45 395.66 211.75 395.66 182.52 C 395.66 153.28 419.36 129.58 448.59 129.58 C 477.83 129.58 501.52 153.28 501.52 182.52 z"/>
<title>Cercle g</title>
<desc>Cercle g: Cercle de centre I passant par J</desc>

</g> <!-- drawing style -->
</g> <!-- clip9 -->
</g> <!-- transform -->
<g transform="matrix(1.0000, 0.0000, 0.0000, 1.0000, -165.00, -114.00)">
<clipPath id="clip09a20fb9-e52c-4081-a139-6f38c4daf850">
  <path d="M 165.00 114.00 L 165.00 673.00 L 731.00 673.00 L 731.00 114.00 z"/>
</clipPath>
<g clip-path="url(#clip10)">
<g stroke-linejoin="round" stroke-width="4.5000" stroke-linecap="round" fill="none" stroke-opacity=".69804" stroke="#000000">
  <path d="M 501.52 182.52 C 501.52 211.75 477.83 235.45 448.59 235.45 C 419.36 235.45 395.66 211.75 395.66 182.52 C 395.66 153.28 419.36 129.58 448.59 129.58 C 477.83 129.58 501.52 153.28 501.52 182.52 z"/>
<title>Cercle g</title>
<desc>Cercle g: Cercle de centre I passant par J</desc>

</g> <!-- drawing style -->
</g> <!-- clip10 -->
</g> <!-- transform -->
<g transform="matrix(1.0000, 0.0000, 0.0000, 1.0000, -165.00, -114.00)">
<clipPath id="clip4d02227c-176c-4c32-8035-406b1480508c">
  <path d="M 165.00 114.00 L 165.00 673.00 L 731.00 673.00 L 731.00 114.00 z"/>
</clipPath>
<g clip-path="url(#clip11)">
<g fill-opacity=".098039" fill-rule="nonzero" stroke="none" fill="#000000">
  <path d="M 713.25 182.52 C 713.25 211.75 689.55 235.45 660.32 235.45 C 631.08 235.45 607.38 211.75 607.38 182.52 C 607.38 153.28 631.08 129.58 660.32 129.58 C 689.55 129.58 713.25 153.28 713.25 182.52 z"/>
<title>Cercle h</title>
<desc>Cercle h: Cercle de centre K passant par L</desc>

</g> <!-- drawing style -->
</g> <!-- clip11 -->
</g> <!-- transform -->
<g transform="matrix(1.0000, 0.0000, 0.0000, 1.0000, -165.00, -114.00)">
<clipPath id="clipe53d7a0f-a987-44e9-993d-5158d40b41d1">
  <path d="M 165.00 114.00 L 165.00 673.00 L 731.00 673.00 L 731.00 114.00 z"/>
</clipPath>
<g clip-path="url(#clip12)">
<g stroke-linejoin="round" stroke-width="4.5000" stroke-linecap="round" fill="none" stroke-opacity=".69804" stroke="#000000">
  <path d="M 713.25 182.52 C 713.25 211.75 689.55 235.45 660.32 235.45 C 631.08 235.45 607.38 211.75 607.38 182.52 C 607.38 153.28 631.08 129.58 660.32 129.58 C 689.55 129.58 713.25 153.28 713.25 182.52 z"/>
<title>Cercle h</title>
<desc>Cercle h: Cercle de centre K passant par L</desc>

</g> <!-- drawing style -->
</g> <!-- clip12 -->
</g> <!-- transform -->
<g transform="matrix(1.0000, 0.0000, 0.0000, 1.0000, -165.00, -114.00)">
<clipPath id="clip982d3a2c-e3f4-4c5d-a37c-c1dfcb53efd2">
  <path d="M 165.00 114.00 L 165.00 673.00 L 731.00 673.00 L 731.00 114.00 z"/>
</clipPath>
<g clip-path="url(#clip13)">
<g fill-opacity=".098039" fill-rule="nonzero" stroke="none" fill="#000000">
  <path d="M 289.80 605.96 C 289.80 635.19 266.10 658.89 236.87 658.89 C 207.64 658.89 183.94 635.19 183.94 605.96 C 183.94 576.73 207.64 553.03 236.87 553.03 C 266.10 553.03 289.80 576.73 289.80 605.96 z"/>
<title>Cercle k</title>
<desc>Cercle k: Cercle de centre M passant par N</desc>

</g> <!-- drawing style -->
</g> <!-- clip13 -->
</g> <!-- transform -->
<g transform="matrix(1.0000, 0.0000, 0.0000, 1.0000, -165.00, -114.00)">
<clipPath id="clip8ecd89ee-1b1c-4f82-94a8-6952c648ecc1">
  <path d="M 165.00 114.00 L 165.00 673.00 L 731.00 673.00 L 731.00 114.00 z"/>
</clipPath>
<g clip-path="url(#clip14)">
<g stroke-linejoin="round" stroke-width="4.5000" stroke-linecap="round" fill="none" stroke-opacity=".69804" stroke="#000000">
  <path d="M 289.80 605.96 C 289.80 635.19 266.10 658.89 236.87 658.89 C 207.64 658.89 183.94 635.19 183.94 605.96 C 183.94 576.73 207.64 553.03 236.87 553.03 C 266.10 553.03 289.80 576.73 289.80 605.96 z"/>
<title>Cercle k</title>
<desc>Cercle k: Cercle de centre M passant par N</desc>

</g> <!-- drawing style -->
</g> <!-- clip14 -->
</g> <!-- transform -->
<g transform="matrix(1.0000, 0.0000, 0.0000, 1.0000, -165.00, -114.00)">
<clipPath id="clip4b54b74a-bc0f-485a-9dc4-0d1acaf0e194">
  <path d="M 165.00 114.00 L 165.00 673.00 L 731.00 673.00 L 731.00 114.00 z"/>
</clipPath>
<g clip-path="url(#clip15)">
<g fill-opacity=".098039" fill-rule="nonzero" stroke="none" fill="#000000">
  <path d="M 501.52 605.96 C 501.52 635.19 477.83 658.89 448.59 658.89 C 419.36 658.89 395.66 635.19 395.66 605.96 C 395.66 576.73 419.36 553.03 448.59 553.03 C 477.83 553.03 501.52 576.73 501.52 605.96 z"/>
<title>Cercle p</title>
<desc>Cercle p: Cercle de centre O passant par P</desc>

</g> <!-- drawing style -->
</g> <!-- clip15 -->
</g> <!-- transform -->
<g transform="matrix(1.0000, 0.0000, 0.0000, 1.0000, -165.00, -114.00)">
<clipPath id="clip00725e80-43da-4812-8f4e-94823605a7a1">
  <path d="M 165.00 114.00 L 165.00 673.00 L 731.00 673.00 L 731.00 114.00 z"/>
</clipPath>
<g clip-path="url(#clip16)">
<g stroke-linejoin="round" stroke-width="4.5000" stroke-linecap="round" fill="none" stroke-opacity=".69804" stroke="#000000">
  <path d="M 501.52 605.96 C 501.52 635.19 477.83 658.89 448.59 658.89 C 419.36 658.89 395.66 635.19 395.66 605.96 C 395.66 576.73 419.36 553.03 448.59 553.03 C 477.83 553.03 501.52 576.73 501.52 605.96 z"/>
<title>Cercle p</title>
<desc>Cercle p: Cercle de centre O passant par P</desc>

</g> <!-- drawing style -->
</g> <!-- clip16 -->
</g> <!-- transform -->
<g transform="matrix(1.0000, 0.0000, 0.0000, 1.0000, -165.00, -114.00)">
<clipPath id="clipb52559f0-7692-4f6d-af26-6a703356c79e">
  <path d="M 165.00 114.00 L 165.00 673.00 L 731.00 673.00 L 731.00 114.00 z"/>
</clipPath>
<g clip-path="url(#clip17)">
<g fill-opacity=".098039" fill-rule="nonzero" stroke="none" fill="#000000">
  <path d="M 713.25 605.96 C 713.25 635.19 689.55 658.89 660.32 658.89 C 631.08 658.89 607.38 635.19 607.38 605.96 C 607.38 576.73 631.08 553.03 660.32 553.03 C 689.55 553.03 713.25 576.73 713.25 605.96 z"/>
<title>Cercle q</title>
<desc>Cercle q: Cercle de centre Q passant par R</desc>

</g> <!-- drawing style -->
</g> <!-- clip17 -->
</g> <!-- transform -->
<g transform="matrix(1.0000, 0.0000, 0.0000, 1.0000, -165.00, -114.00)">
<clipPath id="clip8f702c1b-d5fd-4646-bd4d-2267fb355f1b">
  <path d="M 165.00 114.00 L 165.00 673.00 L 731.00 673.00 L 731.00 114.00 z"/>
</clipPath>
<g clip-path="url(#clip18)">
<g stroke-linejoin="round" stroke-width="4.5000" stroke-linecap="round" fill="none" stroke-opacity=".69804" stroke="#000000">
  <path d="M 713.25 605.96 C 713.25 635.19 689.55 658.89 660.32 658.89 C 631.08 658.89 607.38 635.19 607.38 605.96 C 607.38 576.73 631.08 553.03 660.32 553.03 C 689.55 553.03 713.25 576.73 713.25 605.96 z"/>
<title>Cercle q</title>
<desc>Cercle q: Cercle de centre Q passant par R</desc>

</g> <!-- drawing style -->
</g> <!-- clip18 -->
</g> <!-- transform -->
<g transform="matrix(1.0000, 0.0000, 0.0000, 1.0000, -165.00, -114.00)">
<clipPath id="clip7dfc8f17-728c-42bf-965b-af68af705658">
  <path d="M 165.00 114.00 L 165.00 673.00 L 731.00 673.00 L 731.00 114.00 z"/>
</clipPath>
<g clip-path="url(#clip19)">
<g stroke-linejoin="round" stroke-width="2.5000" stroke-linecap="round" fill="none" stroke-opacity=".69804" stroke="#000000">
  <path d="M 411.17 356.81 L 274.30 219.94"/>
<title>Segment a</title>
<desc>Segment a: Segment [TS]</desc>

</g> <!-- drawing style -->
</g> <!-- clip19 -->
</g> <!-- transform -->
<g transform="matrix(1.0000, 0.0000, 0.0000, 1.0000, -165.00, -114.00)">
<clipPath id="clip867310db-e82c-40ed-82dd-4e01b0c0eb00">
  <path d="M 165.00 114.00 L 165.00 673.00 L 731.00 673.00 L 731.00 114.00 z"/>
</clipPath>
<g clip-path="url(#clip20)">
<g stroke-linejoin="round" stroke-width="2.5000" stroke-linecap="round" fill="none" stroke-opacity=".69804" stroke="#000000">
  <path d="M 448.59 341.31 L 448.59 235.45"/>
<title>Segment b</title>
<desc>Segment b: Segment [UJ]</desc>

</g> <!-- drawing style -->
</g> <!-- clip20 -->
</g> <!-- transform -->
<g transform="matrix(1.0000, 0.0000, 0.0000, 1.0000, -165.00, -114.00)">
<clipPath id="clip8202dcea-17c9-4b5a-a951-c56d86954302">
  <path d="M 165.00 114.00 L 165.00 673.00 L 731.00 673.00 L 731.00 114.00 z"/>
</clipPath>
<g clip-path="url(#clip21)">
<g stroke-linejoin="round" stroke-width="2.5000" stroke-linecap="round" fill="none" stroke-opacity=".69804" stroke="#000000">
  <path d="M 486.02 356.81 L 622.89 219.94"/>
<title>Segment f_1</title>
<desc>Segment f_1: Segment [WV]</desc>

</g> <!-- drawing style -->
</g> <!-- clip21 -->
</g> <!-- transform -->
<g transform="matrix(1.0000, 0.0000, 0.0000, 1.0000, -165.00, -114.00)">
<clipPath id="clip03397ee8-b4a0-4b8c-b57c-fad5aedbcfac">
  <path d="M 165.00 114.00 L 165.00 673.00 L 731.00 673.00 L 731.00 114.00 z"/>
</clipPath>
<g clip-path="url(#clip22)">
<g stroke-linejoin="round" stroke-width="2.5000" stroke-linecap="round" fill="none" stroke-opacity=".69804" stroke="#000000">
  <path d="M 501.52 394.24 L 607.38 394.24"/>
<title>Segment g_1</title>
<desc>Segment g_1: Segment [ZF]</desc>

</g> <!-- drawing style -->
</g> <!-- clip22 -->
</g> <!-- transform -->
<g transform="matrix(1.0000, 0.0000, 0.0000, 1.0000, -165.00, -114.00)">
<clipPath id="clipb259d917-db37-496e-a284-2201a8101cd2">
  <path d="M 165.00 114.00 L 165.00 673.00 L 731.00 673.00 L 731.00 114.00 z"/>
</clipPath>
<g clip-path="url(#clip23)">
<g stroke-linejoin="round" stroke-width="2.5000" stroke-linecap="round" fill="none" stroke-opacity=".69804" stroke="#000000">
  <path d="M 486.02 431.66 L 622.89 568.53"/>
<title>Segment h_1</title>
<desc>Segment h_1: Segment [A_1B_1]</desc>

</g> <!-- drawing style -->
</g> <!-- clip23 -->
</g> <!-- transform -->
<g transform="matrix(1.0000, 0.0000, 0.0000, 1.0000, -165.00, -114.00)">
<clipPath id="clip208535f9-dca4-4c17-a952-90c4d7131171">
  <path d="M 165.00 114.00 L 165.00 673.00 L 731.00 673.00 L 731.00 114.00 z"/>
</clipPath>
<g clip-path="url(#clip24)">
<g stroke-linejoin="round" stroke-width="2.5000" stroke-linecap="round" fill="none" stroke-opacity=".69804" stroke="#000000">
  <path d="M 448.59 447.17 L 448.59 553.03"/>
<title>Segment i_1</title>
<desc>Segment i_1: Segment [C_1P]</desc>

</g> <!-- drawing style -->
</g> <!-- clip24 -->
</g> <!-- transform -->
<g transform="matrix(1.0000, 0.0000, 0.0000, 1.0000, -165.00, -114.00)">
<clipPath id="clip0daf79d4-de80-4857-b09f-b1b1724e971e">
  <path d="M 165.00 114.00 L 165.00 673.00 L 731.00 673.00 L 731.00 114.00 z"/>
</clipPath>
<g clip-path="url(#clip25)">
<g stroke-linejoin="round" stroke-width="2.5000" stroke-linecap="round" fill="none" stroke-opacity=".69804" stroke="#000000">
  <path d="M 411.17 431.66 L 274.30 568.53"/>
<title>Segment j_1</title>
<desc>Segment j_1: Segment [D_1E_1]</desc>

</g> <!-- drawing style -->
</g> <!-- clip25 -->
</g> <!-- transform -->
<g transform="matrix(1.0000, 0.0000, 0.0000, 1.0000, -165.00, -114.00)">
<clipPath id="clipb4791648-96c7-46b2-8b15-7298731ab4ba">
  <path d="M 165.00 114.00 L 165.00 673.00 L 731.00 673.00 L 731.00 114.00 z"/>
</clipPath>
<g clip-path="url(#clip26)">
<g stroke-linejoin="round" stroke-width="2.5000" stroke-linecap="round" fill="none" stroke-opacity=".69804" stroke="#000000">
  <path d="M 395.66 394.24 L 289.80 394.24"/>
<title>Segment k_1</title>
<desc>Segment k_1: Segment [DF_1]</desc>

</g> <!-- drawing style -->
</g> <!-- clip26 -->
</g> <!-- transform -->
<g transform="matrix(.67000, 0.0000, 0.0000, .67000, 55.000, 89.148)">
<clipPath id="clipf5c452c7-7e29-4865-a03f-d445774956d4">
  <path d="M -82.090 -133.06 L -82.090 701.27 L 762.69 701.27 L 762.69 -133.06 z"/>
</clipPath>
<g clip-path="url(#clip27)">
<g fill-opacity="1.0000" fill-rule="nonzero" stroke="none" fill="#000000">
  <path d="M 46.000 -32.000 Q 46.000 -17.406 42.297 -9.4062 Q 36.406 1.7969 24.906 2.2031 Q 15.797 2.2031 10.297 -5.0000 Q 9.2031 -6.2969 8.4062 -7.9062 Q 3.9062 -16.203 3.9062 -32.000 Q 3.9062 -46.703 7.5938 -54.703 Q 12.594 -65.906 23.797 -66.594 L 25.000 -66.594 Q 33.906 -66.594 39.500 -59.500 L 39.500 -59.406 Q 40.906 -57.594 42.000 -55.406 Q 46.000 -46.906 46.000 -32.000 z M 24.906 -0.0000 L 24.906 -0.0000 Q 31.203 -0.0000 34.594 -6.0938 Q 36.000 -8.7969 36.594 -12.500 Q 37.703 -18.906 37.703 -33.203 Q 37.703 -47.094 36.703 -52.703 Q 34.906 -62.203 27.500 -64.094 Q 26.203 -64.406 24.906 -64.406 Q 17.906 -64.406 14.703 -57.406 Q 13.594 -55.000 13.000 -51.594 Q 12.203 -46.203 12.203 -33.203 Q 12.203 -18.094 13.297 -12.094 Q 15.094 -2.5000 22.094 -.40625 Q 23.500 -0.0000 24.906 -0.0000 z"/>
<title>0</title>
<desc>texte1 = “0”</desc>

</g> <!-- drawing style -->
</g> <!-- clip27 -->
</g> <!-- transform -->
<g transform="matrix(.67000, 0.0000, 0.0000, .67000, 265.00, 90.148)">
<clipPath id="clip0f94ed31-35a9-4ba2-ae14-c0e425302666">
  <path d="M -395.52 -134.55 L -395.52 699.78 L 449.25 699.78 L 449.25 -134.55 z"/>
</clipPath>
<g clip-path="url(#clip28)">
<g fill-opacity="1.0000" fill-rule="nonzero" stroke="none" fill="#000000">
  <path d="M 29.406 -64.000 L 29.406 -7.9062 Q 29.406 -4.9062 30.594 -4.0938 Q 32.297 -3.0938 38.703 -3.0938 L 41.906 -3.0938 L 41.906 -0.0000 Q 38.406 -.29688 25.703 -.29688 Q 13.000 -.29688 9.5000 -0.0000 L 9.5000 -3.0938 L 12.703 -3.0938 Q 20.406 -3.0938 21.500 -4.9062 L 21.594 -5.0000 Q 22.000 -5.7969 22.000 -7.9062 L 22.000 -59.703 Q 16.797 -57.094 8.9062 -57.094 L 8.9062 -60.203 Q 20.906 -60.203 27.094 -66.594 Q 29.000 -66.594 29.297 -65.906 L 29.297 -65.906 L 29.297 -65.797 Q 29.406 -65.500 29.406 -64.000 z"/>
<title>1</title>
<desc>texte2 = “1”</desc>

</g> <!-- drawing style -->
</g> <!-- clip28 -->
</g> <!-- transform -->
<g transform="matrix(.67000, 0.0000, 0.0000, .67000, 478.00, 90.148)">
<clipPath id="clipf1196678-2fa4-4b4e-8053-0e2a7f5009ef">
  <path d="M -713.43 -134.55 L -713.43 699.78 L 131.34 699.78 L 131.34 -134.55 z"/>
</clipPath>
<g clip-path="url(#clip29)">
<g fill-opacity="1.0000" fill-rule="nonzero" stroke="none" fill="#000000">
  <path d="M 44.906 -17.406 L 44.906 -17.406 L 42.094 -0.0000 L 5.0000 -0.0000 Q 5.0000 -2.5000 5.5938 -3.2031 L 6.0938 -3.7031 L 25.297 -25.094 Q 35.797 -36.906 35.797 -47.203 Q 35.797 -56.094 30.406 -60.703 L 30.297 -60.797 L 30.203 -60.797 Q 27.000 -63.500 22.406 -63.500 Q 15.203 -63.500 10.906 -57.297 Q 9.7031 -55.500 8.9062 -53.297 Q 9.2031 -53.406 10.203 -53.406 Q 14.203 -53.406 15.297 -49.797 L 15.297 -49.703 Q 15.500 -49.000 15.500 -48.203 Q 15.500 -44.203 11.703 -43.094 Q 10.906 -42.906 10.297 -42.906 Q 6.5938 -42.906 5.4062 -46.000 Q 5.0000 -47.094 5.0000 -48.500 Q 5.0000 -56.203 10.906 -61.703 Q 16.203 -66.594 23.703 -66.594 Q 34.703 -66.594 40.797 -59.203 Q 44.297 -54.906 44.797 -49.000 Q 44.906 -48.094 44.906 -47.203 Q 44.906 -39.906 39.406 -33.297 Q 36.500 -29.906 30.406 -24.297 L 24.297 -18.906 L 23.297 -18.000 L 12.703 -7.7031 L 30.703 -7.7031 Q 39.500 -7.7031 40.203 -8.5000 Q 41.203 -9.9062 42.406 -17.406 L 44.906 -17.406 z"/>
<title>2</title>
<desc>texte3 = “2”</desc>

</g> <!-- drawing style -->
</g> <!-- clip29 -->
</g> <!-- transform -->
<g transform="matrix(.67000, 0.0000, 0.0000, .67000, 52.000, 303.15)">
<clipPath id="clipd11d87d7-953f-4423-acbf-960428a8de4b">
  <path d="M -77.612 -452.46 L -77.612 381.87 L 767.16 381.87 L 767.16 -452.46 z"/>
</clipPath>
<g clip-path="url(#clip30)">
<g fill-opacity="1.0000" fill-rule="nonzero" stroke="none" fill="#000000">
  <path d="M 29.000 -35.203 L 29.000 -35.203 Q 39.000 -33.203 43.406 -25.406 Q 45.703 -21.500 45.703 -17.094 Q 45.703 -8.5938 38.703 -2.7969 Q 32.594 2.2031 24.406 2.2031 Q 14.500 2.2031 8.5000 -3.7031 Q 4.2031 -7.9062 4.2031 -13.500 Q 4.2031 -18.203 8.4062 -19.094 Q 9.0938 -19.297 9.7969 -19.297 Q 13.594 -19.297 14.906 -16.094 Q 15.297 -14.797 15.406 -13.703 Q 15.406 -9.7031 11.797 -8.5000 Q 10.406 -8.0000 8.7969 -8.2031 Q 12.500 -2.0000 21.594 -.79688 Q 22.906 -.59375 24.094 -.59375 Q 30.500 -.59375 33.500 -6.9062 Q 35.406 -10.906 35.406 -17.094 Q 35.406 -30.406 27.406 -33.094 Q 25.594 -33.703 23.500 -33.703 L 19.094 -33.703 Q 16.906 -33.703 16.703 -34.797 Q 16.703 -35.797 18.203 -36.000 Q 19.703 -36.000 22.094 -36.297 Q 27.203 -36.500 30.094 -40.203 L 30.094 -40.297 L 30.203 -40.406 L 30.297 -40.500 L 30.406 -40.500 L 31.000 -41.500 Q 33.797 -46.203 33.797 -52.906 Q 33.797 -62.203 26.594 -63.797 Q 25.406 -64.094 24.203 -64.094 Q 17.203 -64.094 12.797 -60.094 Q 11.703 -59.094 10.906 -57.906 Q 17.094 -57.906 17.094 -52.906 Q 17.094 -49.297 14.000 -48.094 Q 13.094 -47.797 12.000 -47.797 Q 8.0938 -47.797 7.0938 -51.297 L 7.0938 -51.297 L 7.0938 -51.406 Q 6.9062 -52.203 6.9062 -53.000 Q 6.9062 -59.703 13.500 -63.703 Q 18.297 -66.594 24.594 -66.594 Q 33.703 -66.594 39.297 -61.203 L 39.500 -61.000 Q 43.000 -57.406 43.000 -52.797 Q 43.000 -44.500 35.906 -38.906 Q 32.797 -36.500 29.000 -35.203 z"/>
<title>3</title>
<desc>texte4 = “3”</desc>

</g> <!-- drawing style -->
</g> <!-- clip30 -->
</g> <!-- transform -->
<g transform="matrix(.67000, 0.0000, 0.0000, .67000, 264.00, 301.15)">
<clipPath id="clip58d1efc2-4173-41d3-bef1-413149f79061">
  <path d="M -394.03 -449.47 L -394.03 384.85 L 450.75 384.85 L 450.75 -449.47 z"/>
</clipPath>
<g clip-path="url(#clip31)">
<g fill-opacity="1.0000" fill-rule="nonzero" stroke="none" fill="#000000">
  <path d="M 2.7969 -16.500 L 2.7969 -19.594 L 33.500 -66.500 Q 34.297 -67.703 35.500 -67.703 Q 36.906 -67.703 37.094 -66.594 L 37.094 -65.094 L 37.094 -19.594 L 47.094 -19.594 L 47.094 -16.500 L 37.094 -16.500 L 37.094 -7.7969 Q 37.094 -4.7031 38.297 -4.0000 Q 39.703 -3.0938 44.703 -3.0938 L 46.797 -3.0938 L 46.797 -0.0000 Q 42.703 -.29688 33.203 -.29688 Q 23.797 -.29688 19.703 -0.0000 L 19.703 -3.0938 L 21.797 -3.0938 Q 28.000 -3.0938 29.000 -4.7969 Q 29.406 -5.5000 29.406 -7.7969 L 29.406 -16.500 L 2.7969 -16.500 z M 30.000 -19.594 L 30.000 -56.906 L 5.5938 -19.594 L 30.000 -19.594 z"/>
<title>4</title>
<desc>texte5 = “4”</desc>

</g> <!-- drawing style -->
</g> <!-- clip31 -->
</g> <!-- transform -->
<g transform="matrix(.67000, 0.0000, 0.0000, .67000, 477.00, 303.15)">
<clipPath id="clip5cf9f36f-e814-42a7-8439-584fac38fb85">
  <path d="M -711.94 -452.46 L -711.94 381.87 L 132.84 381.87 L 132.84 -452.46 z"/>
</clipPath>
<g clip-path="url(#clip32)">
<g fill-opacity="1.0000" fill-rule="nonzero" stroke="none" fill="#000000">
  <path d="M 44.906 -20.094 L 44.906 -20.094 Q 44.906 -9.7969 37.203 -3.0938 Q 31.000 2.2031 23.094 2.2031 Q 13.906 2.2031 8.5000 -5.5000 Q 5.0000 -10.406 5.0000 -16.094 Q 5.0000 -20.703 9.0938 -21.297 Q 9.5000 -21.406 9.9062 -21.406 Q 13.594 -21.406 14.703 -18.094 Q 14.906 -17.297 14.906 -16.500 Q 14.906 -13.297 12.094 -12.094 Q 11.094 -11.594 9.9062 -11.594 Q 8.7969 -11.594 8.2031 -11.797 Q 10.000 -5.5000 15.906 -2.4062 Q 19.203 -.59375 22.906 -.59375 Q 29.594 -.59375 33.594 -7.0938 Q 36.000 -11.297 36.000 -20.797 Q 36.000 -29.203 34.203 -33.406 Q 31.406 -39.797 25.703 -39.797 Q 17.594 -39.797 12.797 -32.797 Q 12.203 -31.906 11.500 -31.906 Q 10.203 -31.906 10.094 -33.297 L 10.094 -34.500 L 10.094 -64.094 Q 10.094 -66.406 11.094 -66.500 Q 11.500 -66.500 12.297 -66.203 Q 18.594 -63.406 25.594 -63.406 Q 32.797 -63.406 39.203 -66.297 Q 39.703 -66.594 40.000 -66.594 Q 41.000 -66.594 41.000 -65.500 Q 41.000 -64.203 37.797 -61.297 Q 31.000 -55.094 21.703 -55.094 Q 17.500 -55.094 13.203 -56.406 L 13.203 -36.906 Q 18.406 -42.000 25.906 -42.000 Q 34.703 -42.000 40.406 -34.297 Q 44.906 -28.203 44.906 -20.094 z"/>
<title>5</title>
<desc>texte6 = “5”</desc>

</g> <!-- drawing style -->
</g> <!-- clip32 -->
</g> <!-- transform -->
<g transform="matrix(.67000, 0.0000, 0.0000, .67000, 54.000, 517.15)">
<clipPath id="clipe0ac70fd-00db-407b-862f-61b31b619331">
  <path d="M -80.597 -771.86 L -80.597 62.466 L 764.18 62.466 L 764.18 -771.86 z"/>
</clipPath>
<g clip-path="url(#clip33)">
<g fill-opacity="1.0000" fill-rule="nonzero" stroke="none" fill="#000000">
  <path d="M 13.203 -32.797 L 13.203 -32.797 Q 17.297 -42.703 25.703 -42.703 Q 34.906 -42.703 40.797 -35.094 Q 44.094 -31.000 45.203 -25.500 Q 45.703 -23.000 45.703 -20.406 Q 45.703 -9.2969 38.000 -2.5938 Q 32.406 2.2031 25.094 2.2031 Q 14.906 2.2031 9.2031 -7.5000 Q 4.2031 -16.203 4.2031 -31.594 Q 4.2031 -48.906 14.000 -59.094 Q 21.297 -66.594 30.500 -66.594 Q 39.203 -66.594 42.203 -60.500 Q 43.203 -58.406 43.203 -55.797 Q 43.203 -51.797 39.500 -51.094 Q 39.000 -51.000 38.594 -51.000 Q 35.406 -51.000 34.297 -53.797 Q 34.000 -54.594 34.000 -55.594 Q 34.000 -60.094 39.500 -60.094 Q 36.906 -64.094 30.703 -64.094 Q 23.703 -64.094 18.906 -57.797 Q 13.203 -50.297 13.203 -35.203 L 13.203 -32.797 z M 25.094 -.59375 L 25.094 -.59375 Q 31.797 -.59375 35.000 -7.0938 Q 36.703 -10.703 36.703 -20.500 Q 36.703 -30.500 34.906 -34.203 Q 31.797 -40.406 25.594 -40.406 Q 17.703 -40.406 14.703 -31.000 Q 13.406 -27.094 13.406 -22.594 Q 13.406 -12.797 15.203 -8.0938 Q 17.094 -3.5000 21.094 -1.5000 Q 23.000 -.59375 25.094 -.59375 z"/>
<title>6</title>
<desc>texte7 = “6”</desc>

</g> <!-- drawing style -->
</g> <!-- clip33 -->
</g> <!-- transform -->
<g transform="matrix(.67000, 0.0000, 0.0000, .67000, 264.00, 516.15)">
<clipPath id="clip56ea4310-d4aa-4079-8779-f6c3f23c2c3f">
  <path d="M -394.03 -770.37 L -394.03 63.958 L 450.75 63.958 L 450.75 -770.37 z"/>
</clipPath>
<g clip-path="url(#clip34)">
<g fill-opacity="1.0000" fill-rule="nonzero" stroke="none" fill="#000000">
  <path d="M 47.594 -60.906 L 34.094 -41.906 Q 29.797 -35.906 27.906 -24.797 Q 26.797 -17.406 26.797 -8.4062 L 26.797 -3.2969 Q 26.797 2.2031 22.203 2.2031 Q 17.594 2.2031 17.594 -3.2969 Q 17.594 -20.000 27.297 -36.797 L 29.906 -40.906 L 41.094 -56.703 L 20.406 -56.703 Q 11.297 -56.703 10.594 -56.094 Q 9.5938 -55.203 8.0938 -47.000 L 5.5938 -47.000 L 8.9062 -67.594 L 11.406 -67.594 Q 11.797 -65.906 13.203 -65.297 L 13.297 -65.297 L 13.297 -65.297 Q 15.906 -64.406 24.203 -64.406 L 48.500 -64.406 Q 48.500 -62.094 47.594 -60.906 z"/>
<title>7</title>
<desc>texte8 = “7”</desc>

</g> <!-- drawing style -->
</g> <!-- clip34 -->
</g> <!-- transform -->
<g transform="matrix(.67000, 0.0000, 0.0000, .67000, 476.00, 515.15)">
<clipPath id="clip0167b5c2-1621-4355-80c9-1179257b9fa3">
  <path d="M -710.45 -768.88 L -710.45 65.451 L 134.33 65.451 L 134.33 -768.88 z"/>
</clipPath>
<g clip-path="url(#clip35)">
<g fill-opacity="1.0000" fill-rule="nonzero" stroke="none" fill="#000000">
  <path d="M 16.297 -45.703 L 28.703 -37.703 Q 38.594 -43.500 38.594 -51.703 Q 38.594 -58.297 32.594 -62.000 Q 29.094 -64.094 24.906 -64.094 Q 17.703 -64.094 13.594 -59.594 L 13.594 -59.594 L 13.500 -59.500 Q 11.297 -56.906 11.297 -53.797 Q 11.297 -49.000 16.297 -45.703 z M 30.906 -36.203 L 30.906 -36.203 Q 38.594 -31.406 40.297 -29.594 Q 40.594 -29.406 40.797 -29.094 Q 45.703 -23.703 45.703 -16.797 Q 45.703 -7.9062 38.297 -2.2969 Q 32.500 2.2031 24.906 2.2031 Q 15.406 2.2031 9.2031 -3.7031 Q 4.2031 -8.5000 4.2031 -15.094 Q 4.2031 -26.297 18.594 -33.500 Q 12.406 -37.703 11.297 -38.906 Q 6.9062 -43.797 6.9062 -49.906 Q 6.9062 -57.906 13.594 -62.906 Q 18.594 -66.594 25.000 -66.594 Q 33.703 -66.594 39.094 -61.094 Q 43.000 -57.094 43.000 -51.703 Q 43.000 -42.406 30.906 -36.203 z M 20.906 -32.000 L 20.906 -32.000 Q 9.7031 -25.000 9.2031 -15.094 Q 9.2031 -7.7969 15.500 -3.5000 Q 19.703 -.59375 25.000 -.59375 Q 32.797 -.59375 37.500 -5.5000 Q 40.703 -8.9062 40.703 -13.203 Q 40.703 -19.000 34.297 -23.500 Q 34.094 -23.594 33.203 -24.203 L 20.906 -32.000 z"/>
<title>8</title>
<desc>texte9 = “8”</desc>

</g> <!-- drawing style -->
</g> <!-- clip35 -->
</g> <!-- transform -->
</g><!-- layer0 -->
</g> <!-- default stroke -->
</svg> <!-- bounding box -->
