<?xml version="1.0" encoding="ISO-8859-1" standalone="no"?>

<svg 
     version="1.1"
     baseProfile="full"
     xmlns="http://www.w3.org/2000/svg"
     xmlns:xlink="http://www.w3.org/1999/xlink"
     xmlns:ev="http://www.w3.org/2001/xml-events"
     width="63.98066621917352cm"
     height="33.385007032620514cm"
     viewBox="0 0 733 382"
     >
<title>

</title>
<g stroke-linejoin="miter" stroke-dashoffset="0.0000" stroke-dasharray="none" stroke-width="1.0000" stroke-miterlimit="10.000" stroke-linecap="square">
<g transform="matrix(1.0000, 0.0000, 0.0000, 1.0000, -264.00, -200.00)">
<clipPath id="clip75019007-d4f6-4fd7-9c04-1a44f29f173b">
  <path d="M 264.00 200.00 L 264.00 583.00 L 998.00 583.00 L 998.00 200.00 z"/>
</clipPath>
<g clip-path="url(#clip1)">
<g stroke-linecap="butt" fill="none" stroke-opacity="1.0000" stroke="#000000">
  <path d="M 0.0000 539.29 L 1295.0 539.29"/>
</g> <!-- drawing style -->
</g> <!-- clip1 -->
</g> <!-- transform -->
<g transform="matrix(1.0000, 0.0000, 0.0000, 1.0000, -264.00, -200.00)">
<clipPath id="clipa27280f6-4e9c-4b63-9a19-39da29ad52c5">
  <path d="M 264.00 200.00 L 264.00 583.00 L 998.00 583.00 L 998.00 200.00 z"/>
</clipPath>
<g clip-path="url(#clip2)">
<g stroke-linecap="butt" fill="none" stroke-opacity="1.0000" stroke="#000000">
  <path d="M 1296.0 539.29 L 1292.0 535.29"/>
</g> <!-- drawing style -->
</g> <!-- clip2 -->
</g> <!-- transform -->
<g transform="matrix(1.0000, 0.0000, 0.0000, 1.0000, -264.00, -200.00)">
<clipPath id="clipc1c14620-5f01-487b-ba3e-8f267d6a4872">
  <path d="M 264.00 200.00 L 264.00 583.00 L 998.00 583.00 L 998.00 200.00 z"/>
</clipPath>
<g clip-path="url(#clip3)">
<g stroke-linecap="butt" fill="none" stroke-opacity="1.0000" stroke="#000000">
  <path d="M 1296.0 539.29 L 1292.0 543.29"/>
</g> <!-- drawing style -->
</g> <!-- clip3 -->
</g> <!-- transform -->
<g transform="matrix(1.0000, 0.0000, 0.0000, 1.0000, -264.00, -200.00)">
<clipPath id="clip83b5c9b7-91d4-4b36-98d3-778169ee6493">
  <path d="M 264.00 200.00 L 264.00 583.00 L 998.00 583.00 L 998.00 200.00 z"/>
</clipPath>
<g clip-path="url(#clip4)">
<g stroke-linecap="butt" fill="none" stroke-opacity="1.0000" stroke="#000000">
  <path d="M 56.424 539.29 L 56.424 542.29"/>
</g> <!-- drawing style -->
</g> <!-- clip4 -->
</g> <!-- transform -->
<g transform="matrix(1.0000, 0.0000, 0.0000, 1.0000, -264.00, -200.00)">
<clipPath id="clipe647dcb1-1f9c-443d-9afa-f8da5fb29b12">
  <path d="M 264.00 200.00 L 264.00 583.00 L 998.00 583.00 L 998.00 200.00 z"/>
</clipPath>
<g clip-path="url(#clip5)">
<g fill-opacity="1.0000" fill-rule="nonzero" stroke="none" fill="#000000">
  <path d="M 173.47 555.00 L 172.42 555.00 L 172.42 548.28 Q 172.03 548.64 171.41 549.01 Q 170.80 549.38 170.31 549.55 L 170.31 548.53 Q 171.19 548.11 171.85 547.52 Q 172.52 546.94 172.80 546.38 L 173.47 546.38 L 173.47 555.00 z"/>
</g> <!-- drawing style -->
</g> <!-- clip5 -->
</g> <!-- transform -->
<g transform="matrix(1.0000, 0.0000, 0.0000, 1.0000, -264.00, -200.00)">
<clipPath id="clip38813a9d-08d8-400a-b39a-ec8851fd8f5b">
  <path d="M 264.00 200.00 L 264.00 583.00 L 998.00 583.00 L 998.00 200.00 z"/>
</clipPath>
<g clip-path="url(#clip6)">
<g stroke-linecap="butt" fill="none" stroke-opacity="1.0000" stroke="#000000">
  <path d="M 171.15 539.29 L 171.15 542.29"/>
</g> <!-- drawing style -->
</g> <!-- clip6 -->
</g> <!-- transform -->
<g transform="matrix(1.0000, 0.0000, 0.0000, 1.0000, -264.00, -200.00)">
<clipPath id="clip2c4804a8-d845-4ab9-b7bf-c4a87105301b">
  <path d="M 264.00 200.00 L 264.00 583.00 L 998.00 583.00 L 998.00 200.00 z"/>
</clipPath>
<g clip-path="url(#clip7)">
<g fill-opacity="1.0000" fill-rule="nonzero" stroke="none" fill="#000000">
  <path d="M 289.05 553.98 L 289.05 555.00 L 283.36 555.00 Q 283.36 554.62 283.48 554.27 Q 283.70 553.69 284.18 553.12 Q 284.66 552.56 285.56 551.83 Q 286.97 550.67 287.46 550.00 Q 287.95 549.33 287.95 548.73 Q 287.95 548.11 287.50 547.68 Q 287.05 547.25 286.33 547.25 Q 285.56 547.25 285.11 547.70 Q 284.66 548.16 284.64 548.97 L 283.56 548.86 Q 283.67 547.64 284.40 547.01 Q 285.12 546.38 286.36 546.38 Q 287.59 546.38 288.31 547.06 Q 289.03 547.75 289.03 548.77 Q 289.03 549.28 288.82 549.77 Q 288.61 550.27 288.12 550.82 Q 287.62 551.38 286.50 552.33 Q 285.55 553.12 285.27 553.41 Q 285.00 553.70 284.83 553.98 L 289.05 553.98 z"/>
</g> <!-- drawing style -->
</g> <!-- clip7 -->
</g> <!-- transform -->
<g transform="matrix(1.0000, 0.0000, 0.0000, 1.0000, -264.00, -200.00)">
<clipPath id="clip068ee63c-2784-4792-876e-f57126b5f113">
  <path d="M 264.00 200.00 L 264.00 583.00 L 998.00 583.00 L 998.00 200.00 z"/>
</clipPath>
<g clip-path="url(#clip8)">
<g stroke-linecap="butt" fill="none" stroke-opacity="1.0000" stroke="#000000">
  <path d="M 285.87 539.29 L 285.87 542.29"/>
</g> <!-- drawing style -->
</g> <!-- clip8 -->
</g> <!-- transform -->
<g transform="matrix(1.0000, 0.0000, 0.0000, 1.0000, -264.00, -200.00)">
<clipPath id="clip0403dada-6e0e-4f0b-bcc8-ea0ed20b803f">
  <path d="M 264.00 200.00 L 264.00 583.00 L 998.00 583.00 L 998.00 200.00 z"/>
</clipPath>
<g clip-path="url(#clip9)">
<g fill-opacity="1.0000" fill-rule="nonzero" stroke="none" fill="#000000">
  <path d="M 398.50 552.73 L 399.56 552.59 Q 399.73 553.48 400.17 553.88 Q 400.61 554.28 401.23 554.28 Q 401.98 554.28 402.50 553.77 Q 403.02 553.25 403.02 552.48 Q 403.02 551.77 402.54 551.29 Q 402.06 550.81 401.33 550.81 Q 401.03 550.81 400.58 550.94 L 400.70 550.00 Q 400.81 550.02 400.88 550.02 Q 401.55 550.02 402.09 549.66 Q 402.62 549.31 402.62 548.58 Q 402.62 548.00 402.23 547.62 Q 401.84 547.23 401.22 547.23 Q 400.61 547.23 400.20 547.62 Q 399.78 548.02 399.67 548.78 L 398.61 548.59 Q 398.80 547.55 399.48 546.96 Q 400.17 546.38 401.19 546.38 Q 401.89 546.38 402.48 546.68 Q 403.08 546.98 403.39 547.50 Q 403.70 548.02 403.70 548.61 Q 403.70 549.16 403.41 549.62 Q 403.11 550.08 402.53 550.34 Q 403.28 550.52 403.70 551.07 Q 404.12 551.62 404.12 552.47 Q 404.12 553.59 403.30 554.38 Q 402.48 555.16 401.23 555.16 Q 400.11 555.16 399.36 554.48 Q 398.61 553.80 398.50 552.73 z"/>
</g> <!-- drawing style -->
</g> <!-- clip9 -->
</g> <!-- transform -->
<g transform="matrix(1.0000, 0.0000, 0.0000, 1.0000, -264.00, -200.00)">
<clipPath id="clip1139b1d7-57ce-40e5-9b13-8830a3f95695">
  <path d="M 264.00 200.00 L 264.00 583.00 L 998.00 583.00 L 998.00 200.00 z"/>
</clipPath>
<g clip-path="url(#clip10)">
<g stroke-linecap="butt" fill="none" stroke-opacity="1.0000" stroke="#000000">
  <path d="M 400.59 539.29 L 400.59 542.29"/>
</g> <!-- drawing style -->
</g> <!-- clip10 -->
</g> <!-- transform -->
<g transform="matrix(1.0000, 0.0000, 0.0000, 1.0000, -264.00, -200.00)">
<clipPath id="clip6f394948-4620-459c-8670-7c5ddcb74d96">
  <path d="M 264.00 200.00 L 264.00 583.00 L 998.00 583.00 L 998.00 200.00 z"/>
</clipPath>
<g clip-path="url(#clip11)">
<g fill-opacity="1.0000" fill-rule="nonzero" stroke="none" fill="#000000">
  <path d="M 516.88 555.00 L 516.88 552.94 L 513.16 552.94 L 513.16 551.97 L 517.08 546.41 L 517.94 546.41 L 517.94 551.97 L 519.09 551.97 L 519.09 552.94 L 517.94 552.94 L 517.94 555.00 L 516.88 555.00 z M 516.88 551.97 L 516.88 548.11 L 514.19 551.97 L 516.88 551.97 z"/>
</g> <!-- drawing style -->
</g> <!-- clip11 -->
</g> <!-- transform -->
<g transform="matrix(1.0000, 0.0000, 0.0000, 1.0000, -264.00, -200.00)">
<clipPath id="clipaaf38520-97d6-4ec1-8c5f-105720847397">
  <path d="M 264.00 200.00 L 264.00 583.00 L 998.00 583.00 L 998.00 200.00 z"/>
</clipPath>
<g clip-path="url(#clip12)">
<g stroke-linecap="butt" fill="none" stroke-opacity="1.0000" stroke="#000000">
  <path d="M 515.31 539.29 L 515.31 542.29"/>
</g> <!-- drawing style -->
</g> <!-- clip12 -->
</g> <!-- transform -->
<g transform="matrix(1.0000, 0.0000, 0.0000, 1.0000, -264.00, -200.00)">
<clipPath id="clip6a4da763-60f5-4452-a92f-001cf873f70e">
  <path d="M 264.00 200.00 L 264.00 583.00 L 998.00 583.00 L 998.00 200.00 z"/>
</clipPath>
<g clip-path="url(#clip13)">
<g fill-opacity="1.0000" fill-rule="nonzero" stroke="none" fill="#000000">
  <path d="M 628.50 552.75 L 629.61 552.66 Q 629.73 553.47 630.18 553.88 Q 630.62 554.28 631.27 554.28 Q 632.02 554.28 632.55 553.70 Q 633.08 553.12 633.08 552.19 Q 633.08 551.28 632.57 550.76 Q 632.06 550.23 631.23 550.23 Q 630.73 550.23 630.32 550.47 Q 629.91 550.70 629.67 551.06 L 628.69 550.94 L 629.52 546.53 L 633.80 546.53 L 633.80 547.53 L 630.36 547.53 L 629.91 549.84 Q 630.67 549.30 631.52 549.30 Q 632.64 549.30 633.41 550.08 Q 634.19 550.86 634.19 552.09 Q 634.19 553.25 633.52 554.11 Q 632.69 555.14 631.27 555.14 Q 630.09 555.14 629.35 554.48 Q 628.61 553.83 628.50 552.75 z"/>
</g> <!-- drawing style -->
</g> <!-- clip13 -->
</g> <!-- transform -->
<g transform="matrix(1.0000, 0.0000, 0.0000, 1.0000, -264.00, -200.00)">
<clipPath id="clip10fd9cb5-280e-4723-8bf8-7fb314ed6e8c">
  <path d="M 264.00 200.00 L 264.00 583.00 L 998.00 583.00 L 998.00 200.00 z"/>
</clipPath>
<g clip-path="url(#clip14)">
<g stroke-linecap="butt" fill="none" stroke-opacity="1.0000" stroke="#000000">
  <path d="M 630.03 539.29 L 630.03 542.29"/>
</g> <!-- drawing style -->
</g> <!-- clip14 -->
</g> <!-- transform -->
<g transform="matrix(1.0000, 0.0000, 0.0000, 1.0000, -264.00, -200.00)">
<clipPath id="clip9e573086-9523-41c0-988c-ecd977c2d5dc">
  <path d="M 264.00 200.00 L 264.00 583.00 L 998.00 583.00 L 998.00 200.00 z"/>
</clipPath>
<g clip-path="url(#clip15)">
<g fill-opacity="1.0000" fill-rule="nonzero" stroke="none" fill="#000000">
  <path d="M 747.97 548.52 L 746.92 548.59 Q 746.78 547.97 746.53 547.69 Q 746.09 547.23 745.47 547.23 Q 744.97 547.23 744.58 547.52 Q 744.09 547.89 743.80 548.59 Q 743.52 549.28 743.50 550.56 Q 743.88 549.98 744.43 549.70 Q 744.98 549.42 745.59 549.42 Q 746.64 549.42 747.38 550.20 Q 748.12 550.98 748.12 552.20 Q 748.12 553.02 747.77 553.71 Q 747.42 554.41 746.81 554.77 Q 746.20 555.14 745.44 555.14 Q 744.11 555.14 743.28 554.17 Q 742.45 553.20 742.45 550.98 Q 742.45 548.48 743.38 547.36 Q 744.17 546.38 745.53 546.38 Q 746.55 546.38 747.20 546.95 Q 747.84 547.52 747.97 548.52 z M 743.67 552.22 Q 743.67 552.77 743.90 553.26 Q 744.12 553.75 744.54 554.02 Q 744.95 554.28 745.42 554.28 Q 746.08 554.28 746.56 553.74 Q 747.05 553.20 747.05 552.28 Q 747.05 551.39 746.57 550.88 Q 746.09 550.36 745.38 550.36 Q 744.66 550.36 744.16 550.88 Q 743.67 551.39 743.67 552.22 z"/>
</g> <!-- drawing style -->
</g> <!-- clip15 -->
</g> <!-- transform -->
<g transform="matrix(1.0000, 0.0000, 0.0000, 1.0000, -264.00, -200.00)">
<clipPath id="clipb2036e20-7b3f-47bc-b10b-4e5a3f407cfe">
  <path d="M 264.00 200.00 L 264.00 583.00 L 998.00 583.00 L 998.00 200.00 z"/>
</clipPath>
<g clip-path="url(#clip16)">
<g stroke-linecap="butt" fill="none" stroke-opacity="1.0000" stroke="#000000">
  <path d="M 744.76 539.29 L 744.76 542.29"/>
</g> <!-- drawing style -->
</g> <!-- clip16 -->
</g> <!-- transform -->
<g transform="matrix(1.0000, 0.0000, 0.0000, 1.0000, -264.00, -200.00)">
<clipPath id="clip24f0c380-88f2-414c-b439-94a20bd5148e">
  <path d="M 264.00 200.00 L 264.00 583.00 L 998.00 583.00 L 998.00 200.00 z"/>
</clipPath>
<g clip-path="url(#clip17)">
<g fill-opacity="1.0000" fill-rule="nonzero" stroke="none" fill="#000000">
  <path d="M 857.56 547.53 L 857.56 546.52 L 863.12 546.52 L 863.12 547.34 Q 862.31 548.22 861.51 549.66 Q 860.70 551.11 860.27 552.64 Q 859.94 553.72 859.86 555.00 L 858.77 555.00 Q 858.78 553.98 859.16 552.55 Q 859.55 551.11 860.26 549.78 Q 860.97 548.45 861.78 547.53 L 857.56 547.53 z"/>
</g> <!-- drawing style -->
</g> <!-- clip17 -->
</g> <!-- transform -->
<g transform="matrix(1.0000, 0.0000, 0.0000, 1.0000, -264.00, -200.00)">
<clipPath id="clip7ce020ea-dd75-4f65-ac36-29a1b67e2872">
  <path d="M 264.00 200.00 L 264.00 583.00 L 998.00 583.00 L 998.00 200.00 z"/>
</clipPath>
<g clip-path="url(#clip18)">
<g stroke-linecap="butt" fill="none" stroke-opacity="1.0000" stroke="#000000">
  <path d="M 859.48 539.29 L 859.48 542.29"/>
</g> <!-- drawing style -->
</g> <!-- clip18 -->
</g> <!-- transform -->
<g transform="matrix(1.0000, 0.0000, 0.0000, 1.0000, -264.00, -200.00)">
<clipPath id="clip8bd5f470-fa69-406c-994d-1bc85b1659ca">
  <path d="M 264.00 200.00 L 264.00 583.00 L 998.00 583.00 L 998.00 200.00 z"/>
</clipPath>
<g clip-path="url(#clip19)">
<g fill-opacity="1.0000" fill-rule="nonzero" stroke="none" fill="#000000">
  <path d="M 974.12 550.34 Q 973.47 550.09 973.15 549.65 Q 972.83 549.20 972.83 548.59 Q 972.83 547.66 973.51 547.02 Q 974.19 546.38 975.30 546.38 Q 976.42 546.38 977.11 547.03 Q 977.80 547.69 977.80 548.62 Q 977.80 549.22 977.48 549.66 Q 977.17 550.09 976.53 550.34 Q 977.33 550.59 977.73 551.17 Q 978.14 551.75 978.14 552.55 Q 978.14 553.64 977.37 554.39 Q 976.59 555.14 975.31 555.14 Q 974.05 555.14 973.27 554.39 Q 972.48 553.64 972.48 552.52 Q 972.48 551.67 972.91 551.11 Q 973.34 550.55 974.12 550.34 z M 973.91 548.55 Q 973.91 549.16 974.30 549.55 Q 974.70 549.94 975.33 549.94 Q 975.94 549.94 976.33 549.55 Q 976.72 549.17 976.72 548.61 Q 976.72 548.03 976.31 547.63 Q 975.91 547.23 975.31 547.23 Q 974.70 547.23 974.30 547.62 Q 973.91 548.02 973.91 548.55 z M 973.58 552.52 Q 973.58 552.97 973.79 553.39 Q 974.00 553.81 974.42 554.05 Q 974.84 554.28 975.33 554.28 Q 976.08 554.28 976.57 553.80 Q 977.06 553.31 977.06 552.56 Q 977.06 551.80 976.56 551.30 Q 976.06 550.80 975.30 550.80 Q 974.55 550.80 974.06 551.29 Q 973.58 551.78 973.58 552.52 z"/>
</g> <!-- drawing style -->
</g> <!-- clip19 -->
</g> <!-- transform -->
<g transform="matrix(1.0000, 0.0000, 0.0000, 1.0000, -264.00, -200.00)">
<clipPath id="clipcd36af4e-e3f2-4640-b933-9798f5c03963">
  <path d="M 264.00 200.00 L 264.00 583.00 L 998.00 583.00 L 998.00 200.00 z"/>
</clipPath>
<g clip-path="url(#clip20)">
<g stroke-linecap="butt" fill="none" stroke-opacity="1.0000" stroke="#000000">
  <path d="M 974.20 539.29 L 974.20 542.29"/>
</g> <!-- drawing style -->
</g> <!-- clip20 -->
</g> <!-- transform -->
<g transform="matrix(1.0000, 0.0000, 0.0000, 1.0000, -264.00, -200.00)">
<clipPath id="clip82f3e9d2-f054-4f7b-b940-5ce2ee559732">
  <path d="M 264.00 200.00 L 264.00 583.00 L 998.00 583.00 L 998.00 200.00 z"/>
</clipPath>
<g clip-path="url(#clip21)">
<g fill-opacity="1.0000" fill-rule="nonzero" stroke="none" fill="#000000">
  <path d="M 1086.7 553.02 L 1087.7 552.92 Q 1087.8 553.64 1088.2 553.96 Q 1088.5 554.28 1089.1 554.28 Q 1089.6 554.28 1089.9 554.05 Q 1090.3 553.83 1090.5 553.46 Q 1090.8 553.09 1090.9 552.46 Q 1091.1 551.83 1091.1 551.17 Q 1091.1 551.09 1091.1 550.95 Q 1090.8 551.45 1090.2 551.77 Q 1089.7 552.09 1089.0 552.09 Q 1088.0 552.09 1087.2 551.32 Q 1086.5 550.55 1086.5 549.28 Q 1086.5 547.97 1087.3 547.17 Q 1088.0 546.38 1089.2 546.38 Q 1090.0 546.38 1090.7 546.83 Q 1091.4 547.28 1091.8 548.12 Q 1092.1 548.95 1092.1 550.53 Q 1092.1 552.17 1091.8 553.15 Q 1091.4 554.12 1090.7 554.63 Q 1090.0 555.14 1089.1 555.14 Q 1088.1 555.14 1087.4 554.59 Q 1086.8 554.03 1086.7 553.02 z M 1091.0 549.22 Q 1091.0 548.31 1090.5 547.78 Q 1090.0 547.25 1089.3 547.25 Q 1088.6 547.25 1088.1 547.82 Q 1087.6 548.39 1087.6 549.31 Q 1087.6 550.12 1088.1 550.64 Q 1088.6 551.16 1089.3 551.16 Q 1090.0 551.16 1090.5 550.64 Q 1091.0 550.12 1091.0 549.22 z"/>
</g> <!-- drawing style -->
</g> <!-- clip21 -->
</g> <!-- transform -->
<g transform="matrix(1.0000, 0.0000, 0.0000, 1.0000, -264.00, -200.00)">
<clipPath id="clip24f6ed3b-befe-4fea-b8f2-62b942d32294">
  <path d="M 264.00 200.00 L 264.00 583.00 L 998.00 583.00 L 998.00 200.00 z"/>
</clipPath>
<g clip-path="url(#clip22)">
<g stroke-linecap="butt" fill="none" stroke-opacity="1.0000" stroke="#000000">
  <path d="M 1088.9 539.29 L 1088.9 542.29"/>
</g> <!-- drawing style -->
</g> <!-- clip22 -->
</g> <!-- transform -->
<g transform="matrix(1.0000, 0.0000, 0.0000, 1.0000, -264.00, -200.00)">
<clipPath id="clip49d0bdcd-5850-4465-b41a-4a1da72a5429">
  <path d="M 264.00 200.00 L 264.00 583.00 L 998.00 583.00 L 998.00 200.00 z"/>
</clipPath>
<g clip-path="url(#clip23)">
<g fill-opacity="1.0000" fill-rule="nonzero" stroke="none" fill="#000000">
  <path d="M 1202.5 555.00 L 1201.4 555.00 L 1201.4 548.28 Q 1201.0 548.64 1200.4 549.01 Q 1199.8 549.38 1199.3 549.55 L 1199.3 548.53 Q 1200.2 548.11 1200.9 547.52 Q 1201.5 546.94 1201.8 546.38 L 1202.5 546.38 L 1202.5 555.00 z M 1205.2 550.77 Q 1205.2 549.23 1205.5 548.30 Q 1205.8 547.38 1206.4 546.88 Q 1207.0 546.38 1208.0 546.38 Q 1208.7 546.38 1209.2 546.66 Q 1209.7 546.94 1210.0 547.46 Q 1210.4 547.98 1210.6 548.73 Q 1210.8 549.48 1210.8 550.77 Q 1210.8 552.28 1210.5 553.20 Q 1210.2 554.12 1209.5 554.63 Q 1208.9 555.14 1208.0 555.14 Q 1206.7 555.14 1206.0 554.25 Q 1205.2 553.19 1205.2 550.77 z M 1206.3 550.77 Q 1206.3 552.88 1206.8 553.58 Q 1207.3 554.28 1208.0 554.28 Q 1208.7 554.28 1209.2 553.58 Q 1209.7 552.88 1209.7 550.77 Q 1209.7 548.64 1209.2 547.95 Q 1208.7 547.25 1208.0 547.25 Q 1207.2 547.25 1206.8 547.86 Q 1206.3 548.64 1206.3 550.77 z"/>
</g> <!-- drawing style -->
</g> <!-- clip23 -->
</g> <!-- transform -->
<g transform="matrix(1.0000, 0.0000, 0.0000, 1.0000, -264.00, -200.00)">
<clipPath id="clipc81c6e93-8068-4501-a4fb-2b7fdaec82f7">
  <path d="M 264.00 200.00 L 264.00 583.00 L 998.00 583.00 L 998.00 200.00 z"/>
</clipPath>
<g clip-path="url(#clip24)">
<g stroke-linecap="butt" fill="none" stroke-opacity="1.0000" stroke="#000000">
  <path d="M 1203.6 539.29 L 1203.6 542.29"/>
</g> <!-- drawing style -->
</g> <!-- clip24 -->
</g> <!-- transform -->
<g transform="matrix(1.0000, 0.0000, 0.0000, 1.0000, -264.00, -200.00)">
<clipPath id="clipfaab707a-6242-4115-8363-857b48752847">
  <path d="M 264.00 200.00 L 264.00 583.00 L 998.00 583.00 L 998.00 200.00 z"/>
</clipPath>
<g clip-path="url(#clip25)">
<g fill-opacity="1.0000" fill-rule="nonzero" stroke="none" fill="#000000">
  <path d="M 53.500 550.77 Q 53.500 549.23 53.812 548.30 Q 54.125 547.38 54.742 546.88 Q 55.359 546.38 56.297 546.38 Q 56.984 546.38 57.508 546.66 Q 58.031 546.94 58.375 547.46 Q 58.719 547.98 58.906 548.73 Q 59.094 549.48 59.094 550.77 Q 59.094 552.28 58.789 553.20 Q 58.484 554.12 57.867 554.63 Q 57.250 555.14 56.297 555.14 Q 55.062 555.14 54.344 554.25 Q 53.500 553.19 53.500 550.77 z M 54.578 550.77 Q 54.578 552.88 55.078 553.58 Q 55.578 554.28 56.297 554.28 Q 57.031 554.28 57.523 553.58 Q 58.016 552.88 58.016 550.77 Q 58.016 548.64 57.523 547.95 Q 57.031 547.25 56.281 547.25 Q 55.562 547.25 55.125 547.86 Q 54.578 548.64 54.578 550.77 z"/>
</g> <!-- drawing style -->
</g> <!-- clip25 -->
</g> <!-- transform -->
<g id="misc">
</g><!-- misc -->
<g id="layer0">
<g transform="matrix(1.0000, 0.0000, 0.0000, 1.0000, -264.00, -200.00)">
<clipPath id="clipdbe93a9e-a555-4f03-ba6f-5d3893b9d869">
  <path d="M 264.00 200.00 L 264.00 583.00 L 998.00 583.00 L 998.00 200.00 z"/>
</clipPath>
<g clip-path="url(#clip26)">
<g fill-opacity=".098039" fill-rule="evenodd" stroke="none" fill="#ff0000">
  <path d="M 400.59 539.29 L 400.59 309.85 L 515.31 309.85 L 515.31 539.29 z"/>
<title>Quadrilatère q1</title>
<desc>Quadrilatère q1: Polygone H, A, M, I</desc>

</g> <!-- drawing style -->
</g> <!-- clip26 -->
</g> <!-- transform -->
<g transform="matrix(1.0000, 0.0000, 0.0000, 1.0000, -264.00, -200.00)">
<clipPath id="clipa9fd41f4-063b-4ff4-9d00-fe0f1be4b697">
  <path d="M 264.00 200.00 L 264.00 583.00 L 998.00 583.00 L 998.00 200.00 z"/>
</clipPath>
<g clip-path="url(#clip27)">
<g stroke-linejoin="round" stroke-width="4.0000" stroke-linecap="round" fill="none" stroke-opacity=".69804" stroke="#0000ff">
  <path d="M 400.59 309.85 L 630.03 309.85"/>
<title>Segment f</title>
<desc>Segment f: Segment [AB]</desc>

</g> <!-- drawing style -->
</g> <!-- clip27 -->
</g> <!-- transform -->
<g transform="matrix(1.0000, 0.0000, 0.0000, 1.0000, -264.00, -200.00)">
<clipPath id="clip3070d368-0563-4e15-aaa6-5a2888a71133">
  <path d="M 264.00 200.00 L 264.00 583.00 L 998.00 583.00 L 998.00 200.00 z"/>
</clipPath>
<g clip-path="url(#clip28)">
<g stroke-linejoin="round" stroke-width="4.0000" stroke-linecap="round" fill="none" stroke-opacity=".69804" stroke="#0000ff">
  <path d="M 285.87 386.33 L 515.31 386.33"/>
<title>Segment g</title>
<desc>Segment g: Segment [CD]</desc>

</g> <!-- drawing style -->
</g> <!-- clip28 -->
</g> <!-- transform -->
<g transform="matrix(1.0000, 0.0000, 0.0000, 1.0000, -264.00, -200.00)">
<clipPath id="clip8273db0a-c8b2-497a-a052-8ec5fa43850e">
  <path d="M 264.00 200.00 L 264.00 583.00 L 998.00 583.00 L 998.00 200.00 z"/>
</clipPath>
<g clip-path="url(#clip29)">
<g stroke-linejoin="round" stroke-width="4.0000" stroke-linecap="round" fill="none" stroke-opacity=".69804" stroke="#0000ff">
  <path d="M 744.76 462.81 L 974.20 462.81"/>
<title>Segment h</title>
<desc>Segment h: Segment [EF]</desc>

</g> <!-- drawing style -->
</g> <!-- clip29 -->
</g> <!-- transform -->
<g transform="matrix(1.0000, 0.0000, 0.0000, 1.0000, -264.00, -200.00)">
<clipPath id="clip9869fce9-32db-4240-a88e-b730cca64c17">
  <path d="M 264.00 200.00 L 264.00 583.00 L 998.00 583.00 L 998.00 200.00 z"/>
</clipPath>
<g clip-path="url(#clip30)">
<g stroke-linejoin="round" stroke-dasharray="10.500,8.0000" stroke-width="2.5000" stroke-linecap="butt" fill="none" stroke-opacity=".69804" stroke="#808080">
  <path d="M 285.87 539.29 L 285.87 386.33"/>
<title>Segment i</title>
<desc>Segment i: Segment [GC]</desc>

</g> <!-- drawing style -->
</g> <!-- clip30 -->
</g> <!-- transform -->
<g transform="matrix(1.0000, 0.0000, 0.0000, 1.0000, -264.00, -200.00)">
<clipPath id="clip6168360f-9e44-44da-ad75-67d8be56eff3">
  <path d="M 264.00 200.00 L 264.00 583.00 L 998.00 583.00 L 998.00 200.00 z"/>
</clipPath>
<g clip-path="url(#clip31)">
<g stroke-linejoin="round" stroke-dasharray="10.500,8.0000" stroke-width="2.5000" stroke-linecap="butt" fill="none" stroke-opacity=".69804" stroke="#ff0000">
  <path d="M 400.59 539.29 L 400.59 309.85"/>
<title>Segment j</title>
<desc>Segment j: Segment [HA]</desc>

</g> <!-- drawing style -->
</g> <!-- clip31 -->
</g> <!-- transform -->
<g transform="matrix(1.0000, 0.0000, 0.0000, 1.0000, -264.00, -200.00)">
<clipPath id="clip473e971f-0166-44de-80fd-36fafa37dda8">
  <path d="M 264.00 200.00 L 264.00 583.00 L 998.00 583.00 L 998.00 200.00 z"/>
</clipPath>
<g clip-path="url(#clip32)">
<g stroke-linejoin="round" stroke-dasharray="10.500,8.0000" stroke-width="2.5000" stroke-linecap="butt" fill="none" stroke-opacity=".69804" stroke="#808080">
  <path d="M 630.03 539.29 L 630.03 309.85"/>
<title>Segment l</title>
<desc>Segment l: Segment [JB]</desc>

</g> <!-- drawing style -->
</g> <!-- clip32 -->
</g> <!-- transform -->
<g transform="matrix(1.0000, 0.0000, 0.0000, 1.0000, -264.00, -200.00)">
<clipPath id="clipc7bbafa3-5a6d-47f4-9996-684890a72d4e">
  <path d="M 264.00 200.00 L 264.00 583.00 L 998.00 583.00 L 998.00 200.00 z"/>
</clipPath>
<g clip-path="url(#clip33)">
<g stroke-linejoin="round" stroke-dasharray="10.500,8.0000" stroke-width="2.5000" stroke-linecap="butt" fill="none" stroke-opacity=".69804" stroke="#808080">
  <path d="M 744.76 462.81 L 744.76 539.29"/>
<title>Segment m</title>
<desc>Segment m: Segment [EK]</desc>

</g> <!-- drawing style -->
</g> <!-- clip33 -->
</g> <!-- transform -->
<g transform="matrix(1.0000, 0.0000, 0.0000, 1.0000, -264.00, -200.00)">
<clipPath id="clipebc4e730-eef3-4f60-a493-9e1d6459a72e">
  <path d="M 264.00 200.00 L 264.00 583.00 L 998.00 583.00 L 998.00 200.00 z"/>
</clipPath>
<g clip-path="url(#clip34)">
<g stroke-linejoin="round" stroke-dasharray="10.500,8.0000" stroke-width="2.5000" stroke-linecap="butt" fill="none" stroke-opacity=".69804" stroke="#808080">
  <path d="M 974.20 462.81 L 974.20 539.29"/>
<title>Segment n</title>
<desc>Segment n: Segment [FL]</desc>

</g> <!-- drawing style -->
</g> <!-- clip34 -->
</g> <!-- transform -->
<g transform="matrix(1.0000, 0.0000, 0.0000, 1.0000, -264.00, -200.00)">
<clipPath id="clip5099192c-51af-458e-9ae3-7aa739736810">
  <path d="M 264.00 200.00 L 264.00 583.00 L 998.00 583.00 L 998.00 200.00 z"/>
</clipPath>
<g clip-path="url(#clip35)">
<g stroke-linejoin="round" stroke-dasharray="10.500,8.0000" stroke-width="2.5000" stroke-linecap="butt" fill="none" stroke-opacity=".69804" stroke="#ff0000">
  <path d="M 515.31 539.29 L 515.31 309.85"/>
<title>Segment k</title>
<desc>Segment k: Segment [IM]</desc>

</g> <!-- drawing style -->
</g> <!-- clip35 -->
</g> <!-- transform -->
<g transform="matrix(1.0000, 0.0000, 0.0000, 1.0000, -264.00, -200.00)">
<clipPath id="clip46dbb756-6dc0-4f79-b231-f027dc82a4df">
  <path d="M 264.00 200.00 L 264.00 583.00 L 998.00 583.00 L 998.00 200.00 z"/>
</clipPath>
<g clip-path="url(#clip36)">
<g stroke-linejoin="round" stroke-width="2.5000" stroke-linecap="round" fill="none" stroke-opacity="0.0000" stroke="#ff0000">
  <path d="M 400.59 539.29 L 400.59 309.85"/>
<title>Segment h_1</title>
<desc>Segment h_1: Segment [HA]</desc>

</g> <!-- drawing style -->
</g> <!-- clip36 -->
</g> <!-- transform -->
<g transform="matrix(1.0000, 0.0000, 0.0000, 1.0000, -264.00, -200.00)">
<clipPath id="clip30eb016e-fef5-49f1-9e07-20803973260a">
  <path d="M 264.00 200.00 L 264.00 583.00 L 998.00 583.00 L 998.00 200.00 z"/>
</clipPath>
<g clip-path="url(#clip37)">
<g stroke-linejoin="round" stroke-width="2.5000" stroke-linecap="round" fill="none" stroke-opacity="0.0000" stroke="#ff0000">
  <path d="M 400.59 309.85 L 515.31 309.85"/>
<title>Segment a</title>
<desc>Segment a: Segment [AM]</desc>

</g> <!-- drawing style -->
</g> <!-- clip37 -->
</g> <!-- transform -->
<g transform="matrix(1.0000, 0.0000, 0.0000, 1.0000, -264.00, -200.00)">
<clipPath id="clip99f452c8-ec21-4c2d-b38a-8117dff42233">
  <path d="M 264.00 200.00 L 264.00 583.00 L 998.00 583.00 L 998.00 200.00 z"/>
</clipPath>
<g clip-path="url(#clip38)">
<g stroke-linejoin="round" stroke-width="2.5000" stroke-linecap="round" fill="none" stroke-opacity="0.0000" stroke="#ff0000">
  <path d="M 515.31 309.85 L 515.31 539.29"/>
<title>Segment m_1</title>
<desc>Segment m_1: Segment [MI]</desc>

</g> <!-- drawing style -->
</g> <!-- clip38 -->
</g> <!-- transform -->
<g transform="matrix(1.0000, 0.0000, 0.0000, 1.0000, -264.00, -200.00)">
<clipPath id="clip17d39da3-1c5b-4ba3-bb28-8890699c8482">
  <path d="M 264.00 200.00 L 264.00 583.00 L 998.00 583.00 L 998.00 200.00 z"/>
</clipPath>
<g clip-path="url(#clip39)">
<g stroke-linejoin="round" stroke-width="2.5000" stroke-linecap="round" fill="none" stroke-opacity="0.0000" stroke="#ff0000">
  <path d="M 515.31 539.29 L 400.59 539.29"/>
<title>Segment i_1</title>
<desc>Segment i_1: Segment [IH]</desc>

</g> <!-- drawing style -->
</g> <!-- clip39 -->
</g> <!-- transform -->
<g transform="matrix(1.0000, 0.0000, 0.0000, 1.0000, -264.00, -200.00)">
<clipPath id="clip71e1fc71-8026-4116-885f-7bb1e4e16de2">
  <path d="M 264.00 200.00 L 264.00 583.00 L 998.00 583.00 L 998.00 200.00 z"/>
</clipPath>
<g clip-path="url(#clip40)">
<g fill-opacity="1.0000" fill-rule="nonzero" stroke="none" fill="#000000">
  <path d="M 474.59 238.00 L 474.59 222.25 L 479.70 222.25 Q 482.61 222.25 483.48 222.48 Q 484.84 222.84 485.76 224.03 Q 486.67 225.22 486.67 227.09 Q 486.67 228.55 486.14 229.53 Q 485.61 230.52 484.80 231.09 Q 483.98 231.66 483.16 231.83 Q 482.02 232.06 479.86 232.06 L 477.78 232.06 L 477.78 238.00 L 474.59 238.00 z M 477.78 224.92 L 477.78 229.39 L 479.52 229.39 Q 481.41 229.39 482.04 229.14 Q 482.67 228.89 483.03 228.37 Q 483.39 227.84 483.39 227.14 Q 483.39 226.28 482.88 225.72 Q 482.38 225.16 481.61 225.02 Q 481.03 224.92 479.31 224.92 L 477.78 224.92 z M 495.86 234.38 L 498.86 234.88 Q 498.28 236.53 497.03 237.40 Q 495.78 238.27 493.91 238.27 Q 490.92 238.27 489.50 236.31 Q 488.38 234.75 488.38 232.38 Q 488.38 229.55 489.85 227.94 Q 491.33 226.33 493.61 226.33 Q 496.14 226.33 497.62 228.02 Q 499.10 229.70 499.03 233.17 L 491.47 233.17 Q 491.50 234.52 492.20 235.26 Q 492.89 236.00 493.94 236.00 Q 494.64 236.00 495.13 235.62 Q 495.61 235.23 495.86 234.38 z M 496.03 231.31 Q 496.00 230.00 495.35 229.32 Q 494.71 228.64 493.78 228.64 Q 492.80 228.64 492.16 229.36 Q 491.50 230.08 491.52 231.31 L 496.03 231.31 z M 491.77 224.00 L 493.24 220.80 L 496.63 220.80 L 493.67 224.00 L 491.77 224.00 z M 504.38 238.00 L 501.36 238.00 L 501.36 226.59 L 504.16 226.59 L 504.16 228.22 Q 504.88 227.06 505.46 226.70 Q 506.03 226.33 506.77 226.33 Q 507.80 226.33 508.75 226.91 L 507.82 229.53 Q 507.05 229.05 506.39 229.05 Q 505.77 229.05 505.32 229.39 Q 504.88 229.73 504.63 230.65 Q 504.38 231.56 504.38 234.47 L 504.38 238.00 z M 510.05 225.05 L 510.05 222.25 L 513.06 222.25 L 513.06 225.05 L 510.05 225.05 z M 510.05 238.00 L 510.05 226.59 L 513.06 226.59 L 513.06 238.00 L 510.05 238.00 z M 515.46 232.14 Q 515.46 230.62 516.20 229.22 Q 516.94 227.81 518.30 227.07 Q 519.66 226.33 521.33 226.33 Q 523.93 226.33 525.58 228.02 Q 527.24 229.70 527.24 232.27 Q 527.24 234.86 525.57 236.56 Q 523.90 238.27 521.36 238.27 Q 519.79 238.27 518.36 237.55 Q 516.94 236.84 516.20 235.47 Q 515.46 234.09 515.46 232.14 z M 518.55 232.30 Q 518.55 234.00 519.36 234.90 Q 520.18 235.80 521.35 235.80 Q 522.54 235.80 523.33 234.90 Q 524.13 234.00 524.13 232.28 Q 524.13 230.59 523.33 229.70 Q 522.54 228.80 521.35 228.80 Q 520.18 228.80 519.36 229.70 Q 518.55 230.59 518.55 232.30 z M 540.07 238.00 L 537.26 238.00 L 537.26 236.33 Q 536.57 237.30 535.62 237.78 Q 534.66 238.27 533.69 238.27 Q 531.72 238.27 530.33 236.68 Q 528.93 235.09 528.93 232.25 Q 528.93 229.36 530.29 227.84 Q 531.65 226.33 533.74 226.33 Q 535.65 226.33 537.05 227.92 L 537.05 222.25 L 540.07 222.25 L 540.07 238.00 z M 532.01 232.05 Q 532.01 233.88 532.51 234.69 Q 533.24 235.88 534.55 235.88 Q 535.60 235.88 536.33 234.98 Q 537.05 234.09 537.05 232.34 Q 537.05 230.38 536.34 229.51 Q 535.63 228.64 534.54 228.64 Q 533.46 228.64 532.73 229.49 Q 532.01 230.34 532.01 232.05 z M 549.65 234.38 L 552.65 234.88 Q 552.07 236.53 550.82 237.40 Q 549.57 238.27 547.69 238.27 Q 544.71 238.27 543.29 236.31 Q 542.16 234.75 542.16 232.38 Q 542.16 229.55 543.64 227.94 Q 545.12 226.33 547.40 226.33 Q 549.93 226.33 551.41 228.02 Q 552.88 229.70 552.82 233.17 L 545.26 233.17 Q 545.29 234.52 545.98 235.26 Q 546.68 236.00 547.73 236.00 Q 548.43 236.00 548.91 235.62 Q 549.40 235.23 549.65 234.38 z M 549.82 231.31 Q 549.79 230.00 549.14 229.32 Q 548.49 228.64 547.57 228.64 Q 546.58 228.64 545.94 229.36 Q 545.29 230.08 545.30 231.31 L 549.82 231.31 z M 554.21 234.75 L 557.24 234.28 Q 557.43 235.16 558.02 235.62 Q 558.62 236.08 559.68 236.08 Q 560.85 236.08 561.45 235.64 Q 561.84 235.34 561.84 234.84 Q 561.84 234.50 561.62 234.27 Q 561.40 234.06 560.62 233.88 Q 556.96 233.06 555.98 232.41 Q 554.63 231.48 554.63 229.83 Q 554.63 228.36 555.80 227.34 Q 556.98 226.33 559.43 226.33 Q 561.77 226.33 562.91 227.09 Q 564.05 227.86 564.48 229.36 L 561.63 229.88 Q 561.45 229.22 560.94 228.86 Q 560.43 228.50 559.49 228.50 Q 558.29 228.50 557.77 228.84 Q 557.43 229.08 557.43 229.45 Q 557.43 229.77 557.74 230.00 Q 558.15 230.30 560.55 230.84 Q 562.96 231.39 563.93 232.19 Q 564.87 233.00 564.87 234.44 Q 564.87 236.00 563.55 237.13 Q 562.24 238.27 559.68 238.27 Q 557.35 238.27 555.99 237.31 Q 554.63 236.36 554.21 234.75 z M 584.09 238.00 L 581.28 238.00 L 581.28 236.33 Q 580.59 237.30 579.64 237.78 Q 578.68 238.27 577.71 238.27 Q 575.75 238.27 574.35 236.68 Q 572.95 235.09 572.95 232.25 Q 572.95 229.36 574.31 227.84 Q 575.67 226.33 577.76 226.33 Q 579.67 226.33 581.07 227.92 L 581.07 222.25 L 584.09 222.25 L 584.09 238.00 z M 576.03 232.05 Q 576.03 233.88 576.53 234.69 Q 577.26 235.88 578.57 235.88 Q 579.62 235.88 580.35 234.98 Q 581.07 234.09 581.07 232.34 Q 581.07 230.38 580.36 229.51 Q 579.65 228.64 578.56 228.64 Q 577.48 228.64 576.75 229.49 Q 576.03 230.34 576.03 232.05 z M 593.67 234.38 L 596.67 234.88 Q 596.09 236.53 594.84 237.40 Q 593.59 238.27 591.72 238.27 Q 588.73 238.27 587.31 236.31 Q 586.18 234.75 586.18 232.38 Q 586.18 229.55 587.66 227.94 Q 589.14 226.33 591.42 226.33 Q 593.95 226.33 595.43 228.02 Q 596.90 229.70 596.84 233.17 L 589.28 233.17 Q 589.31 234.52 590.00 235.26 Q 590.70 236.00 591.75 236.00 Q 592.45 236.00 592.93 235.62 Q 593.42 235.23 593.67 234.38 z M 593.84 231.31 Q 593.81 230.00 593.16 229.32 Q 592.51 228.64 591.59 228.64 Q 590.61 228.64 589.97 229.36 Q 589.31 230.08 589.33 231.31 L 593.84 231.31 z M 605.33 226.59 L 608.14 226.59 L 608.14 228.27 Q 608.69 227.41 609.62 226.87 Q 610.55 226.33 611.69 226.33 Q 613.67 226.33 615.06 227.89 Q 616.45 229.45 616.45 232.23 Q 616.45 235.09 615.06 236.68 Q 613.66 238.27 611.67 238.27 Q 610.72 238.27 609.95 237.88 Q 609.19 237.50 608.34 236.59 L 608.34 242.34 L 605.33 242.34 L 605.33 226.59 z M 608.31 232.11 Q 608.31 234.03 609.07 234.95 Q 609.83 235.86 610.92 235.86 Q 611.99 235.86 612.68 235.02 Q 613.38 234.17 613.38 232.25 Q 613.38 230.45 612.66 229.59 Q 611.94 228.72 610.88 228.72 Q 609.77 228.72 609.04 229.57 Q 608.31 230.42 608.31 232.11 z M 621.74 238.00 L 618.72 238.00 L 618.72 226.59 L 621.52 226.59 L 621.52 228.22 Q 622.24 227.06 622.81 226.70 Q 623.39 226.33 624.13 226.33 Q 625.16 226.33 626.11 226.91 L 625.17 229.53 Q 624.41 229.05 623.75 229.05 Q 623.13 229.05 622.68 229.39 Q 622.24 229.73 621.99 230.65 Q 621.74 231.56 621.74 234.47 L 621.74 238.00 z M 634.02 234.38 L 637.02 234.88 Q 636.44 236.53 635.19 237.40 Q 633.94 238.27 632.06 238.27 Q 629.08 238.27 627.66 236.31 Q 626.53 234.75 626.53 232.38 Q 626.53 229.55 628.01 227.94 Q 629.49 226.33 631.77 226.33 Q 634.30 226.33 635.77 228.02 Q 637.25 229.70 637.19 233.17 L 629.63 233.17 Q 629.66 234.52 630.35 235.26 Q 631.05 236.00 632.09 236.00 Q 632.80 236.00 633.28 235.62 Q 633.77 235.23 634.02 234.38 z M 634.19 231.31 Q 634.16 230.00 633.51 229.32 Q 632.86 228.64 631.94 228.64 Q 630.95 228.64 630.31 229.36 Q 629.66 230.08 629.67 231.31 L 634.19 231.31 z M 629.92 224.00 L 631.39 220.80 L 634.78 220.80 L 631.83 224.00 L 629.92 224.00 z M 638.58 234.75 L 641.61 234.28 Q 641.80 235.16 642.39 235.62 Q 642.99 236.08 644.05 236.08 Q 645.22 236.08 645.81 235.64 Q 646.21 235.34 646.21 234.84 Q 646.21 234.50 645.99 234.27 Q 645.77 234.06 644.99 233.88 Q 641.33 233.06 640.35 232.41 Q 639.00 231.48 639.00 229.83 Q 639.00 228.36 640.17 227.34 Q 641.35 226.33 643.80 226.33 Q 646.14 226.33 647.28 227.09 Q 648.42 227.86 648.85 229.36 L 646.00 229.88 Q 645.81 229.22 645.31 228.86 Q 644.80 228.50 643.86 228.50 Q 642.66 228.50 642.14 228.84 Q 641.80 229.08 641.80 229.45 Q 641.80 229.77 642.11 230.00 Q 642.52 230.30 644.92 230.84 Q 647.33 231.39 648.30 232.19 Q 649.24 233.00 649.24 234.44 Q 649.24 236.00 647.92 237.13 Q 646.61 238.27 644.05 238.27 Q 641.72 238.27 640.36 237.31 Q 639.00 236.36 638.58 234.75 z M 658.49 234.38 L 661.49 234.88 Q 660.91 236.53 659.66 237.40 Q 658.41 238.27 656.53 238.27 Q 653.55 238.27 652.13 236.31 Q 651.00 234.75 651.00 232.38 Q 651.00 229.55 652.48 227.94 Q 653.96 226.33 656.24 226.33 Q 658.77 226.33 660.25 228.02 Q 661.72 229.70 661.66 233.17 L 654.10 233.17 Q 654.13 234.52 654.82 235.26 Q 655.52 236.00 656.57 236.00 Q 657.27 236.00 657.75 235.62 Q 658.24 235.23 658.49 234.38 z M 658.66 231.31 Q 658.63 230.00 657.98 229.32 Q 657.33 228.64 656.41 228.64 Q 655.42 228.64 654.78 229.36 Q 654.13 230.08 654.14 231.31 L 658.66 231.31 z M 674.49 238.00 L 671.47 238.00 L 671.47 232.17 Q 671.47 230.33 671.28 229.79 Q 671.08 229.25 670.65 228.95 Q 670.22 228.64 669.60 228.64 Q 668.82 228.64 668.19 229.07 Q 667.57 229.50 667.34 230.21 Q 667.11 230.92 667.11 232.83 L 667.11 238.00 L 664.10 238.00 L 664.10 226.59 L 666.89 226.59 L 666.89 228.27 Q 668.39 226.33 670.66 226.33 Q 671.66 226.33 672.49 226.69 Q 673.32 227.05 673.74 227.61 Q 674.16 228.17 674.32 228.88 Q 674.49 229.59 674.49 230.91 L 674.49 238.00 z M 687.50 229.97 L 684.52 230.50 Q 684.38 229.61 683.85 229.16 Q 683.32 228.70 682.46 228.70 Q 681.33 228.70 680.66 229.48 Q 679.99 230.27 679.99 232.09 Q 679.99 234.12 680.67 234.96 Q 681.35 235.80 682.50 235.80 Q 683.36 235.80 683.91 235.30 Q 684.46 234.81 684.69 233.62 L 687.65 234.12 Q 687.19 236.17 685.88 237.22 Q 684.57 238.27 682.36 238.27 Q 679.86 238.27 678.37 236.68 Q 676.88 235.09 676.88 232.31 Q 676.88 229.48 678.38 227.91 Q 679.88 226.33 682.43 226.33 Q 684.50 226.33 685.73 227.23 Q 686.96 228.12 687.50 229.97 z M 696.40 234.38 L 699.40 234.88 Q 698.82 236.53 697.57 237.40 Q 696.32 238.27 694.44 238.27 Q 691.46 238.27 690.04 236.31 Q 688.91 234.75 688.91 232.38 Q 688.91 229.55 690.39 227.94 Q 691.87 226.33 694.15 226.33 Q 696.68 226.33 698.15 228.02 Q 699.63 229.70 699.57 233.17 L 692.01 233.17 Q 692.04 234.52 692.73 235.26 Q 693.43 236.00 694.47 236.00 Q 695.18 236.00 695.66 235.62 Q 696.15 235.23 696.40 234.38 z M 696.57 231.31 Q 696.54 230.00 695.89 229.32 Q 695.24 228.64 694.32 228.64 Q 693.33 228.64 692.69 229.36 Q 692.04 230.08 692.05 231.31 L 696.57 231.31 z M 700.96 234.75 L 703.99 234.28 Q 704.18 235.16 704.77 235.62 Q 705.37 236.08 706.43 236.08 Q 707.60 236.08 708.19 235.64 Q 708.58 235.34 708.58 234.84 Q 708.58 234.50 708.37 234.27 Q 708.15 234.06 707.37 233.88 Q 703.71 233.06 702.73 232.41 Q 701.38 231.48 701.38 229.83 Q 701.38 228.36 702.55 227.34 Q 703.73 226.33 706.18 226.33 Q 708.52 226.33 709.66 227.09 Q 710.80 227.86 711.23 229.36 L 708.38 229.88 Q 708.19 229.22 707.69 228.86 Q 707.18 228.50 706.24 228.50 Q 705.04 228.50 704.52 228.84 Q 704.18 229.08 704.18 229.45 Q 704.18 229.77 704.49 230.00 Q 704.90 230.30 707.30 230.84 Q 709.71 231.39 710.68 232.19 Q 711.62 233.00 711.62 234.44 Q 711.62 236.00 710.30 237.13 Q 708.99 238.27 706.43 238.27 Q 704.10 238.27 702.74 237.31 Q 701.38 236.36 700.96 234.75 z M 726.98 234.38 L 729.98 234.88 Q 729.40 236.53 728.15 237.40 Q 726.90 238.27 725.03 238.27 Q 722.04 238.27 720.62 236.31 Q 719.50 234.75 719.50 232.38 Q 719.50 229.55 720.97 227.94 Q 722.45 226.33 724.73 226.33 Q 727.26 226.33 728.74 228.02 Q 730.21 229.70 730.15 233.17 L 722.59 233.17 Q 722.62 234.52 723.32 235.26 Q 724.01 236.00 725.06 236.00 Q 725.76 236.00 726.25 235.62 Q 726.73 235.23 726.98 234.38 z M 727.15 231.31 Q 727.12 230.00 726.47 229.32 Q 725.82 228.64 724.90 228.64 Q 723.92 228.64 723.28 229.36 Q 722.62 230.08 722.64 231.31 L 727.15 231.31 z M 742.98 238.00 L 739.96 238.00 L 739.96 232.17 Q 739.96 230.33 739.77 229.79 Q 739.57 229.25 739.14 228.95 Q 738.71 228.64 738.09 228.64 Q 737.31 228.64 736.68 229.07 Q 736.06 229.50 735.83 230.21 Q 735.61 230.92 735.61 232.83 L 735.61 238.00 L 732.59 238.00 L 732.59 226.59 L 735.39 226.59 L 735.39 228.27 Q 736.89 226.33 739.15 226.33 Q 740.15 226.33 740.98 226.69 Q 741.81 227.05 742.23 227.61 Q 742.65 228.17 742.82 228.88 Q 742.98 229.59 742.98 230.91 L 742.98 238.00 z M 751.88 238.75 L 755.33 239.17 Q 755.41 239.77 755.72 240.00 Q 756.16 240.33 757.08 240.33 Q 758.27 240.33 758.84 239.97 Q 759.25 239.73 759.45 239.20 Q 759.59 238.83 759.59 237.81 L 759.59 236.16 Q 758.23 238.00 756.17 238.00 Q 753.88 238.00 752.53 236.06 Q 751.48 234.52 751.48 232.23 Q 751.48 229.36 752.86 227.84 Q 754.23 226.33 756.30 226.33 Q 758.41 226.33 759.78 228.19 L 759.78 226.59 L 762.61 226.59 L 762.61 236.83 Q 762.61 238.84 762.27 239.84 Q 761.94 240.84 761.34 241.41 Q 760.73 241.98 759.73 242.30 Q 758.73 242.62 757.20 242.62 Q 754.30 242.62 753.09 241.63 Q 751.88 240.64 751.88 239.12 Q 751.88 238.97 751.88 238.75 z M 754.58 232.06 Q 754.58 233.88 755.28 234.72 Q 755.98 235.56 757.02 235.56 Q 758.12 235.56 758.88 234.70 Q 759.64 233.83 759.64 232.14 Q 759.64 230.36 758.91 229.50 Q 758.19 228.64 757.06 228.64 Q 755.98 228.64 755.28 229.48 Q 754.58 230.33 754.58 232.06 z M 767.84 230.08 L 765.11 229.58 Q 765.58 227.92 766.70 227.12 Q 767.83 226.33 770.05 226.33 Q 772.08 226.33 773.06 226.81 Q 774.05 227.30 774.45 228.03 Q 774.86 228.77 774.86 230.73 L 774.83 234.25 Q 774.83 235.75 774.97 236.47 Q 775.11 237.19 775.52 238.00 L 772.53 238.00 Q 772.41 237.70 772.24 237.11 Q 772.16 236.84 772.13 236.75 Q 771.36 237.50 770.48 237.88 Q 769.59 238.27 768.59 238.27 Q 766.83 238.27 765.81 237.30 Q 764.80 236.34 764.80 234.89 Q 764.80 233.92 765.26 233.16 Q 765.72 232.41 766.56 232.00 Q 767.39 231.59 768.95 231.30 Q 771.08 230.91 771.89 230.56 L 771.89 230.25 Q 771.89 229.39 771.46 229.02 Q 771.03 228.64 769.84 228.64 Q 769.03 228.64 768.58 228.96 Q 768.13 229.28 767.84 230.08 z M 771.89 232.52 Q 771.31 232.72 770.06 232.98 Q 768.80 233.25 768.41 233.52 Q 767.81 233.92 767.81 234.58 Q 767.81 235.20 768.29 235.66 Q 768.77 236.12 769.50 236.12 Q 770.31 236.12 771.05 235.59 Q 771.59 235.19 771.77 234.59 Q 771.89 234.20 771.89 233.12 L 771.89 232.52 z M 780.72 238.00 L 777.71 238.00 L 777.71 226.59 L 780.50 226.59 L 780.50 228.22 Q 781.22 227.06 781.80 226.70 Q 782.38 226.33 783.11 226.33 Q 784.14 226.33 785.10 226.91 L 784.16 229.53 Q 783.39 229.05 782.74 229.05 Q 782.11 229.05 781.67 229.39 Q 781.22 229.73 780.97 230.65 Q 780.72 231.56 780.72 234.47 L 780.72 238.00 z M 793.00 234.38 L 796.00 234.88 Q 795.42 236.53 794.17 237.40 Q 792.92 238.27 791.05 238.27 Q 788.06 238.27 786.64 236.31 Q 785.52 234.75 785.52 232.38 Q 785.52 229.55 786.99 227.94 Q 788.47 226.33 790.75 226.33 Q 793.28 226.33 794.76 228.02 Q 796.24 229.70 796.17 233.17 L 788.61 233.17 Q 788.64 234.52 789.34 235.26 Q 790.03 236.00 791.08 236.00 Q 791.78 236.00 792.27 235.62 Q 792.75 235.23 793.00 234.38 z M 793.17 231.31 Q 793.14 230.00 792.49 229.32 Q 791.84 228.64 790.92 228.64 Q 789.94 228.64 789.30 229.36 Q 788.64 230.08 788.66 231.31 L 793.17 231.31 z"/>
<title>Périodes de présences en gare</title>
<desc>texte1 = “Périodes de présences en gare”</desc>

</g> <!-- drawing style -->
</g> <!-- clip40 -->
</g> <!-- transform -->
<g transform="matrix(1.0000, 0.0000, 0.0000, 1.0000, -264.00, -200.00)">
<clipPath id="clip7b147d02-28a8-430c-846b-b7093775ad3d">
  <path d="M 264.00 200.00 L 264.00 583.00 L 998.00 583.00 L 998.00 200.00 z"/>
</clipPath>
<g clip-path="url(#clip41)">
<g fill-opacity="1.0000" fill-rule="nonzero" stroke="none" fill="#000000">
  <path d="M 404.23 296.00 L 404.23 284.55 L 408.56 284.55 Q 409.70 284.55 410.30 284.66 Q 411.14 284.80 411.71 285.19 Q 412.28 285.58 412.63 286.29 Q 412.98 287.00 412.98 287.86 Q 412.98 289.31 412.05 290.33 Q 411.12 291.34 408.69 291.34 L 405.75 291.34 L 405.75 296.00 L 404.23 296.00 z M 405.75 289.98 L 408.72 289.98 Q 410.19 289.98 410.80 289.44 Q 411.42 288.89 411.42 287.91 Q 411.42 287.19 411.05 286.67 Q 410.69 286.16 410.09 286.00 Q 409.72 285.89 408.69 285.89 L 405.75 285.89 L 405.75 289.98 z M 414.72 296.00 L 414.72 287.70 L 415.98 287.70 L 415.98 288.95 Q 416.47 288.08 416.88 287.80 Q 417.28 287.52 417.78 287.52 Q 418.48 287.52 419.22 287.97 L 418.73 289.27 Q 418.22 288.97 417.70 288.97 Q 417.25 288.97 416.88 289.24 Q 416.52 289.52 416.36 290.02 Q 416.12 290.77 416.12 291.66 L 416.12 296.00 L 414.72 296.00 z M 425.73 293.33 L 427.19 293.50 Q 426.84 294.78 425.91 295.48 Q 424.98 296.19 423.55 296.19 Q 421.72 296.19 420.66 295.06 Q 419.59 293.94 419.59 291.92 Q 419.59 289.83 420.67 288.67 Q 421.75 287.52 423.47 287.52 Q 425.12 287.52 426.18 288.65 Q 427.23 289.78 427.23 291.83 Q 427.23 291.95 427.23 292.20 L 421.05 292.20 Q 421.12 293.58 421.82 294.30 Q 422.52 295.03 423.55 295.03 Q 424.33 295.03 424.88 294.62 Q 425.42 294.22 425.73 293.33 z M 421.12 291.05 L 425.75 291.05 Q 425.66 290.00 425.22 289.48 Q 424.55 288.67 423.48 288.67 Q 422.52 288.67 421.85 289.32 Q 421.19 289.97 421.12 291.05 z M 421.83 286.00 L 422.88 283.81 L 424.72 283.81 L 423.00 286.00 L 421.83 286.00 z M 428.40 293.52 L 429.79 293.30 Q 429.90 294.14 430.44 294.59 Q 430.98 295.03 431.93 295.03 Q 432.90 295.03 433.37 294.63 Q 433.84 294.23 433.84 293.70 Q 433.84 293.23 433.43 292.95 Q 433.13 292.77 431.99 292.48 Q 430.45 292.09 429.84 291.80 Q 429.24 291.52 428.94 291.02 Q 428.63 290.52 428.63 289.91 Q 428.63 289.34 428.88 288.88 Q 429.13 288.41 429.57 288.09 Q 429.90 287.84 430.47 287.68 Q 431.04 287.52 431.68 287.52 Q 432.66 287.52 433.40 287.80 Q 434.13 288.08 434.48 288.55 Q 434.84 289.03 434.98 289.84 L 433.60 290.03 Q 433.51 289.39 433.05 289.03 Q 432.60 288.67 431.79 288.67 Q 430.82 288.67 430.41 288.99 Q 429.99 289.31 429.99 289.73 Q 429.99 290.02 430.16 290.23 Q 430.34 290.45 430.70 290.61 Q 430.91 290.69 431.95 290.97 Q 433.43 291.36 434.02 291.62 Q 434.62 291.88 434.95 292.36 Q 435.29 292.84 435.29 293.56 Q 435.29 294.27 434.88 294.88 Q 434.46 295.50 433.69 295.84 Q 432.91 296.19 431.95 296.19 Q 430.32 296.19 429.48 295.52 Q 428.63 294.84 428.40 293.52 z M 442.63 293.33 L 444.09 293.50 Q 443.74 294.78 442.81 295.48 Q 441.88 296.19 440.45 296.19 Q 438.62 296.19 437.55 295.06 Q 436.49 293.94 436.49 291.92 Q 436.49 289.83 437.57 288.67 Q 438.65 287.52 440.37 287.52 Q 442.02 287.52 443.08 288.65 Q 444.13 289.78 444.13 291.83 Q 444.13 291.95 444.13 292.20 L 437.95 292.20 Q 438.02 293.58 438.72 294.30 Q 439.41 295.03 440.45 295.03 Q 441.23 295.03 441.77 294.62 Q 442.32 294.22 442.63 293.33 z M 438.02 291.05 L 442.65 291.05 Q 442.55 290.00 442.12 289.48 Q 441.45 288.67 440.38 288.67 Q 439.41 288.67 438.75 289.32 Q 438.09 289.97 438.02 291.05 z M 445.86 296.00 L 445.86 287.70 L 447.12 287.70 L 447.12 288.88 Q 448.03 287.52 449.77 287.52 Q 450.52 287.52 451.14 287.78 Q 451.77 288.05 452.08 288.48 Q 452.39 288.92 452.52 289.53 Q 452.59 289.92 452.59 290.89 L 452.59 296.00 L 451.19 296.00 L 451.19 290.95 Q 451.19 290.09 451.02 289.66 Q 450.86 289.23 450.45 288.98 Q 450.03 288.73 449.47 288.73 Q 448.56 288.73 447.91 289.30 Q 447.27 289.88 447.27 291.47 L 447.27 296.00 L 445.86 296.00 z M 460.16 292.95 L 461.55 293.14 Q 461.32 294.56 460.39 295.38 Q 459.46 296.19 458.10 296.19 Q 456.40 296.19 455.36 295.07 Q 454.32 293.95 454.32 291.88 Q 454.32 290.53 454.77 289.52 Q 455.21 288.52 456.12 288.02 Q 457.04 287.52 458.10 287.52 Q 459.46 287.52 460.32 288.20 Q 461.18 288.88 461.41 290.14 L 460.05 290.34 Q 459.85 289.52 459.36 289.09 Q 458.87 288.67 458.16 288.67 Q 457.10 288.67 456.44 289.43 Q 455.77 290.19 455.77 291.84 Q 455.77 293.52 456.41 294.27 Q 457.05 295.03 458.09 295.03 Q 458.91 295.03 459.47 294.52 Q 460.02 294.02 460.16 292.95 z M 468.43 293.33 L 469.88 293.50 Q 469.54 294.78 468.61 295.48 Q 467.68 296.19 466.24 296.19 Q 464.41 296.19 463.35 295.06 Q 462.29 293.94 462.29 291.92 Q 462.29 289.83 463.37 288.67 Q 464.45 287.52 466.16 287.52 Q 467.82 287.52 468.88 288.65 Q 469.93 289.78 469.93 291.83 Q 469.93 291.95 469.93 292.20 L 463.74 292.20 Q 463.82 293.58 464.52 294.30 Q 465.21 295.03 466.24 295.03 Q 467.02 295.03 467.57 294.62 Q 468.12 294.22 468.43 293.33 z M 463.82 291.05 L 468.45 291.05 Q 468.35 290.00 467.91 289.48 Q 467.24 288.67 466.18 288.67 Q 465.21 288.67 464.55 289.32 Q 463.88 289.97 463.82 291.05 z M 481.48 296.00 L 481.48 294.95 Q 480.70 296.19 479.16 296.19 Q 478.16 296.19 477.34 295.64 Q 476.51 295.09 476.05 294.11 Q 475.59 293.12 475.59 291.86 Q 475.59 290.61 476.00 289.60 Q 476.41 288.59 477.24 288.05 Q 478.07 287.52 479.10 287.52 Q 479.85 287.52 480.44 287.83 Q 481.02 288.14 481.38 288.66 L 481.38 284.55 L 482.79 284.55 L 482.79 296.00 L 481.48 296.00 z M 477.04 291.86 Q 477.04 293.45 477.71 294.24 Q 478.38 295.03 479.29 295.03 Q 480.21 295.03 480.86 294.27 Q 481.51 293.52 481.51 291.97 Q 481.51 290.27 480.85 289.47 Q 480.20 288.67 479.23 288.67 Q 478.29 288.67 477.66 289.44 Q 477.04 290.20 477.04 291.86 z M 490.44 296.00 L 490.44 294.78 Q 489.47 296.19 487.80 296.19 Q 487.06 296.19 486.43 295.91 Q 485.80 295.62 485.48 295.20 Q 485.17 294.77 485.05 294.16 Q 484.97 293.73 484.97 292.84 L 484.97 287.70 L 486.38 287.70 L 486.38 292.30 Q 486.38 293.41 486.45 293.78 Q 486.59 294.34 487.02 294.66 Q 487.45 294.97 488.08 294.97 Q 488.72 294.97 489.27 294.65 Q 489.83 294.33 490.05 293.77 Q 490.28 293.20 490.28 292.14 L 490.28 287.70 L 491.69 287.70 L 491.69 296.00 L 490.44 296.00 z M 501.41 294.73 L 501.61 295.98 Q 501.02 296.11 500.55 296.11 Q 499.78 296.11 499.36 295.87 Q 498.94 295.62 498.77 295.23 Q 498.59 294.83 498.59 293.56 L 498.59 288.80 L 497.56 288.80 L 497.56 287.70 L 498.59 287.70 L 498.59 285.64 L 500.00 284.80 L 500.00 287.70 L 501.41 287.70 L 501.41 288.80 L 500.00 288.80 L 500.00 293.64 Q 500.00 294.25 500.07 294.42 Q 500.14 294.59 500.31 294.70 Q 500.48 294.80 500.80 294.80 Q 501.03 294.80 501.41 294.73 z M 502.77 296.00 L 502.77 287.70 L 504.04 287.70 L 504.04 288.95 Q 504.52 288.08 504.93 287.80 Q 505.34 287.52 505.84 287.52 Q 506.54 287.52 507.27 287.97 L 506.79 289.27 Q 506.27 288.97 505.76 288.97 Q 505.30 288.97 504.94 289.24 Q 504.57 289.52 504.41 290.02 Q 504.18 290.77 504.18 291.66 L 504.18 296.00 L 502.77 296.00 z M 513.52 294.97 Q 512.74 295.64 512.02 295.91 Q 511.30 296.19 510.48 296.19 Q 509.10 296.19 508.37 295.52 Q 507.63 294.84 507.63 293.81 Q 507.63 293.20 507.91 292.70 Q 508.20 292.19 508.64 291.88 Q 509.09 291.58 509.65 291.42 Q 510.07 291.31 510.90 291.22 Q 512.60 291.02 513.41 290.73 Q 513.41 290.44 513.41 290.36 Q 513.41 289.50 513.02 289.16 Q 512.48 288.67 511.41 288.67 Q 510.43 288.67 509.95 289.02 Q 509.48 289.38 509.26 290.25 L 507.88 290.06 Q 508.07 289.19 508.50 288.64 Q 508.93 288.09 509.74 287.80 Q 510.55 287.52 511.62 287.52 Q 512.68 287.52 513.34 287.77 Q 514.01 288.02 514.32 288.39 Q 514.63 288.77 514.76 289.34 Q 514.84 289.70 514.84 290.64 L 514.84 292.52 Q 514.84 294.48 514.92 295.00 Q 515.01 295.52 515.27 296.00 L 513.80 296.00 Q 513.59 295.56 513.52 294.97 z M 513.41 291.83 Q 512.65 292.14 511.12 292.36 Q 510.24 292.48 509.88 292.64 Q 509.52 292.80 509.33 293.10 Q 509.13 293.41 509.13 293.77 Q 509.13 294.33 509.56 294.70 Q 509.99 295.08 510.80 295.08 Q 511.62 295.08 512.25 294.73 Q 512.88 294.38 513.18 293.75 Q 513.41 293.28 513.41 292.34 L 513.41 291.83 z M 517.02 286.16 L 517.02 284.55 L 518.42 284.55 L 518.42 286.16 L 517.02 286.16 z M 517.02 296.00 L 517.02 287.70 L 518.42 287.70 L 518.42 296.00 L 517.02 296.00 z M 520.57 296.00 L 520.57 287.70 L 521.84 287.70 L 521.84 288.88 Q 522.74 287.52 524.48 287.52 Q 525.23 287.52 525.85 287.78 Q 526.48 288.05 526.79 288.48 Q 527.10 288.92 527.23 289.53 Q 527.30 289.92 527.30 290.89 L 527.30 296.00 L 525.90 296.00 L 525.90 290.95 Q 525.90 290.09 525.73 289.66 Q 525.57 289.23 525.16 288.98 Q 524.74 288.73 524.18 288.73 Q 523.27 288.73 522.62 289.30 Q 521.98 289.88 521.98 291.47 L 521.98 296.00 L 520.57 296.00 z M 532.82 296.00 L 537.23 284.55 L 538.87 284.55 L 543.55 296.00 L 541.82 296.00 L 540.49 292.53 L 535.70 292.53 L 534.45 296.00 L 532.82 296.00 z M 536.13 291.30 L 540.02 291.30 L 538.82 288.12 Q 538.27 286.67 538.01 285.75 Q 537.79 286.84 537.40 287.94 L 536.13 291.30 z"/>
<title>Présence du train A</title>
<desc>texte2 = “Présence du train A”</desc>

</g> <!-- drawing style -->
</g> <!-- clip41 -->
</g> <!-- transform -->
<g transform="matrix(1.0000, 0.0000, 0.0000, 1.0000, -264.00, -200.00)">
<clipPath id="clipbf290025-f087-4177-bdf1-76030d36b27e">
  <path d="M 264.00 200.00 L 264.00 583.00 L 998.00 583.00 L 998.00 200.00 z"/>
</clipPath>
<g clip-path="url(#clip42)">
<g fill-opacity="1.0000" fill-rule="nonzero" stroke="none" fill="#000000">
  <path d="M 292.23 350.00 L 292.23 338.55 L 296.56 338.55 Q 297.70 338.55 298.30 338.66 Q 299.14 338.80 299.71 339.19 Q 300.28 339.58 300.63 340.29 Q 300.98 341.00 300.98 341.86 Q 300.98 343.31 300.05 344.33 Q 299.12 345.34 296.69 345.34 L 293.75 345.34 L 293.75 350.00 L 292.23 350.00 z M 293.75 343.98 L 296.72 343.98 Q 298.19 343.98 298.80 343.44 Q 299.42 342.89 299.42 341.91 Q 299.42 341.19 299.05 340.67 Q 298.69 340.16 298.09 340.00 Q 297.72 339.89 296.69 339.89 L 293.75 339.89 L 293.75 343.98 z M 302.72 350.00 L 302.72 341.70 L 303.98 341.70 L 303.98 342.95 Q 304.47 342.08 304.88 341.80 Q 305.28 341.52 305.78 341.52 Q 306.48 341.52 307.22 341.97 L 306.73 343.27 Q 306.22 342.97 305.70 342.97 Q 305.25 342.97 304.88 343.24 Q 304.52 343.52 304.36 344.02 Q 304.12 344.77 304.12 345.66 L 304.12 350.00 L 302.72 350.00 z M 313.73 347.33 L 315.19 347.50 Q 314.84 348.78 313.91 349.48 Q 312.98 350.19 311.55 350.19 Q 309.72 350.19 308.66 349.06 Q 307.59 347.94 307.59 345.92 Q 307.59 343.83 308.67 342.67 Q 309.75 341.52 311.47 341.52 Q 313.12 341.52 314.18 342.65 Q 315.23 343.78 315.23 345.83 Q 315.23 345.95 315.23 346.20 L 309.05 346.20 Q 309.12 347.58 309.82 348.30 Q 310.52 349.03 311.55 349.03 Q 312.33 349.03 312.88 348.62 Q 313.42 348.22 313.73 347.33 z M 309.12 345.05 L 313.75 345.05 Q 313.66 344.00 313.22 343.48 Q 312.55 342.67 311.48 342.67 Q 310.52 342.67 309.85 343.32 Q 309.19 343.97 309.12 345.05 z M 309.83 340.00 L 310.88 337.81 L 312.72 337.81 L 311.00 340.00 L 309.83 340.00 z M 316.40 347.52 L 317.79 347.30 Q 317.90 348.14 318.44 348.59 Q 318.98 349.03 319.93 349.03 Q 320.90 349.03 321.37 348.63 Q 321.84 348.23 321.84 347.70 Q 321.84 347.23 321.43 346.95 Q 321.13 346.77 319.99 346.48 Q 318.45 346.09 317.84 345.80 Q 317.24 345.52 316.94 345.02 Q 316.63 344.52 316.63 343.91 Q 316.63 343.34 316.88 342.88 Q 317.13 342.41 317.57 342.09 Q 317.90 341.84 318.47 341.68 Q 319.04 341.52 319.68 341.52 Q 320.66 341.52 321.40 341.80 Q 322.13 342.08 322.48 342.55 Q 322.84 343.03 322.98 343.84 L 321.60 344.03 Q 321.51 343.39 321.05 343.03 Q 320.60 342.67 319.79 342.67 Q 318.82 342.67 318.41 342.99 Q 317.99 343.31 317.99 343.73 Q 317.99 344.02 318.16 344.23 Q 318.34 344.45 318.70 344.61 Q 318.91 344.69 319.95 344.97 Q 321.43 345.36 322.02 345.62 Q 322.62 345.88 322.95 346.36 Q 323.29 346.84 323.29 347.56 Q 323.29 348.27 322.88 348.88 Q 322.46 349.50 321.69 349.84 Q 320.91 350.19 319.95 350.19 Q 318.32 350.19 317.48 349.52 Q 316.63 348.84 316.40 347.52 z M 330.63 347.33 L 332.09 347.50 Q 331.74 348.78 330.81 349.48 Q 329.88 350.19 328.45 350.19 Q 326.62 350.19 325.55 349.06 Q 324.49 347.94 324.49 345.92 Q 324.49 343.83 325.57 342.67 Q 326.65 341.52 328.37 341.52 Q 330.02 341.52 331.08 342.65 Q 332.13 343.78 332.13 345.83 Q 332.13 345.95 332.13 346.20 L 325.95 346.20 Q 326.02 347.58 326.72 348.30 Q 327.41 349.03 328.45 349.03 Q 329.23 349.03 329.77 348.62 Q 330.32 348.22 330.63 347.33 z M 326.02 345.05 L 330.65 345.05 Q 330.55 344.00 330.12 343.48 Q 329.45 342.67 328.38 342.67 Q 327.41 342.67 326.75 343.32 Q 326.09 343.97 326.02 345.05 z M 333.86 350.00 L 333.86 341.70 L 335.12 341.70 L 335.12 342.88 Q 336.03 341.52 337.77 341.52 Q 338.52 341.52 339.14 341.78 Q 339.77 342.05 340.08 342.48 Q 340.39 342.92 340.52 343.53 Q 340.59 343.92 340.59 344.89 L 340.59 350.00 L 339.19 350.00 L 339.19 344.95 Q 339.19 344.09 339.02 343.66 Q 338.86 343.23 338.45 342.98 Q 338.03 342.73 337.47 342.73 Q 336.56 342.73 335.91 343.30 Q 335.27 343.88 335.27 345.47 L 335.27 350.00 L 333.86 350.00 z M 348.16 346.95 L 349.55 347.14 Q 349.32 348.56 348.39 349.38 Q 347.46 350.19 346.10 350.19 Q 344.40 350.19 343.36 349.07 Q 342.32 347.95 342.32 345.88 Q 342.32 344.53 342.77 343.52 Q 343.21 342.52 344.12 342.02 Q 345.04 341.52 346.10 341.52 Q 347.46 341.52 348.32 342.20 Q 349.18 342.88 349.41 344.14 L 348.05 344.34 Q 347.85 343.52 347.36 343.09 Q 346.87 342.67 346.16 342.67 Q 345.10 342.67 344.44 343.43 Q 343.77 344.19 343.77 345.84 Q 343.77 347.52 344.41 348.27 Q 345.05 349.03 346.09 349.03 Q 346.91 349.03 347.47 348.52 Q 348.02 348.02 348.16 346.95 z M 356.43 347.33 L 357.88 347.50 Q 357.54 348.78 356.61 349.48 Q 355.68 350.19 354.24 350.19 Q 352.41 350.19 351.35 349.06 Q 350.29 347.94 350.29 345.92 Q 350.29 343.83 351.37 342.67 Q 352.45 341.52 354.16 341.52 Q 355.82 341.52 356.88 342.65 Q 357.93 343.78 357.93 345.83 Q 357.93 345.95 357.93 346.20 L 351.74 346.20 Q 351.82 347.58 352.52 348.30 Q 353.21 349.03 354.24 349.03 Q 355.02 349.03 355.57 348.62 Q 356.12 348.22 356.43 347.33 z M 351.82 345.05 L 356.45 345.05 Q 356.35 344.00 355.91 343.48 Q 355.24 342.67 354.18 342.67 Q 353.21 342.67 352.55 343.32 Q 351.88 343.97 351.82 345.05 z M 369.48 350.00 L 369.48 348.95 Q 368.70 350.19 367.16 350.19 Q 366.16 350.19 365.34 349.64 Q 364.51 349.09 364.05 348.11 Q 363.59 347.12 363.59 345.86 Q 363.59 344.61 364.00 343.60 Q 364.41 342.59 365.24 342.05 Q 366.07 341.52 367.10 341.52 Q 367.85 341.52 368.44 341.83 Q 369.02 342.14 369.38 342.66 L 369.38 338.55 L 370.79 338.55 L 370.79 350.00 L 369.48 350.00 z M 365.04 345.86 Q 365.04 347.45 365.71 348.24 Q 366.38 349.03 367.29 349.03 Q 368.21 349.03 368.86 348.27 Q 369.51 347.52 369.51 345.97 Q 369.51 344.27 368.85 343.47 Q 368.20 342.67 367.23 342.67 Q 366.29 342.67 365.66 343.44 Q 365.04 344.20 365.04 345.86 z M 378.44 350.00 L 378.44 348.78 Q 377.47 350.19 375.80 350.19 Q 375.06 350.19 374.43 349.91 Q 373.80 349.62 373.48 349.20 Q 373.17 348.77 373.05 348.16 Q 372.97 347.73 372.97 346.84 L 372.97 341.70 L 374.38 341.70 L 374.38 346.30 Q 374.38 347.41 374.45 347.78 Q 374.59 348.34 375.02 348.66 Q 375.45 348.97 376.08 348.97 Q 376.72 348.97 377.27 348.65 Q 377.83 348.33 378.05 347.77 Q 378.28 347.20 378.28 346.14 L 378.28 341.70 L 379.69 341.70 L 379.69 350.00 L 378.44 350.00 z"/>
<title>Présence du&#xa;train B</title>
<desc>texte3 = “Présence du&#xa;train B”</desc>

</g> <!-- drawing style -->
</g> <!-- clip42 -->
</g> <!-- transform -->
<g transform="matrix(1.0000, 0.0000, 0.0000, 1.0000, -264.00, -200.00)">
<clipPath id="clip7598b025-8fc3-4d9e-8ab3-71a37d82b7b1">
  <path d="M 264.00 200.00 L 264.00 583.00 L 998.00 583.00 L 998.00 200.00 z"/>
</clipPath>
<g clip-path="url(#clip43)">
<g fill-opacity="1.0000" fill-rule="nonzero" stroke="none" fill="#000000">
  <path d="M 295.12 372.73 L 295.33 373.98 Q 294.73 374.11 294.27 374.11 Q 293.50 374.11 293.08 373.87 Q 292.66 373.62 292.48 373.23 Q 292.31 372.83 292.31 371.56 L 292.31 366.80 L 291.28 366.80 L 291.28 365.70 L 292.31 365.70 L 292.31 363.64 L 293.72 362.80 L 293.72 365.70 L 295.12 365.70 L 295.12 366.80 L 293.72 366.80 L 293.72 371.64 Q 293.72 372.25 293.79 372.42 Q 293.86 372.59 294.03 372.70 Q 294.20 372.80 294.52 372.80 Q 294.75 372.80 295.12 372.73 z M 296.49 374.00 L 296.49 365.70 L 297.76 365.70 L 297.76 366.95 Q 298.24 366.08 298.65 365.80 Q 299.05 365.52 299.55 365.52 Q 300.26 365.52 300.99 365.97 L 300.51 367.27 Q 299.99 366.97 299.48 366.97 Q 299.02 366.97 298.66 367.24 Q 298.29 367.52 298.13 368.02 Q 297.90 368.77 297.90 369.66 L 297.90 374.00 L 296.49 374.00 z M 307.24 372.97 Q 306.46 373.64 305.74 373.91 Q 305.02 374.19 304.20 374.19 Q 302.82 374.19 302.09 373.52 Q 301.35 372.84 301.35 371.81 Q 301.35 371.20 301.63 370.70 Q 301.91 370.19 302.36 369.88 Q 302.80 369.58 303.37 369.42 Q 303.79 369.31 304.62 369.22 Q 306.32 369.02 307.13 368.73 Q 307.13 368.44 307.13 368.36 Q 307.13 367.50 306.74 367.16 Q 306.20 366.67 305.13 366.67 Q 304.15 366.67 303.67 367.02 Q 303.20 367.38 302.98 368.25 L 301.60 368.06 Q 301.79 367.19 302.22 366.64 Q 302.65 366.09 303.46 365.80 Q 304.27 365.52 305.34 365.52 Q 306.40 365.52 307.06 365.77 Q 307.73 366.02 308.04 366.39 Q 308.35 366.77 308.48 367.34 Q 308.55 367.70 308.55 368.64 L 308.55 370.52 Q 308.55 372.48 308.64 373.00 Q 308.73 373.52 308.99 374.00 L 307.52 374.00 Q 307.30 373.56 307.24 372.97 z M 307.13 369.83 Q 306.37 370.14 304.84 370.36 Q 303.96 370.48 303.60 370.64 Q 303.24 370.80 303.05 371.10 Q 302.85 371.41 302.85 371.77 Q 302.85 372.33 303.28 372.70 Q 303.71 373.08 304.52 373.08 Q 305.34 373.08 305.97 372.73 Q 306.60 372.38 306.90 371.75 Q 307.13 371.28 307.13 370.34 L 307.13 369.83 z M 310.73 364.16 L 310.73 362.55 L 312.14 362.55 L 312.14 364.16 L 310.73 364.16 z M 310.73 374.00 L 310.73 365.70 L 312.14 365.70 L 312.14 374.00 L 310.73 374.00 z M 314.29 374.00 L 314.29 365.70 L 315.55 365.70 L 315.55 366.88 Q 316.46 365.52 318.20 365.52 Q 318.95 365.52 319.57 365.78 Q 320.20 366.05 320.51 366.48 Q 320.82 366.92 320.95 367.53 Q 321.02 367.92 321.02 368.89 L 321.02 374.00 L 319.62 374.00 L 319.62 368.95 Q 319.62 368.09 319.45 367.66 Q 319.29 367.23 318.88 366.98 Q 318.46 366.73 317.90 366.73 Q 316.99 366.73 316.34 367.30 Q 315.70 367.88 315.70 369.47 L 315.70 374.00 L 314.29 374.00 z M 327.74 374.00 L 327.74 362.55 L 332.04 362.55 Q 333.35 362.55 334.15 362.89 Q 334.95 363.23 335.39 363.96 Q 335.84 364.69 335.84 365.47 Q 335.84 366.20 335.44 366.85 Q 335.04 367.50 334.24 367.91 Q 335.27 368.20 335.84 368.94 Q 336.40 369.67 336.40 370.67 Q 336.40 371.48 336.05 372.17 Q 335.71 372.86 335.21 373.23 Q 334.71 373.61 333.96 373.80 Q 333.21 374.00 332.12 374.00 L 327.74 374.00 z M 329.26 367.36 L 331.74 367.36 Q 332.74 367.36 333.18 367.22 Q 333.76 367.05 334.05 366.65 Q 334.35 366.25 334.35 365.66 Q 334.35 365.08 334.08 364.65 Q 333.80 364.22 333.30 364.05 Q 332.79 363.89 331.55 363.89 L 329.26 363.89 L 329.26 367.36 z M 329.26 372.64 L 332.12 372.64 Q 332.85 372.64 333.15 372.59 Q 333.66 372.50 334.02 372.28 Q 334.37 372.06 334.59 371.64 Q 334.82 371.22 334.82 370.67 Q 334.82 370.03 334.49 369.56 Q 334.16 369.09 333.59 368.90 Q 333.01 368.70 331.91 368.70 L 329.26 368.70 L 329.26 372.64 z"/>
<title>Présence du&#xa;train B</title>
<desc>texte3 = “Présence du&#xa;train B”</desc>

</g> <!-- drawing style -->
</g> <!-- clip43 -->
</g> <!-- transform -->
<g transform="matrix(1.0000, 0.0000, 0.0000, 1.0000, -264.00, -200.00)">
<clipPath id="clip60f5a22e-912c-4338-8fa6-5506eb091fe8">
  <path d="M 264.00 200.00 L 264.00 583.00 L 998.00 583.00 L 998.00 200.00 z"/>
</clipPath>
<g clip-path="url(#clip44)">
<g fill-opacity="1.0000" fill-rule="nonzero" stroke="none" fill="#000000">
  <path d="M 750.23 448.00 L 750.23 436.55 L 754.56 436.55 Q 755.70 436.55 756.30 436.66 Q 757.14 436.80 757.71 437.19 Q 758.28 437.58 758.63 438.29 Q 758.98 439.00 758.98 439.86 Q 758.98 441.31 758.05 442.33 Q 757.12 443.34 754.69 443.34 L 751.75 443.34 L 751.75 448.00 L 750.23 448.00 z M 751.75 441.98 L 754.72 441.98 Q 756.19 441.98 756.80 441.44 Q 757.42 440.89 757.42 439.91 Q 757.42 439.19 757.05 438.67 Q 756.69 438.16 756.09 438.00 Q 755.72 437.89 754.69 437.89 L 751.75 437.89 L 751.75 441.98 z M 760.72 448.00 L 760.72 439.70 L 761.98 439.70 L 761.98 440.95 Q 762.47 440.08 762.88 439.80 Q 763.28 439.52 763.78 439.52 Q 764.48 439.52 765.22 439.97 L 764.73 441.27 Q 764.22 440.97 763.70 440.97 Q 763.25 440.97 762.88 441.24 Q 762.52 441.52 762.36 442.02 Q 762.12 442.77 762.12 443.66 L 762.12 448.00 L 760.72 448.00 z M 771.73 445.33 L 773.19 445.50 Q 772.84 446.78 771.91 447.48 Q 770.98 448.19 769.55 448.19 Q 767.72 448.19 766.66 447.06 Q 765.59 445.94 765.59 443.92 Q 765.59 441.83 766.67 440.67 Q 767.75 439.52 769.47 439.52 Q 771.12 439.52 772.18 440.65 Q 773.23 441.78 773.23 443.83 Q 773.23 443.95 773.23 444.20 L 767.05 444.20 Q 767.12 445.58 767.82 446.30 Q 768.52 447.03 769.55 447.03 Q 770.33 447.03 770.88 446.62 Q 771.42 446.22 771.73 445.33 z M 767.12 443.05 L 771.75 443.05 Q 771.66 442.00 771.22 441.48 Q 770.55 440.67 769.48 440.67 Q 768.52 440.67 767.85 441.32 Q 767.19 441.97 767.12 443.05 z M 767.83 438.00 L 768.88 435.81 L 770.72 435.81 L 769.00 438.00 L 767.83 438.00 z M 774.40 445.52 L 775.79 445.30 Q 775.90 446.14 776.44 446.59 Q 776.98 447.03 777.93 447.03 Q 778.90 447.03 779.37 446.63 Q 779.84 446.23 779.84 445.70 Q 779.84 445.23 779.43 444.95 Q 779.13 444.77 777.99 444.48 Q 776.45 444.09 775.84 443.80 Q 775.24 443.52 774.94 443.02 Q 774.63 442.52 774.63 441.91 Q 774.63 441.34 774.88 440.88 Q 775.13 440.41 775.57 440.09 Q 775.90 439.84 776.47 439.68 Q 777.04 439.52 777.68 439.52 Q 778.66 439.52 779.40 439.80 Q 780.13 440.08 780.48 440.55 Q 780.84 441.03 780.98 441.84 L 779.60 442.03 Q 779.51 441.39 779.05 441.03 Q 778.60 440.67 777.79 440.67 Q 776.82 440.67 776.41 440.99 Q 775.99 441.31 775.99 441.73 Q 775.99 442.02 776.16 442.23 Q 776.34 442.45 776.70 442.61 Q 776.91 442.69 777.95 442.97 Q 779.43 443.36 780.02 443.62 Q 780.62 443.88 780.95 444.36 Q 781.29 444.84 781.29 445.56 Q 781.29 446.27 780.88 446.88 Q 780.46 447.50 779.69 447.84 Q 778.91 448.19 777.95 448.19 Q 776.32 448.19 775.48 447.52 Q 774.63 446.84 774.40 445.52 z M 788.63 445.33 L 790.09 445.50 Q 789.74 446.78 788.81 447.48 Q 787.88 448.19 786.45 448.19 Q 784.62 448.19 783.55 447.06 Q 782.49 445.94 782.49 443.92 Q 782.49 441.83 783.57 440.67 Q 784.65 439.52 786.37 439.52 Q 788.02 439.52 789.08 440.65 Q 790.13 441.78 790.13 443.83 Q 790.13 443.95 790.13 444.20 L 783.95 444.20 Q 784.02 445.58 784.72 446.30 Q 785.41 447.03 786.45 447.03 Q 787.23 447.03 787.77 446.62 Q 788.32 446.22 788.63 445.33 z M 784.02 443.05 L 788.65 443.05 Q 788.55 442.00 788.12 441.48 Q 787.45 440.67 786.38 440.67 Q 785.41 440.67 784.75 441.32 Q 784.09 441.97 784.02 443.05 z M 791.86 448.00 L 791.86 439.70 L 793.12 439.70 L 793.12 440.88 Q 794.03 439.52 795.77 439.52 Q 796.52 439.52 797.14 439.78 Q 797.77 440.05 798.08 440.48 Q 798.39 440.92 798.52 441.53 Q 798.59 441.92 798.59 442.89 L 798.59 448.00 L 797.19 448.00 L 797.19 442.95 Q 797.19 442.09 797.02 441.66 Q 796.86 441.23 796.45 440.98 Q 796.03 440.73 795.47 440.73 Q 794.56 440.73 793.91 441.30 Q 793.27 441.88 793.27 443.47 L 793.27 448.00 L 791.86 448.00 z M 806.16 444.95 L 807.55 445.14 Q 807.32 446.56 806.39 447.38 Q 805.46 448.19 804.10 448.19 Q 802.40 448.19 801.36 447.07 Q 800.32 445.95 800.32 443.88 Q 800.32 442.53 800.77 441.52 Q 801.21 440.52 802.12 440.02 Q 803.04 439.52 804.10 439.52 Q 805.46 439.52 806.32 440.20 Q 807.18 440.88 807.41 442.14 L 806.05 442.34 Q 805.85 441.52 805.36 441.09 Q 804.87 440.67 804.16 440.67 Q 803.10 440.67 802.44 441.43 Q 801.77 442.19 801.77 443.84 Q 801.77 445.52 802.41 446.27 Q 803.05 447.03 804.09 447.03 Q 804.91 447.03 805.47 446.52 Q 806.02 446.02 806.16 444.95 z M 814.43 445.33 L 815.88 445.50 Q 815.54 446.78 814.61 447.48 Q 813.68 448.19 812.24 448.19 Q 810.41 448.19 809.35 447.06 Q 808.29 445.94 808.29 443.92 Q 808.29 441.83 809.37 440.67 Q 810.45 439.52 812.16 439.52 Q 813.82 439.52 814.88 440.65 Q 815.93 441.78 815.93 443.83 Q 815.93 443.95 815.93 444.20 L 809.74 444.20 Q 809.82 445.58 810.52 446.30 Q 811.21 447.03 812.24 447.03 Q 813.02 447.03 813.57 446.62 Q 814.12 446.22 814.43 445.33 z M 809.82 443.05 L 814.45 443.05 Q 814.35 442.00 813.91 441.48 Q 813.24 440.67 812.18 440.67 Q 811.21 440.67 810.55 441.32 Q 809.88 441.97 809.82 443.05 z M 827.48 448.00 L 827.48 446.95 Q 826.70 448.19 825.16 448.19 Q 824.16 448.19 823.34 447.64 Q 822.51 447.09 822.05 446.11 Q 821.59 445.12 821.59 443.86 Q 821.59 442.61 822.00 441.60 Q 822.41 440.59 823.24 440.05 Q 824.07 439.52 825.10 439.52 Q 825.85 439.52 826.44 439.83 Q 827.02 440.14 827.38 440.66 L 827.38 436.55 L 828.79 436.55 L 828.79 448.00 L 827.48 448.00 z M 823.04 443.86 Q 823.04 445.45 823.71 446.24 Q 824.38 447.03 825.29 447.03 Q 826.21 447.03 826.86 446.27 Q 827.51 445.52 827.51 443.97 Q 827.51 442.27 826.85 441.47 Q 826.20 440.67 825.23 440.67 Q 824.29 440.67 823.66 441.44 Q 823.04 442.20 823.04 443.86 z M 836.44 448.00 L 836.44 446.78 Q 835.47 448.19 833.80 448.19 Q 833.06 448.19 832.43 447.91 Q 831.80 447.62 831.48 447.20 Q 831.17 446.77 831.05 446.16 Q 830.97 445.73 830.97 444.84 L 830.97 439.70 L 832.38 439.70 L 832.38 444.30 Q 832.38 445.41 832.45 445.78 Q 832.59 446.34 833.02 446.66 Q 833.45 446.97 834.08 446.97 Q 834.72 446.97 835.27 446.65 Q 835.83 446.33 836.05 445.77 Q 836.28 445.20 836.28 444.14 L 836.28 439.70 L 837.69 439.70 L 837.69 448.00 L 836.44 448.00 z M 847.41 446.73 L 847.61 447.98 Q 847.02 448.11 846.55 448.11 Q 845.78 448.11 845.36 447.87 Q 844.94 447.62 844.77 447.23 Q 844.59 446.83 844.59 445.56 L 844.59 440.80 L 843.56 440.80 L 843.56 439.70 L 844.59 439.70 L 844.59 437.64 L 846.00 436.80 L 846.00 439.70 L 847.41 439.70 L 847.41 440.80 L 846.00 440.80 L 846.00 445.64 Q 846.00 446.25 846.07 446.42 Q 846.14 446.59 846.31 446.70 Q 846.48 446.80 846.80 446.80 Q 847.03 446.80 847.41 446.73 z M 848.77 448.00 L 848.77 439.70 L 850.04 439.70 L 850.04 440.95 Q 850.52 440.08 850.93 439.80 Q 851.34 439.52 851.84 439.52 Q 852.54 439.52 853.27 439.97 L 852.79 441.27 Q 852.27 440.97 851.76 440.97 Q 851.30 440.97 850.94 441.24 Q 850.57 441.52 850.41 442.02 Q 850.18 442.77 850.18 443.66 L 850.18 448.00 L 848.77 448.00 z M 859.52 446.97 Q 858.74 447.64 858.02 447.91 Q 857.30 448.19 856.48 448.19 Q 855.10 448.19 854.37 447.52 Q 853.63 446.84 853.63 445.81 Q 853.63 445.20 853.91 444.70 Q 854.20 444.19 854.64 443.88 Q 855.09 443.58 855.65 443.42 Q 856.07 443.31 856.90 443.22 Q 858.60 443.02 859.41 442.73 Q 859.41 442.44 859.41 442.36 Q 859.41 441.50 859.02 441.16 Q 858.48 440.67 857.41 440.67 Q 856.43 440.67 855.95 441.02 Q 855.48 441.38 855.26 442.25 L 853.88 442.06 Q 854.07 441.19 854.50 440.64 Q 854.93 440.09 855.74 439.80 Q 856.55 439.52 857.62 439.52 Q 858.68 439.52 859.34 439.77 Q 860.01 440.02 860.32 440.39 Q 860.63 440.77 860.76 441.34 Q 860.84 441.70 860.84 442.64 L 860.84 444.52 Q 860.84 446.48 860.92 447.00 Q 861.01 447.52 861.27 448.00 L 859.80 448.00 Q 859.59 447.56 859.52 446.97 z M 859.41 443.83 Q 858.65 444.14 857.12 444.36 Q 856.24 444.48 855.88 444.64 Q 855.52 444.80 855.33 445.10 Q 855.13 445.41 855.13 445.77 Q 855.13 446.33 855.56 446.70 Q 855.99 447.08 856.80 447.08 Q 857.62 447.08 858.25 446.73 Q 858.88 446.38 859.18 445.75 Q 859.41 445.28 859.41 444.34 L 859.41 443.83 z M 863.02 438.16 L 863.02 436.55 L 864.42 436.55 L 864.42 438.16 L 863.02 438.16 z M 863.02 448.00 L 863.02 439.70 L 864.42 439.70 L 864.42 448.00 L 863.02 448.00 z M 866.57 448.00 L 866.57 439.70 L 867.84 439.70 L 867.84 440.88 Q 868.74 439.52 870.48 439.52 Q 871.23 439.52 871.85 439.78 Q 872.48 440.05 872.79 440.48 Q 873.10 440.92 873.23 441.53 Q 873.30 441.92 873.30 442.89 L 873.30 448.00 L 871.90 448.00 L 871.90 442.95 Q 871.90 442.09 871.73 441.66 Q 871.57 441.23 871.16 440.98 Q 870.74 440.73 870.18 440.73 Q 869.27 440.73 868.62 441.30 Q 867.98 441.88 867.98 443.47 L 867.98 448.00 L 866.57 448.00 z M 888.26 443.98 L 889.77 444.36 Q 889.30 446.23 888.06 447.22 Q 886.82 448.20 885.04 448.20 Q 883.18 448.20 882.02 447.45 Q 880.87 446.69 880.26 445.26 Q 879.65 443.83 879.65 442.19 Q 879.65 440.39 880.34 439.06 Q 881.02 437.73 882.28 437.04 Q 883.54 436.34 885.05 436.34 Q 886.77 436.34 887.95 437.22 Q 889.12 438.09 889.59 439.69 L 888.09 440.03 Q 887.70 438.78 886.94 438.21 Q 886.18 437.64 885.02 437.64 Q 883.71 437.64 882.82 438.27 Q 881.93 438.91 881.57 439.98 Q 881.21 441.05 881.21 442.17 Q 881.21 443.64 881.64 444.73 Q 882.07 445.81 882.97 446.35 Q 883.87 446.89 884.91 446.89 Q 886.18 446.89 887.06 446.16 Q 887.95 445.42 888.26 443.98 z"/>
<title>Présence du train C</title>
<desc>texte4 = “Présence du train C”</desc>

</g> <!-- drawing style -->
</g> <!-- clip44 -->
</g> <!-- transform -->
</g><!-- layer0 -->
</g> <!-- default stroke -->
</svg> <!-- bounding box -->
