<?xml version="1.0" encoding="ISO-8859-1" standalone="no"?>

<svg 
     version="1.1"
     baseProfile="full"
     xmlns="http://www.w3.org/2000/svg"
     xmlns:xlink="http://www.w3.org/1999/xlink"
     xmlns:ev="http://www.w3.org/2001/xml-events"
     width="15.257188896556206cm"
     height="10.3678194818297cm"
     viewBox="250 275 550 400"
     >
<title>

</title>
<g stroke-linejoin="miter" stroke-dashoffset="0.0000" stroke-dasharray="none" stroke-width="1.0000" stroke-miterlimit="10.000" stroke-linecap="square">
<clipPath id="clip5085d75c-3d9a-414b-8dbe-45c64e141809">
  <path d="M 0.0000 0.0000 L 0.0000 880.00 L 1295.0 880.00 L 1295.0 0.0000 z"/>
</clipPath>
<g clip-path="url(#clip1)">
<g stroke-linecap="butt" fill="none" stroke-opacity="1.0000" stroke="#000000">
  <path d="M 95.635 2.0000 L 95.635 880.00"/>
</g> <!-- drawing style -->
</g> <!-- clip1 -->
<clipPath id="clip1a19a223-58b9-4843-9e98-e186d10b304c">
  <path d="M 0.0000 0.0000 L 0.0000 880.00 L 1295.0 880.00 L 1295.0 0.0000 z"/>
</clipPath>
<g clip-path="url(#clip2)">
<g stroke-linecap="butt" fill="none" stroke-opacity="1.0000" stroke="#000000">
  <path d="M 95.635 1.0000 L 91.635 5.0000"/>
</g> <!-- drawing style -->
</g> <!-- clip2 -->
<clipPath id="clip6602f0d7-8fd9-4593-8b76-b2e151700d31">
  <path d="M 0.0000 0.0000 L 0.0000 880.00 L 1295.0 880.00 L 1295.0 0.0000 z"/>
</clipPath>
<g clip-path="url(#clip3)">
<g stroke-linecap="butt" fill="none" stroke-opacity="1.0000" stroke="#000000">
  <path d="M 95.635 1.0000 L 99.635 5.0000"/>
</g> <!-- drawing style -->
</g> <!-- clip3 -->
<clipPath id="clip49d1c8ad-832d-48ba-acc4-2a714d72efed">
  <path d="M 0.0000 0.0000 L 0.0000 880.00 L 1295.0 880.00 L 1295.0 0.0000 z"/>
</clipPath>
<g clip-path="url(#clip4)">
<g stroke-linecap="butt" fill="none" stroke-opacity="1.0000" stroke="#000000">
  <path d="M 0.0000 479.61 L 1293.0 479.61"/>
</g> <!-- drawing style -->
</g> <!-- clip4 -->
<clipPath id="clip57cfff9e-9517-4a2d-b3d9-7a0969b7b633">
  <path d="M 0.0000 0.0000 L 0.0000 880.00 L 1295.0 880.00 L 1295.0 0.0000 z"/>
</clipPath>
<g clip-path="url(#clip5)">
<g stroke-linecap="butt" fill="none" stroke-opacity="1.0000" stroke="#000000">
  <path d="M 1294.0 479.61 L 1290.0 475.61"/>
</g> <!-- drawing style -->
</g> <!-- clip5 -->
<clipPath id="clipe84de98e-31ed-4dcf-bb90-6b95aa9b8ef9">
  <path d="M 0.0000 0.0000 L 0.0000 880.00 L 1295.0 880.00 L 1295.0 0.0000 z"/>
</clipPath>
<g clip-path="url(#clip6)">
<g stroke-linecap="butt" fill="none" stroke-opacity="1.0000" stroke="#000000">
  <path d="M 1294.0 479.61 L 1290.0 483.61"/>
</g> <!-- drawing style -->
</g> <!-- clip6 -->
<clipPath id="clipc760334b-35a0-4a47-8a34-42dfc34b4727">
  <path d="M 0.0000 0.0000 L 0.0000 880.00 L 1295.0 880.00 L 1295.0 0.0000 z"/>
</clipPath>
<g clip-path="url(#clip7)">
<g stroke-linecap="butt" fill="none" stroke-opacity="1.0000" stroke="#000000">
  <path d="M 10.757 479.61 L 10.757 482.61"/>
</g> <!-- drawing style -->
</g> <!-- clip7 -->
<clipPath id="clip674cf712-6cd0-4feb-9f0c-7b0f1c1c51e1">
  <path d="M 0.0000 0.0000 L 0.0000 880.00 L 1295.0 880.00 L 1295.0 0.0000 z"/>
</clipPath>
<g clip-path="url(#clip8)">
<g stroke-linecap="butt" fill="none" stroke-opacity="1.0000" stroke="#000000">
  <path d="M 95.635 479.61 L 95.635 482.61"/>
</g> <!-- drawing style -->
</g> <!-- clip8 -->
<clipPath id="clip25bf60b5-2fcb-405a-bdf9-00082803d643">
  <path d="M 0.0000 0.0000 L 0.0000 880.00 L 1295.0 880.00 L 1295.0 0.0000 z"/>
</clipPath>
<g clip-path="url(#clip9)">
<g stroke-linecap="butt" fill="none" stroke-opacity="1.0000" stroke="#000000">
  <path d="M 180.51 479.61 L 180.51 482.61"/>
</g> <!-- drawing style -->
</g> <!-- clip9 -->
<clipPath id="clipf642ce52-e28e-41ed-bdfc-206523a33495">
  <path d="M 0.0000 0.0000 L 0.0000 880.00 L 1295.0 880.00 L 1295.0 0.0000 z"/>
</clipPath>
<g clip-path="url(#clip10)">
<g stroke-linecap="butt" fill="none" stroke-opacity="1.0000" stroke="#000000">
  <path d="M 265.39 479.61 L 265.39 482.61"/>
</g> <!-- drawing style -->
</g> <!-- clip10 -->
<clipPath id="clip39d70b4d-23ae-489a-ab2a-01d8544de6e0">
  <path d="M 0.0000 0.0000 L 0.0000 880.00 L 1295.0 880.00 L 1295.0 0.0000 z"/>
</clipPath>
<g clip-path="url(#clip11)">
<g stroke-linecap="butt" fill="none" stroke-opacity="1.0000" stroke="#000000">
  <path d="M 350.27 479.61 L 350.27 482.61"/>
</g> <!-- drawing style -->
</g> <!-- clip11 -->
<clipPath id="clip64251f65-06d9-4862-8f32-794b24f4e36e">
  <path d="M 0.0000 0.0000 L 0.0000 880.00 L 1295.0 880.00 L 1295.0 0.0000 z"/>
</clipPath>
<g clip-path="url(#clip12)">
<g stroke-linecap="butt" fill="none" stroke-opacity="1.0000" stroke="#000000">
  <path d="M 435.15 479.61 L 435.15 482.61"/>
</g> <!-- drawing style -->
</g> <!-- clip12 -->
<clipPath id="clipdc850a09-095c-427b-820b-715eb97c293f">
  <path d="M 0.0000 0.0000 L 0.0000 880.00 L 1295.0 880.00 L 1295.0 0.0000 z"/>
</clipPath>
<g clip-path="url(#clip13)">
<g stroke-linecap="butt" fill="none" stroke-opacity="1.0000" stroke="#000000">
  <path d="M 520.03 479.61 L 520.03 482.61"/>
</g> <!-- drawing style -->
</g> <!-- clip13 -->
<clipPath id="clipa604c04a-0649-42f4-afb6-1291db1f7fa8">
  <path d="M 0.0000 0.0000 L 0.0000 880.00 L 1295.0 880.00 L 1295.0 0.0000 z"/>
</clipPath>
<g clip-path="url(#clip14)">
<g stroke-linecap="butt" fill="none" stroke-opacity="1.0000" stroke="#000000">
  <path d="M 604.90 479.61 L 604.90 482.61"/>
</g> <!-- drawing style -->
</g> <!-- clip14 -->
<clipPath id="clipd88390a2-75a5-42a1-b2c9-f2b620002399">
  <path d="M 0.0000 0.0000 L 0.0000 880.00 L 1295.0 880.00 L 1295.0 0.0000 z"/>
</clipPath>
<g clip-path="url(#clip15)">
<g stroke-linecap="butt" fill="none" stroke-opacity="1.0000" stroke="#000000">
  <path d="M 689.78 479.61 L 689.78 482.61"/>
</g> <!-- drawing style -->
</g> <!-- clip15 -->
<clipPath id="clip257bed73-0e2a-42c8-a21c-a769e671dbee">
  <path d="M 0.0000 0.0000 L 0.0000 880.00 L 1295.0 880.00 L 1295.0 0.0000 z"/>
</clipPath>
<g clip-path="url(#clip16)">
<g stroke-linecap="butt" fill="none" stroke-opacity="1.0000" stroke="#000000">
  <path d="M 774.66 479.61 L 774.66 482.61"/>
</g> <!-- drawing style -->
</g> <!-- clip16 -->
<clipPath id="clipab53d631-a663-4625-ad58-2263c816bdc8">
  <path d="M 0.0000 0.0000 L 0.0000 880.00 L 1295.0 880.00 L 1295.0 0.0000 z"/>
</clipPath>
<g clip-path="url(#clip17)">
<g stroke-linecap="butt" fill="none" stroke-opacity="1.0000" stroke="#000000">
  <path d="M 859.54 479.61 L 859.54 482.61"/>
</g> <!-- drawing style -->
</g> <!-- clip17 -->
<clipPath id="clip52eb6f73-1ca7-49b5-a9c4-474f9f88ca6f">
  <path d="M 0.0000 0.0000 L 0.0000 880.00 L 1295.0 880.00 L 1295.0 0.0000 z"/>
</clipPath>
<g clip-path="url(#clip18)">
<g stroke-linecap="butt" fill="none" stroke-opacity="1.0000" stroke="#000000">
  <path d="M 944.42 479.61 L 944.42 482.61"/>
</g> <!-- drawing style -->
</g> <!-- clip18 -->
<clipPath id="clip4f5ffecb-0b6a-4458-833e-3c9cd7753683">
  <path d="M 0.0000 0.0000 L 0.0000 880.00 L 1295.0 880.00 L 1295.0 0.0000 z"/>
</clipPath>
<g clip-path="url(#clip19)">
<g stroke-linecap="butt" fill="none" stroke-opacity="1.0000" stroke="#000000">
  <path d="M 1029.3 479.61 L 1029.3 482.61"/>
</g> <!-- drawing style -->
</g> <!-- clip19 -->
<clipPath id="clipded2e8d2-0c51-466a-876c-a1d8bc878a0c">
  <path d="M 0.0000 0.0000 L 0.0000 880.00 L 1295.0 880.00 L 1295.0 0.0000 z"/>
</clipPath>
<g clip-path="url(#clip20)">
<g stroke-linecap="butt" fill="none" stroke-opacity="1.0000" stroke="#000000">
  <path d="M 1114.2 479.61 L 1114.2 482.61"/>
</g> <!-- drawing style -->
</g> <!-- clip20 -->
<clipPath id="clip2502463d-d523-49f8-b7eb-5f4c0a3afc3c">
  <path d="M 0.0000 0.0000 L 0.0000 880.00 L 1295.0 880.00 L 1295.0 0.0000 z"/>
</clipPath>
<g clip-path="url(#clip21)">
<g stroke-linecap="butt" fill="none" stroke-opacity="1.0000" stroke="#000000">
  <path d="M 1199.0 479.61 L 1199.0 482.61"/>
</g> <!-- drawing style -->
</g> <!-- clip21 -->
<clipPath id="clipe7965aea-2808-403e-8d02-b3254a00f782">
  <path d="M 0.0000 0.0000 L 0.0000 880.00 L 1295.0 880.00 L 1295.0 0.0000 z"/>
</clipPath>
<g clip-path="url(#clip22)">
<g stroke-linecap="butt" fill="none" stroke-opacity="1.0000" stroke="#000000">
  <path d="M 1283.9 479.61 L 1283.9 482.61"/>
</g> <!-- drawing style -->
</g> <!-- clip22 -->
<clipPath id="clip1d7b10f1-7172-4c87-bc8b-1972c4f0b704">
  <path d="M 0.0000 0.0000 L 0.0000 880.00 L 1295.0 880.00 L 1295.0 0.0000 z"/>
</clipPath>
<g clip-path="url(#clip23)">
<g stroke-linecap="butt" fill="none" stroke-opacity="1.0000" stroke="#000000">
  <path d="M 92.635 819.12 L 95.635 819.12"/>
</g> <!-- drawing style -->
</g> <!-- clip23 -->
<clipPath id="clip00275653-e3e5-436c-ae3d-0b2ffe40ca66">
  <path d="M 0.0000 0.0000 L 0.0000 880.00 L 1295.0 880.00 L 1295.0 0.0000 z"/>
</clipPath>
<g clip-path="url(#clip24)">
<g stroke-linecap="butt" fill="none" stroke-opacity="1.0000" stroke="#000000">
  <path d="M 92.635 734.25 L 95.635 734.25"/>
</g> <!-- drawing style -->
</g> <!-- clip24 -->
<clipPath id="clipab17e45d-f337-40e2-afe2-8ad7afd155a0">
  <path d="M 0.0000 0.0000 L 0.0000 880.00 L 1295.0 880.00 L 1295.0 0.0000 z"/>
</clipPath>
<g clip-path="url(#clip25)">
<g stroke-linecap="butt" fill="none" stroke-opacity="1.0000" stroke="#000000">
  <path d="M 92.635 649.37 L 95.635 649.37"/>
</g> <!-- drawing style -->
</g> <!-- clip25 -->
<clipPath id="clip5a74b495-c3c8-42f4-b1ee-b0e11454d110">
  <path d="M 0.0000 0.0000 L 0.0000 880.00 L 1295.0 880.00 L 1295.0 0.0000 z"/>
</clipPath>
<g clip-path="url(#clip26)">
<g stroke-linecap="butt" fill="none" stroke-opacity="1.0000" stroke="#000000">
  <path d="M 92.635 564.49 L 95.635 564.49"/>
</g> <!-- drawing style -->
</g> <!-- clip26 -->
<clipPath id="clipb9711595-7525-4adb-b528-ee42a8c2b28c">
  <path d="M 0.0000 0.0000 L 0.0000 880.00 L 1295.0 880.00 L 1295.0 0.0000 z"/>
</clipPath>
<g clip-path="url(#clip27)">
<g stroke-linecap="butt" fill="none" stroke-opacity="1.0000" stroke="#000000">
  <path d="M 92.635 394.73 L 95.635 394.73"/>
</g> <!-- drawing style -->
</g> <!-- clip27 -->
<clipPath id="clip0167d321-61c3-4845-b932-8225b0506202">
  <path d="M 0.0000 0.0000 L 0.0000 880.00 L 1295.0 880.00 L 1295.0 0.0000 z"/>
</clipPath>
<g clip-path="url(#clip28)">
<g stroke-linecap="butt" fill="none" stroke-opacity="1.0000" stroke="#000000">
  <path d="M 92.635 309.86 L 95.635 309.86"/>
</g> <!-- drawing style -->
</g> <!-- clip28 -->
<clipPath id="clip54f44422-5150-4c6d-a721-811622c5682d">
  <path d="M 0.0000 0.0000 L 0.0000 880.00 L 1295.0 880.00 L 1295.0 0.0000 z"/>
</clipPath>
<g clip-path="url(#clip29)">
<g stroke-linecap="butt" fill="none" stroke-opacity="1.0000" stroke="#000000">
  <path d="M 92.635 224.98 L 95.635 224.98"/>
</g> <!-- drawing style -->
</g> <!-- clip29 -->
<clipPath id="clipafee79de-39c5-4665-8ccf-3e328e051622">
  <path d="M 0.0000 0.0000 L 0.0000 880.00 L 1295.0 880.00 L 1295.0 0.0000 z"/>
</clipPath>
<g clip-path="url(#clip30)">
<g stroke-linecap="butt" fill="none" stroke-opacity="1.0000" stroke="#000000">
  <path d="M 92.635 140.10 L 95.635 140.10"/>
</g> <!-- drawing style -->
</g> <!-- clip30 -->
<clipPath id="clip816bd80f-0c3b-46de-87ce-f0d30590cc4c">
  <path d="M 0.0000 0.0000 L 0.0000 880.00 L 1295.0 880.00 L 1295.0 0.0000 z"/>
</clipPath>
<g clip-path="url(#clip31)">
<g stroke-linecap="butt" fill="none" stroke-opacity="1.0000" stroke="#000000">
  <path d="M 92.635 55.222 L 95.635 55.222"/>
</g> <!-- drawing style -->
</g> <!-- clip31 -->
<clipPath id="clipf246dc56-8a62-414f-a539-d471d454e784">
  <path d="M 0.0000 0.0000 L 0.0000 880.00 L 1295.0 880.00 L 1295.0 0.0000 z"/>
</clipPath>
<g clip-path="url(#clip32)">
<g fill-opacity="1.0000" fill-rule="nonzero" stroke="none" fill="#000000">
  <path d="M 75.609 820.81 L 75.609 820.02 L 80.391 820.02 L 80.391 820.81 L 75.609 820.81 z M 84.875 824.00 L 84.875 821.94 L 81.156 821.94 L 81.156 820.97 L 85.078 815.41 L 85.938 815.41 L 85.938 820.97 L 87.094 820.97 L 87.094 821.94 L 85.938 821.94 L 85.938 824.00 L 84.875 824.00 z M 84.875 820.97 L 84.875 817.11 L 82.188 820.97 L 84.875 820.97 z"/>
</g> <!-- drawing style -->
</g> <!-- clip32 -->
<clipPath id="clip6b42eb2b-b019-45d5-bd96-817eeef0e2f4">
  <path d="M 0.0000 0.0000 L 0.0000 880.00 L 1295.0 880.00 L 1295.0 0.0000 z"/>
</clipPath>
<g clip-path="url(#clip33)">
<g fill-opacity="1.0000" fill-rule="nonzero" stroke="none" fill="#000000">
  <path d="M 75.609 735.81 L 75.609 735.02 L 80.391 735.02 L 80.391 735.81 L 75.609 735.81 z M 81.500 736.73 L 82.562 736.59 Q 82.734 737.48 83.172 737.88 Q 83.609 738.28 84.234 738.28 Q 84.984 738.28 85.500 737.77 Q 86.016 737.25 86.016 736.48 Q 86.016 735.77 85.539 735.29 Q 85.062 734.81 84.328 734.81 Q 84.031 734.81 83.578 734.94 L 83.703 734.00 Q 83.812 734.02 83.875 734.02 Q 84.547 734.02 85.086 733.66 Q 85.625 733.31 85.625 732.58 Q 85.625 732.00 85.234 731.62 Q 84.844 731.23 84.219 731.23 Q 83.609 731.23 83.195 731.62 Q 82.781 732.02 82.672 732.78 L 81.609 732.59 Q 81.797 731.55 82.484 730.96 Q 83.172 730.38 84.188 730.38 Q 84.891 730.38 85.484 730.68 Q 86.078 730.98 86.391 731.50 Q 86.703 732.02 86.703 732.61 Q 86.703 733.16 86.406 733.62 Q 86.109 734.08 85.531 734.34 Q 86.281 734.52 86.703 735.07 Q 87.125 735.62 87.125 736.47 Q 87.125 737.59 86.305 738.38 Q 85.484 739.16 84.234 739.16 Q 83.109 739.16 82.359 738.48 Q 81.609 737.80 81.500 736.73 z"/>
</g> <!-- drawing style -->
</g> <!-- clip33 -->
<clipPath id="clip71a896df-83f3-41c6-be2b-b01e4efbdabc">
  <path d="M 0.0000 0.0000 L 0.0000 880.00 L 1295.0 880.00 L 1295.0 0.0000 z"/>
</clipPath>
<g clip-path="url(#clip34)">
<g fill-opacity="1.0000" fill-rule="nonzero" stroke="none" fill="#000000">
  <path d="M 75.609 650.81 L 75.609 650.02 L 80.391 650.02 L 80.391 650.81 L 75.609 650.81 z M 87.047 652.98 L 87.047 654.00 L 81.359 654.00 Q 81.359 653.62 81.484 653.27 Q 81.703 652.69 82.180 652.12 Q 82.656 651.56 83.562 650.83 Q 84.969 649.67 85.461 649.00 Q 85.953 648.33 85.953 647.73 Q 85.953 647.11 85.500 646.68 Q 85.047 646.25 84.328 646.25 Q 83.562 646.25 83.109 646.70 Q 82.656 647.16 82.641 647.97 L 81.562 647.86 Q 81.672 646.64 82.398 646.01 Q 83.125 645.38 84.359 645.38 Q 85.594 645.38 86.312 646.06 Q 87.031 646.75 87.031 647.77 Q 87.031 648.28 86.820 648.77 Q 86.609 649.27 86.117 649.82 Q 85.625 650.38 84.500 651.33 Q 83.547 652.12 83.273 652.41 Q 83.000 652.70 82.828 652.98 L 87.047 652.98 z"/>
</g> <!-- drawing style -->
</g> <!-- clip34 -->
<clipPath id="clip2af4a26f-7fc7-4a13-96e9-b0cc3fceceae">
  <path d="M 0.0000 0.0000 L 0.0000 880.00 L 1295.0 880.00 L 1295.0 0.0000 z"/>
</clipPath>
<g clip-path="url(#clip35)">
<g fill-opacity="1.0000" fill-rule="nonzero" stroke="none" fill="#000000">
  <path d="M 75.609 565.81 L 75.609 565.02 L 80.391 565.02 L 80.391 565.81 L 75.609 565.81 z M 85.469 569.00 L 84.422 569.00 L 84.422 562.28 Q 84.031 562.64 83.414 563.01 Q 82.797 563.38 82.312 563.55 L 82.312 562.53 Q 83.188 562.11 83.852 561.52 Q 84.516 560.94 84.797 560.38 L 85.469 560.38 L 85.469 569.00 z"/>
</g> <!-- drawing style -->
</g> <!-- clip35 -->
<clipPath id="clip9e8c723c-fb39-466f-8ae4-ef60108fa9d3">
  <path d="M 0.0000 0.0000 L 0.0000 880.00 L 1295.0 880.00 L 1295.0 0.0000 z"/>
</clipPath>
<g clip-path="url(#clip36)">
<g fill-opacity="1.0000" fill-rule="nonzero" stroke="none" fill="#000000">
  <path d="M 85.469 399.00 L 84.422 399.00 L 84.422 392.28 Q 84.031 392.64 83.414 393.01 Q 82.797 393.38 82.312 393.55 L 82.312 392.53 Q 83.188 392.11 83.852 391.52 Q 84.516 390.94 84.797 390.38 L 85.469 390.38 L 85.469 399.00 z"/>
</g> <!-- drawing style -->
</g> <!-- clip36 -->
<clipPath id="clipf895ba1c-3182-4953-b131-e1b9d37b31eb">
  <path d="M 0.0000 0.0000 L 0.0000 880.00 L 1295.0 880.00 L 1295.0 0.0000 z"/>
</clipPath>
<g clip-path="url(#clip37)">
<g fill-opacity="1.0000" fill-rule="nonzero" stroke="none" fill="#000000">
  <path d="M 87.047 312.98 L 87.047 314.00 L 81.359 314.00 Q 81.359 313.62 81.484 313.27 Q 81.703 312.69 82.180 312.12 Q 82.656 311.56 83.562 310.83 Q 84.969 309.67 85.461 309.00 Q 85.953 308.33 85.953 307.73 Q 85.953 307.11 85.500 306.68 Q 85.047 306.25 84.328 306.25 Q 83.562 306.25 83.109 306.70 Q 82.656 307.16 82.641 307.97 L 81.562 307.86 Q 81.672 306.64 82.398 306.01 Q 83.125 305.38 84.359 305.38 Q 85.594 305.38 86.312 306.06 Q 87.031 306.75 87.031 307.77 Q 87.031 308.28 86.820 308.77 Q 86.609 309.27 86.117 309.82 Q 85.625 310.38 84.500 311.33 Q 83.547 312.12 83.273 312.41 Q 83.000 312.70 82.828 312.98 L 87.047 312.98 z"/>
</g> <!-- drawing style -->
</g> <!-- clip37 -->
<clipPath id="clip00ac6632-f6ed-42b7-a2b1-1f893c9a66df">
  <path d="M 0.0000 0.0000 L 0.0000 880.00 L 1295.0 880.00 L 1295.0 0.0000 z"/>
</clipPath>
<g clip-path="url(#clip38)">
<g fill-opacity="1.0000" fill-rule="nonzero" stroke="none" fill="#000000">
  <path d="M 81.500 226.73 L 82.562 226.59 Q 82.734 227.48 83.172 227.88 Q 83.609 228.28 84.234 228.28 Q 84.984 228.28 85.500 227.77 Q 86.016 227.25 86.016 226.48 Q 86.016 225.77 85.539 225.29 Q 85.062 224.81 84.328 224.81 Q 84.031 224.81 83.578 224.94 L 83.703 224.00 Q 83.812 224.02 83.875 224.02 Q 84.547 224.02 85.086 223.66 Q 85.625 223.31 85.625 222.58 Q 85.625 222.00 85.234 221.62 Q 84.844 221.23 84.219 221.23 Q 83.609 221.23 83.195 221.62 Q 82.781 222.02 82.672 222.78 L 81.609 222.59 Q 81.797 221.55 82.484 220.96 Q 83.172 220.38 84.188 220.38 Q 84.891 220.38 85.484 220.68 Q 86.078 220.98 86.391 221.50 Q 86.703 222.02 86.703 222.61 Q 86.703 223.16 86.406 223.62 Q 86.109 224.08 85.531 224.34 Q 86.281 224.52 86.703 225.07 Q 87.125 225.62 87.125 226.47 Q 87.125 227.59 86.305 228.38 Q 85.484 229.16 84.234 229.16 Q 83.109 229.16 82.359 228.48 Q 81.609 227.80 81.500 226.73 z"/>
</g> <!-- drawing style -->
</g> <!-- clip38 -->
<clipPath id="clip1ad5fe9d-b34a-4b7b-8dbc-e953c53bc62d">
  <path d="M 0.0000 0.0000 L 0.0000 880.00 L 1295.0 880.00 L 1295.0 0.0000 z"/>
</clipPath>
<g clip-path="url(#clip39)">
<g fill-opacity="1.0000" fill-rule="nonzero" stroke="none" fill="#000000">
  <path d="M 84.875 145.00 L 84.875 142.94 L 81.156 142.94 L 81.156 141.97 L 85.078 136.41 L 85.938 136.41 L 85.938 141.97 L 87.094 141.97 L 87.094 142.94 L 85.938 142.94 L 85.938 145.00 L 84.875 145.00 z M 84.875 141.97 L 84.875 138.11 L 82.188 141.97 L 84.875 141.97 z"/>
</g> <!-- drawing style -->
</g> <!-- clip39 -->
<clipPath id="clipc6ac7c86-0784-42f1-8497-9642c05cc681">
  <path d="M 0.0000 0.0000 L 0.0000 880.00 L 1295.0 880.00 L 1295.0 0.0000 z"/>
</clipPath>
<g clip-path="url(#clip40)">
<g fill-opacity="1.0000" fill-rule="nonzero" stroke="none" fill="#000000">
  <path d="M 81.500 57.750 L 82.609 57.656 Q 82.734 58.469 83.180 58.875 Q 83.625 59.281 84.266 59.281 Q 85.016 59.281 85.547 58.703 Q 86.078 58.125 86.078 57.188 Q 86.078 56.281 85.570 55.758 Q 85.062 55.234 84.234 55.234 Q 83.734 55.234 83.320 55.469 Q 82.906 55.703 82.672 56.062 L 81.688 55.938 L 82.516 51.531 L 86.797 51.531 L 86.797 52.531 L 83.359 52.531 L 82.906 54.844 Q 83.672 54.297 84.516 54.297 Q 85.641 54.297 86.414 55.078 Q 87.188 55.859 87.188 57.094 Q 87.188 58.250 86.516 59.109 Q 85.688 60.141 84.266 60.141 Q 83.094 60.141 82.352 59.484 Q 81.609 58.828 81.500 57.750 z"/>
</g> <!-- drawing style -->
</g> <!-- clip40 -->
<clipPath id="clip8449fbdc-166a-4121-a1dd-5b40cef101b7">
  <path d="M 0.0000 0.0000 L 0.0000 880.00 L 1295.0 880.00 L 1295.0 0.0000 z"/>
</clipPath>
<g clip-path="url(#clip41)">
<g fill-opacity="1.0000" fill-rule="nonzero" stroke="none" fill="#000000">
  <path d="M 81.500 490.77 Q 81.500 489.23 81.812 488.30 Q 82.125 487.38 82.742 486.88 Q 83.359 486.38 84.297 486.38 Q 84.984 486.38 85.508 486.66 Q 86.031 486.94 86.375 487.46 Q 86.719 487.98 86.906 488.73 Q 87.094 489.48 87.094 490.77 Q 87.094 492.28 86.789 493.20 Q 86.484 494.12 85.867 494.63 Q 85.250 495.14 84.297 495.14 Q 83.062 495.14 82.344 494.25 Q 81.500 493.19 81.500 490.77 z M 82.578 490.77 Q 82.578 492.88 83.078 493.58 Q 83.578 494.28 84.297 494.28 Q 85.031 494.28 85.523 493.58 Q 86.016 492.88 86.016 490.77 Q 86.016 488.64 85.523 487.95 Q 85.031 487.25 84.281 487.25 Q 83.562 487.25 83.125 487.86 Q 82.578 488.64 82.578 490.77 z"/>
</g> <!-- drawing style -->
</g> <!-- clip41 -->
<g id="misc">
</g><!-- misc -->
<g id="layer0">
<clipPath id="clip65c047d6-5ae1-40b7-b177-7b025debb89f">
  <path d="M 0.0000 0.0000 L 0.0000 880.00 L 1295.0 880.00 L 1295.0 0.0000 z"/>
</clipPath>
<g clip-path="url(#clip42)">
<g stroke-linejoin="round" stroke-width="2.5000" stroke-linecap="round" fill="none" stroke-opacity=".69804" stroke="#cc0000">
  <path d="M 350.27 649.37 L 354.10 649.33 M 354.10 649.33 L 359.16 649.14 L 364.22 648.80 M 364.22 648.80 L 369.28 648.30 L 374.34 647.66 L 379.39 646.87 L 384.45 645.93 L 389.51 644.83 L 394.57 643.59 L 399.63 642.19 L 404.69 640.65 M 404.69 640.65 L 409.75 638.95 L 414.80 637.10 L 419.86 635.10 L 424.92 632.95 L 429.98 630.65 L 435.04 628.20 L 440.10 625.60 L 445.16 622.85 L 450.21 619.95 L 455.27 616.89 L 460.33 613.69 L 465.39 610.33 L 470.45 606.83 L 475.51 603.17 L 480.57 599.36 L 485.62 595.41 M 485.62 595.41 L 490.68 591.30 L 495.74 587.04 L 500.80 582.63 L 505.86 578.07 L 510.92 573.35 L 515.98 568.49 L 521.04 563.48 L 526.09 558.31 L 531.15 553.00 L 536.21 547.53 L 541.27 541.92 L 546.33 536.15 L 551.39 530.23 L 556.45 524.16 L 561.50 517.94 L 566.56 511.57 L 571.62 505.05 L 576.68 498.38 L 581.74 491.56 L 586.80 484.59 L 591.86 477.46 L 596.91 470.19 L 601.97 462.76 L 607.03 455.19 L 612.09 447.46 L 617.15 439.58 L 622.21 431.56 L 627.27 423.38 L 632.32 415.05 L 637.38 406.57 L 642.44 397.94 L 647.50 389.15 M 647.50 389.15 L 652.56 380.22 L 657.62 371.14 L 662.68 361.90 L 667.73 352.52 L 672.79 342.98 L 677.85 333.30 L 682.91 323.46 L 687.97 313.47 M 687.97 313.47 L 689.78 309.86"/>
<title>Fonction f</title>
<desc>f(x) = Si(3 ≤ x ≤ 7, 0.25(x - 3)² - 2)</desc>

</g> <!-- drawing style -->
</g> <!-- clip42 -->
<clipPath id="clip0b1599bc-afcd-4e26-8296-1c707974701b">
  <path d="M 0.0000 0.0000 L 0.0000 880.00 L 1295.0 880.00 L 1295.0 0.0000 z"/>
</clipPath>
<g clip-path="url(#clip43)">
<g stroke-linejoin="round" stroke-width="2.5000" stroke-linecap="round" fill="none" stroke-opacity=".69804" stroke="#606060">
  <path d="M 350.27 649.37 L 354.10 649.33 M 354.10 649.33 L 359.16 649.14 L 364.22 648.80 M 364.22 648.80 L 369.28 648.30 L 374.34 647.66 L 379.39 646.87 L 384.45 645.93 L 389.51 644.83 L 394.57 643.59 L 399.63 642.19 L 404.69 640.65 M 404.69 640.65 L 409.75 638.95 L 414.80 637.10 L 419.86 635.10 L 424.92 632.95 L 429.98 630.65 L 435.04 628.20 L 440.10 625.60 L 445.16 622.85 L 450.21 619.95 L 455.27 616.89 L 460.33 613.69 L 465.39 610.33 L 470.45 606.83 L 475.51 603.17 L 480.57 599.36 L 485.62 595.41 M 485.62 595.41 L 490.68 591.30 L 495.74 587.04 L 500.80 582.63 L 505.86 578.07 M 505.86 578.07 L 510.92 573.35 L 515.98 568.49 M 515.98 568.49 L 520.03 564.49"/>
<title>Fonction p</title>
<desc>Fonction p: Si(3 ≤ x ≤ 5, f(x))</desc>

</g> <!-- drawing style -->
</g> <!-- clip43 -->
<clipPath id="clip3f20a455-f756-48d3-8566-390d101b4c43">
  <path d="M 0.0000 0.0000 L 0.0000 880.00 L 1295.0 880.00 L 1295.0 0.0000 z"/>
</clipPath>
<g clip-path="url(#clip44)">
<g stroke-linejoin="round" stroke-width="5.0000" stroke-linecap="round" fill="none" stroke-opacity=".69804" stroke="#00cc00">
  <path d="M 520.03 479.61 L 689.78 479.61"/>
<title>Segment g</title>
<desc>Segment g: Segment [AC]</desc>

</g> <!-- drawing style -->
</g> <!-- clip44 -->
<clipPath id="clipf2a5203f-c6b4-4a66-957a-5b66098e43f7">
  <path d="M 0.0000 0.0000 L 0.0000 880.00 L 1295.0 880.00 L 1295.0 0.0000 z"/>
</clipPath>
<g clip-path="url(#clip45)">
<g stroke-linejoin="round" stroke-dasharray="2.5000,3.0000" stroke-width="2.5000" stroke-linecap="butt" fill="none" stroke-opacity=".69804" stroke="#000000">
  <path d="M 520.03 479.61 L 520.03 564.49"/>
<title>Segment h</title>
<desc>Segment h: Segment [AD]</desc>

</g> <!-- drawing style -->
</g> <!-- clip45 -->
<clipPath id="clip6fe9bb6e-e639-446a-a0ed-a62571f2e6f5">
  <path d="M 0.0000 0.0000 L 0.0000 880.00 L 1295.0 880.00 L 1295.0 0.0000 z"/>
</clipPath>
<g clip-path="url(#clip46)">
<g stroke-linejoin="round" stroke-width="1.5000" stroke-linecap="butt" fill="none" stroke-opacity=".69804" stroke="#0000ff">
  <path d="M 604.90 458.39 L 604.90 479.61"/>
<title>Segment i</title>
<desc>Segment i: Segment [FB]</desc>

</g> <!-- drawing style -->
</g> <!-- clip46 -->
<clipPath id="clip8040c340-89fd-4318-b037-348566b01a16">
  <path d="M 0.0000 0.0000 L 0.0000 880.00 L 1295.0 880.00 L 1295.0 0.0000 z"/>
</clipPath>
<g clip-path="url(#clip47)">
<g stroke-linejoin="round" stroke-width="1.5000" stroke-linecap="butt" fill="none" stroke-opacity=".69804" stroke="#0000ff">
  <path d="M 689.78 479.61 L 689.78 309.86"/>
<title>Segment j</title>
<desc>Segment j: Segment [CE]</desc>

</g> <!-- drawing style -->
</g> <!-- clip47 -->
<clipPath id="clip13d13f20-939c-4b2f-9080-ac5065850412">
  <path d="M 0.0000 0.0000 L 0.0000 880.00 L 1295.0 880.00 L 1295.0 0.0000 z"/>
</clipPath>
<g clip-path="url(#clip48)">
<g stroke-linejoin="round" stroke-dasharray="2.5000,3.0000" stroke-width="2.5000" stroke-linecap="butt" fill="none" stroke-opacity=".69804" stroke="#000000">
  <path d="M 350.27 649.37 L 350.27 479.61"/>
<title>Segment k</title>
<desc>Segment k: Segment [IH]</desc>

</g> <!-- drawing style -->
</g> <!-- clip48 -->
<clipPath id="clip105f2157-b209-4073-93aa-fce45d0680a6">
  <path d="M 0.0000 0.0000 L 0.0000 880.00 L 1295.0 880.00 L 1295.0 0.0000 z"/>
</clipPath>
<g clip-path="url(#clip49)">
<g stroke-linejoin="round" stroke-width="5.0000" stroke-linecap="round" fill="none" stroke-opacity=".69804" stroke="#606060">
  <path d="M 350.27 479.61 L 520.03 479.61"/>
<title>Segment l</title>
<desc>Segment l: Segment [HA]</desc>

</g> <!-- drawing style -->
</g> <!-- clip49 -->
<clipPath id="clip1b13437c-32df-4e25-8e60-b2d4b6cb391e">
  <path d="M 0.0000 0.0000 L 0.0000 880.00 L 1295.0 880.00 L 1295.0 0.0000 z"/>
</clipPath>
<g clip-path="url(#clip50)">
<g fill-opacity="1.0000" fill-rule="nonzero" stroke="none" fill="#444444">
  <path d="M 524.03 479.61 C 524.03 481.82 522.23 483.61 520.03 483.61 C 517.82 483.61 516.03 481.82 516.03 479.61 C 516.03 477.40 517.82 475.61 520.03 475.61 C 522.23 475.61 524.03 477.40 524.03 479.61 z"/>
<title>Point A</title>
<desc>Point A: (debut, 0)</desc>

</g> <!-- drawing style -->
</g> <!-- clip50 -->
<clipPath id="clipe5a97b5c-4333-44c0-8dff-d09dfb21b2bc">
  <path d="M 0.0000 0.0000 L 0.0000 880.00 L 1295.0 880.00 L 1295.0 0.0000 z"/>
</clipPath>
<g clip-path="url(#clip51)">
<g fill-opacity="1.0000" fill-rule="nonzero" stroke="none" fill="#444444">
  <path d="M 693.78 479.61 C 693.78 481.82 691.99 483.61 689.78 483.61 C 687.57 483.61 685.78 481.82 685.78 479.61 C 685.78 477.40 687.57 475.61 689.78 475.61 C 691.99 475.61 693.78 477.40 693.78 479.61 z"/>
<title>Point C</title>
<desc>Point C: (fin, 0)</desc>

</g> <!-- drawing style -->
</g> <!-- clip51 -->
<clipPath id="clip8dbfd494-6314-4205-a179-ade4bb1faa61">
  <path d="M 0.0000 0.0000 L 0.0000 880.00 L 1295.0 880.00 L 1295.0 0.0000 z"/>
</clipPath>
<g clip-path="url(#clip52)">
<g fill-opacity="1.0000" fill-rule="nonzero" stroke="none" fill="#444444">
  <path d="M 608.90 479.61 C 608.90 481.82 607.11 483.61 604.90 483.61 C 602.69 483.61 600.90 481.82 600.90 479.61 C 600.90 477.40 602.69 475.61 604.90 475.61 C 607.11 475.61 608.90 477.40 608.90 479.61 z"/>
<title>Point B</title>
<desc>Point B: (milieu, 0)</desc>

</g> <!-- drawing style -->
</g> <!-- clip52 -->
<clipPath id="clip4067dcf3-fa20-451b-bfff-e05a36195ac7">
  <path d="M 0.0000 0.0000 L 0.0000 880.00 L 1295.0 880.00 L 1295.0 0.0000 z"/>
</clipPath>
<g clip-path="url(#clip53)">
<g fill-opacity="1.0000" fill-rule="nonzero" stroke="none" fill="#444444">
  <path d="M 524.03 564.49 C 524.03 566.70 522.23 568.49 520.03 568.49 C 517.82 568.49 516.03 566.70 516.03 564.49 C 516.03 562.28 517.82 560.49 520.03 560.49 C 522.23 560.49 524.03 562.28 524.03 564.49 z"/>
<title>Point D</title>
<desc>Point D: (debut, f(debut))</desc>

</g> <!-- drawing style -->
</g> <!-- clip53 -->
<clipPath id="clip8ff20dd0-8739-43bc-a29b-b21dbcff97f4">
  <path d="M 0.0000 0.0000 L 0.0000 880.00 L 1295.0 880.00 L 1295.0 0.0000 z"/>
</clipPath>
<g clip-path="url(#clip54)">
<g fill-opacity="1.0000" fill-rule="nonzero" stroke="none" fill="#444444">
  <path d="M 693.78 309.86 C 693.78 312.07 691.99 313.86 689.78 313.86 C 687.57 313.86 685.78 312.07 685.78 309.86 C 685.78 307.65 687.57 305.86 689.78 305.86 C 691.99 305.86 693.78 307.65 693.78 309.86 z"/>
<title>Point E</title>
<desc>Point E: (fin, f(fin))</desc>

</g> <!-- drawing style -->
</g> <!-- clip54 -->
<clipPath id="clip16ec1bbb-4ba0-4168-8bf5-27e60fdea594">
  <path d="M 0.0000 0.0000 L 0.0000 880.00 L 1295.0 880.00 L 1295.0 0.0000 z"/>
</clipPath>
<g clip-path="url(#clip55)">
<g fill-opacity="1.0000" fill-rule="nonzero" stroke="none" fill="#444444">
  <path d="M 608.90 458.39 C 608.90 460.60 607.11 462.39 604.90 462.39 C 602.69 462.39 600.90 460.60 600.90 458.39 C 600.90 456.18 602.69 454.39 604.90 454.39 C 607.11 454.39 608.90 456.18 608.90 458.39 z"/>
<title>Point F</title>
<desc>Point F: (milieu, f(milieu))</desc>

</g> <!-- drawing style -->
</g> <!-- clip55 -->
<clipPath id="clip6f9475b6-9ce6-4bfa-a457-d7e61c3e0fcf">
  <path d="M 0.0000 0.0000 L 0.0000 880.00 L 1295.0 880.00 L 1295.0 0.0000 z"/>
</clipPath>
<g clip-path="url(#clip56)">
<g fill-opacity="1.0000" fill-rule="nonzero" stroke="none" fill="#000000">
<title>Point H</title>
<desc>H = (3, 0)</desc>

</g> <!-- drawing style -->
</g> <!-- clip56 -->
<clipPath id="clip33ecd69c-b08f-48a1-9702-ac0c14f28eef">
  <path d="M 0.0000 0.0000 L 0.0000 880.00 L 1295.0 880.00 L 1295.0 0.0000 z"/>
</clipPath>
<g clip-path="url(#clip57)">
<g fill-opacity="1.0000" fill-rule="nonzero" stroke="none" fill="#444444">
<title>Point I</title>
<desc>Point I: (3, f(3))</desc>

</g> <!-- drawing style -->
</g> <!-- clip57 -->
<g transform="matrix(.25000, 0.0000, 0.0000, .25000, 466.00, 473.35)">
<clipPath id="clipadedc7cd-7024-41be-8c2d-bf87b80324e1">
  <path d="M -1864.0 -1893.4 L -1864.0 1626.6 L 3316.0 1626.6 L 3316.0 -1893.4 z"/>
</clipPath>
<g clip-path="url(#clip59)">
<g fill-opacity="1.0000" fill-rule="nonzero" stroke="none" fill="#000000">
  <path d="M 43.406 -69.406 L 43.406 -0.0000 L 35.594 -0.0000 L 35.594 -5.2031 Q 29.094 1.0938 20.797 1.0938 Q 13.594 1.0938 8.5938 -5.6562 Q 3.5938 -12.406 3.5938 -22.203 Q 3.5938 -31.906 8.7500 -38.703 Q 13.906 -45.500 21.297 -45.500 Q 29.297 -45.500 35.906 -40.000 L 35.906 -69.406 L 43.406 -69.406 z M 35.594 -13.906 L 35.594 -33.906 Q 31.797 -39.406 25.906 -39.406 Q 20.406 -39.406 15.906 -35.203 Q 11.406 -31.000 11.406 -22.094 Q 11.406 -13.500 15.453 -9.2500 Q 19.500 -5.0000 24.906 -5.0000 Q 29.094 -5.0000 32.297 -7.7969 Q 35.594 -10.797 35.594 -13.906 z"/>
<title>début</title>
<desc>texte1 = “début”</desc>

</g> <!-- drawing style -->
</g> <!-- clip59 -->
</g> <!-- transform -->
<g transform="matrix(.25000, 0.0000, 0.0000, .25000, 478.93, 473.35)">
<clipPath id="clipede490bf-e910-418c-9984-7ccf41343053">
  <path d="M -1915.7 -1893.4 L -1915.7 1626.6 L 3264.3 1626.6 L 3264.3 -1893.4 z"/>
</clipPath>
<g clip-path="url(#clip60)">
<g fill-opacity="1.0000" fill-rule="nonzero" stroke="none" fill="#000000">
  <path d="M 41.594 -69.406 L 26.594 -52.703 L 20.500 -52.703 L 33.797 -69.406 L 41.594 -69.406 z"/>
<title>début</title>
<desc>texte1 = “début”</desc>

</g> <!-- drawing style -->
</g> <!-- clip60 -->
</g> <!-- transform -->
<g transform="matrix(.25000, 0.0000, 0.0000, .25000, 479.62, 473.35)">
<clipPath id="clip3806361e-bd1e-499b-9d8e-e089ae970653">
  <path d="M -1918.5 -1893.4 L -1918.5 1626.6 L 3261.5 1626.6 L 3261.5 -1893.4 z"/>
</clipPath>
<g clip-path="url(#clip61)">
<g fill-opacity="1.0000" fill-rule="nonzero" stroke="none" fill="#000000">
  <path d="M 41.406 -21.906 L 10.500 -21.906 Q 10.703 -14.594 14.953 -9.7969 Q 19.203 -5.0000 25.203 -5.0000 Q 33.594 -5.0000 40.406 -10.594 L 41.000 -4.0938 Q 33.797 1.0938 25.094 1.0938 Q 16.094 1.0938 9.7969 -5.8047 Q 3.5000 -12.703 3.5000 -22.594 Q 3.5000 -32.297 9.3984 -39.195 Q 15.297 -46.094 23.594 -46.094 Q 32.594 -46.094 37.406 -38.797 Q 41.406 -32.594 41.406 -21.906 z M 11.000 -27.406 L 35.703 -27.406 Q 34.797 -33.797 31.398 -36.898 Q 28.000 -40.000 23.594 -40.000 Q 19.297 -40.000 15.750 -36.500 Q 12.203 -33.000 11.000 -27.406 z"/>
<title>début</title>
<desc>texte1 = “début”</desc>

</g> <!-- drawing style -->
</g> <!-- clip61 -->
</g> <!-- transform -->
<g transform="matrix(.25000, 0.0000, 0.0000, .25000, 490.73, 473.35)">
<clipPath id="clip966e70d7-7736-49ce-8d8d-cfcc469da1c7">
  <path d="M -1962.9 -1893.4 L -1962.9 1626.6 L 3217.1 1626.6 L 3217.1 -1893.4 z"/>
</clipPath>
<g clip-path="url(#clip62)">
<g fill-opacity="1.0000" fill-rule="nonzero" stroke="none" fill="#000000">
  <path d="M 15.703 -69.406 L 15.703 -39.594 Q 22.906 -45.500 31.797 -45.500 Q 38.703 -45.500 43.352 -38.648 Q 48.000 -31.797 48.000 -22.297 Q 48.000 -12.406 42.500 -5.6562 Q 37.000 1.0938 29.406 1.0938 Q 22.203 1.0938 16.000 -4.5938 L 16.000 -0.0000 L 8.2031 -0.0000 L 8.2031 -69.406 L 15.703 -69.406 z M 16.000 -33.500 L 16.000 -11.406 Q 19.500 -5.0000 25.703 -5.0000 Q 31.203 -5.0000 35.703 -9.2500 Q 40.203 -13.500 40.203 -22.297 Q 40.203 -31.000 36.102 -35.203 Q 32.000 -39.406 26.703 -39.406 Q 19.906 -39.406 16.000 -33.500 z"/>
<title>début</title>
<desc>texte1 = “début”</desc>

</g> <!-- drawing style -->
</g> <!-- clip62 -->
</g> <!-- transform -->
<g transform="matrix(.25000, 0.0000, 0.0000, .25000, 503.65, 473.35)">
<clipPath id="clip99f4e1bf-f2e3-4877-b417-e3c916867523">
  <path d="M -2014.6 -1893.4 L -2014.6 1626.6 L 3165.4 1626.6 L 3165.4 -1893.4 z"/>
</clipPath>
<g clip-path="url(#clip63)">
<g fill-opacity="1.0000" fill-rule="nonzero" stroke="none" fill="#000000">
  <path d="M 43.500 -44.406 L 43.500 -0.0000 L 36.000 -0.0000 L 36.000 -4.7969 Q 29.297 1.0938 18.703 1.0938 Q 12.797 1.0938 10.445 -1.9531 Q 8.0938 -5.0000 8.0938 -10.906 L 8.0938 -44.406 L 15.906 -44.406 L 15.906 -11.297 Q 15.906 -7.5938 17.352 -6.0000 Q 18.797 -4.4062 23.703 -4.4062 Q 28.797 -4.4062 32.250 -7.2500 Q 35.703 -10.094 35.703 -15.406 L 35.703 -44.406 L 43.500 -44.406 z"/>
<title>début</title>
<desc>texte1 = “début”</desc>

</g> <!-- drawing style -->
</g> <!-- clip63 -->
</g> <!-- transform -->
<g transform="matrix(.25000, 0.0000, 0.0000, .25000, 516.58, 473.35)">
<clipPath id="clip9ffe053f-f74c-4cce-9717-a9d7f744b7c0">
  <path d="M -2066.3 -1893.4 L -2066.3 1626.6 L 3113.7 1626.6 L 3113.7 -1893.4 z"/>
</clipPath>
<g clip-path="url(#clip64)">
<g fill-opacity="1.0000" fill-rule="nonzero" stroke="none" fill="#000000">
  <path d="M 17.500 -38.594 L 17.500 -13.594 Q 17.500 -5.2969 22.594 -5.2969 Q 27.500 -5.2969 31.594 -8.5938 L 33.203 -2.7031 Q 25.906 1.0938 18.594 1.0938 Q 10.297 1.0938 10.297 -11.906 L 10.297 -38.594 L 1.9062 -38.594 L 1.9062 -44.406 L 10.594 -44.406 L 10.594 -57.094 L 17.500 -57.094 L 17.500 -44.406 L 31.594 -44.406 L 31.594 -38.594 L 17.500 -38.594 z"/>
<title>début</title>
<desc>texte1 = “début”</desc>

</g> <!-- drawing style -->
</g> <!-- clip64 -->
</g> <!-- transform -->
<g transform="matrix(.25000, 0.0000, 0.0000, .25000, 587.00, 512.35)">
<clipPath id="clipd6066d79-de34-4c97-950d-41123b7ff9f4">
  <path d="M -2348.0 -2049.4 L -2348.0 1470.6 L 2832.0 1470.6 L 2832.0 -2049.4 z"/>
</clipPath>
<g clip-path="url(#clip65)">
<g fill-opacity="1.0000" fill-rule="nonzero" stroke="none" fill="#000000">
  <path d="M 71.297 -29.797 L 71.297 -0.0000 L 63.500 -0.0000 L 63.500 -29.094 Q 63.500 -31.000 63.250 -32.398 Q 63.000 -33.797 62.148 -35.602 Q 61.297 -37.406 59.148 -38.406 Q 57.000 -39.406 53.703 -39.406 Q 48.594 -39.406 46.094 -34.906 Q 43.594 -30.406 43.594 -24.500 L 43.594 -0.0000 L 35.797 -0.0000 L 35.797 -29.094 Q 35.797 -31.000 35.547 -32.398 Q 35.297 -33.797 34.445 -35.602 Q 33.594 -37.406 31.445 -38.406 Q 29.297 -39.406 26.000 -39.406 Q 20.906 -39.406 18.406 -34.906 Q 15.906 -30.406 15.906 -24.500 L 15.906 -0.0000 L 8.0938 -0.0000 L 8.0938 -45.000 L 15.297 -45.000 L 15.297 -37.797 Q 21.094 -45.500 29.906 -45.500 Q 39.906 -45.500 42.703 -37.297 Q 48.297 -45.500 57.594 -45.500 Q 71.297 -45.500 71.297 -29.797 z"/>
<title>milieu</title>
<desc>texte2 = “milieu”</desc>

</g> <!-- drawing style -->
</g> <!-- clip65 -->
</g> <!-- transform -->
<g transform="matrix(.25000, 0.0000, 0.0000, .25000, 606.85, 512.35)">
<clipPath id="clip2d479684-1774-435c-9ce4-d46a3bca39de">
  <path d="M -2427.4 -2049.4 L -2427.4 1470.6 L 2752.6 1470.6 L 2752.6 -2049.4 z"/>
</clipPath>
<g clip-path="url(#clip66)">
<g fill-opacity="1.0000" fill-rule="nonzero" stroke="none" fill="#000000">
  <path d="M 16.297 -68.000 L 16.297 -59.094 L 7.4062 -59.094 L 7.4062 -68.000 L 16.297 -68.000 z M 15.594 -44.406 L 15.594 -0.0000 L 8.0938 -0.0000 L 8.0938 -44.406 L 15.594 -44.406 z"/>
<title>milieu</title>
<desc>texte2 = “milieu”</desc>

</g> <!-- drawing style -->
</g> <!-- clip66 -->
</g> <!-- transform -->
<g transform="matrix(.25000, 0.0000, 0.0000, .25000, 612.83, 512.35)">
<clipPath id="clipba987371-ed52-4178-b215-8a803522c16b">
  <path d="M -2451.3 -2049.4 L -2451.3 1470.6 L 2728.7 1470.6 L 2728.7 -2049.4 z"/>
</clipPath>
<g clip-path="url(#clip67)">
<g fill-opacity="1.0000" fill-rule="nonzero" stroke="none" fill="#000000">
  <path d="M 15.594 -69.406 L 15.594 -0.0000 L 8.0938 -0.0000 L 8.0938 -69.406 L 15.594 -69.406 z"/>
<title>milieu</title>
<desc>texte2 = “milieu”</desc>

</g> <!-- drawing style -->
</g> <!-- clip67 -->
</g> <!-- transform -->
<g transform="matrix(.25000, 0.0000, 0.0000, .25000, 618.80, 512.35)">
<clipPath id="clip2c80498c-6f4d-4492-9576-27f1629f7d46">
  <path d="M -2475.2 -2049.4 L -2475.2 1470.6 L 2704.8 1470.6 L 2704.8 -2049.4 z"/>
</clipPath>
<g clip-path="url(#clip68)">
<g fill-opacity="1.0000" fill-rule="nonzero" stroke="none" fill="#000000">
  <path d="M 16.297 -68.000 L 16.297 -59.094 L 7.4062 -59.094 L 7.4062 -68.000 L 16.297 -68.000 z M 15.594 -44.406 L 15.594 -0.0000 L 8.0938 -0.0000 L 8.0938 -44.406 L 15.594 -44.406 z"/>
<title>milieu</title>
<desc>texte2 = “milieu”</desc>

</g> <!-- drawing style -->
</g> <!-- clip68 -->
</g> <!-- transform -->
<g transform="matrix(.25000, 0.0000, 0.0000, .25000, 624.78, 512.35)">
<clipPath id="clip5f06a9cc-e8b3-4f25-b620-8fb4453fd897">
  <path d="M -2499.1 -2049.4 L -2499.1 1470.6 L 2680.9 1470.6 L 2680.9 -2049.4 z"/>
</clipPath>
<g clip-path="url(#clip69)">
<g fill-opacity="1.0000" fill-rule="nonzero" stroke="none" fill="#000000">
  <path d="M 41.406 -21.906 L 10.500 -21.906 Q 10.703 -14.594 14.953 -9.7969 Q 19.203 -5.0000 25.203 -5.0000 Q 33.594 -5.0000 40.406 -10.594 L 41.000 -4.0938 Q 33.797 1.0938 25.094 1.0938 Q 16.094 1.0938 9.7969 -5.8047 Q 3.5000 -12.703 3.5000 -22.594 Q 3.5000 -32.297 9.3984 -39.195 Q 15.297 -46.094 23.594 -46.094 Q 32.594 -46.094 37.406 -38.797 Q 41.406 -32.594 41.406 -21.906 z M 11.000 -27.406 L 35.703 -27.406 Q 34.797 -33.797 31.398 -36.898 Q 28.000 -40.000 23.594 -40.000 Q 19.297 -40.000 15.750 -36.500 Q 12.203 -33.000 11.000 -27.406 z"/>
<title>milieu</title>
<desc>texte2 = “milieu”</desc>

</g> <!-- drawing style -->
</g> <!-- clip69 -->
</g> <!-- transform -->
<g transform="matrix(.25000, 0.0000, 0.0000, .25000, 635.88, 512.35)">
<clipPath id="clipb6f7c358-e54f-4205-9ccc-1951fb3d085f">
  <path d="M -2543.5 -2049.4 L -2543.5 1470.6 L 2636.5 1470.6 L 2636.5 -2049.4 z"/>
</clipPath>
<g clip-path="url(#clip70)">
<g fill-opacity="1.0000" fill-rule="nonzero" stroke="none" fill="#000000">
  <path d="M 43.500 -44.406 L 43.500 -0.0000 L 36.000 -0.0000 L 36.000 -4.7969 Q 29.297 1.0938 18.703 1.0938 Q 12.797 1.0938 10.445 -1.9531 Q 8.0938 -5.0000 8.0938 -10.906 L 8.0938 -44.406 L 15.906 -44.406 L 15.906 -11.297 Q 15.906 -7.5938 17.352 -6.0000 Q 18.797 -4.4062 23.703 -4.4062 Q 28.797 -4.4062 32.250 -7.2500 Q 35.703 -10.094 35.703 -15.406 L 35.703 -44.406 L 43.500 -44.406 z"/>
<title>milieu</title>
<desc>texte2 = “milieu”</desc>

</g> <!-- drawing style -->
</g> <!-- clip70 -->
</g> <!-- transform -->
<g transform="matrix(.25000, 0.0000, 0.0000, .25000, 699.00, 474.35)">
<clipPath id="cliped7426bf-054f-4b85-8d0c-9ef52706e4dc">
  <path d="M -2796.0 -1897.4 L -2796.0 1622.6 L 2384.0 1622.6 L 2384.0 -1897.4 z"/>
</clipPath>
<g clip-path="url(#clip71)">
<g fill-opacity="1.0000" fill-rule="nonzero" stroke="none" fill="#000000">
  <path d="M 45.703 -69.500 L 45.703 -61.203 L 37.406 -61.203 L 37.406 -69.500 L 45.703 -69.500 z M 45.297 -44.406 L 45.297 -0.0000 L 37.797 -0.0000 L 37.797 -44.406 L 45.297 -44.406 z M 17.594 -38.594 L 17.594 -0.0000 L 10.094 -0.0000 L 10.094 -38.594 L 2.7031 -38.594 L 2.7031 -44.406 L 10.094 -44.406 L 10.094 -53.500 Q 10.094 -60.906 13.945 -65.703 Q 17.797 -70.500 23.406 -70.500 Q 26.094 -70.500 29.406 -69.406 L 29.406 -62.594 Q 26.594 -64.406 23.406 -64.406 Q 21.000 -64.406 19.148 -62.602 Q 17.297 -60.797 17.297 -56.500 L 17.297 -44.406 L 29.406 -44.406 L 29.406 -38.594 L 17.594 -38.594 z"/>
<title>fin</title>
<desc>texte3 = “fin”</desc>

</g> <!-- drawing style -->
</g> <!-- clip71 -->
</g> <!-- transform -->
<g transform="matrix(.25000, 0.0000, 0.0000, .25000, 712.40, 474.35)">
<clipPath id="clipa8e38ad4-b940-43c5-9e3e-c213354601cb">
  <path d="M -2849.6 -1897.4 L -2849.6 1622.6 L 2330.4 1622.6 L 2330.4 -1897.4 z"/>
</clipPath>
<g clip-path="url(#clip72)">
<g fill-opacity="1.0000" fill-rule="nonzero" stroke="none" fill="#000000">
  <path d="M 43.500 -29.797 L 43.500 -0.0000 L 35.703 -0.0000 L 35.703 -29.094 Q 35.703 -30.500 35.648 -31.453 Q 35.594 -32.406 35.047 -34.055 Q 34.500 -35.703 33.547 -36.750 Q 32.594 -37.797 30.648 -38.602 Q 28.703 -39.406 26.000 -39.406 Q 20.797 -39.406 18.352 -34.906 Q 15.906 -30.406 15.906 -24.500 L 15.906 -0.0000 L 8.0938 -0.0000 L 8.0938 -45.000 L 15.297 -45.000 L 15.297 -37.906 Q 21.000 -45.500 29.797 -45.500 Q 43.500 -45.500 43.500 -29.797 z"/>
<title>fin</title>
<desc>texte3 = “fin”</desc>

</g> <!-- drawing style -->
</g> <!-- clip72 -->
</g> <!-- transform -->
</g><!-- layer0 -->
</g> <!-- default stroke -->
</svg> <!-- bounding box -->
