<?xml version="1.0" encoding="ISO-8859-1" standalone="no"?>

<svg 
     version="1.1"
     baseProfile="full"
     xmlns="http://www.w3.org/2000/svg"
     xmlns:xlink="http://www.w3.org/1999/xlink"
     xmlns:ev="http://www.w3.org/2001/xml-events"
     width="65.4888172490966cm"
     height="44.35664299299833cm"
     viewBox="0 0 625 423"
     >
<title>

</title>
<g stroke-linejoin="miter" stroke-dashoffset="0.0000" stroke-dasharray="none" stroke-width="1.0000" stroke-miterlimit="10.000" stroke-linecap="square">
<g transform="matrix(1.0000, 0.0000, 0.0000, 1.0000, -197.00, -159.00)">
<clipPath id="clipd4e9d579-4570-4190-8334-e8af63637c7f">
  <path d="M 197.00 159.00 L 197.00 583.00 L 823.00 583.00 L 823.00 159.00 z"/>
</clipPath>
<g clip-path="url(#clip1)">
<g stroke-linejoin="round" stroke-linecap="round" fill="none" stroke-opacity="1.0000" stroke="#c0c0c0">
  <path d="M 29.896 0.0000 L 29.896 880.00"/>
</g> <!-- drawing style -->
</g> <!-- clip1 -->
</g> <!-- transform -->
<g transform="matrix(1.0000, 0.0000, 0.0000, 1.0000, -197.00, -159.00)">
<clipPath id="clipd7502db1-d092-4a6a-bc62-3e31515ec8aa">
  <path d="M 197.00 159.00 L 197.00 583.00 L 823.00 583.00 L 823.00 159.00 z"/>
</clipPath>
<g clip-path="url(#clip2)">
<g stroke-linejoin="round" stroke-linecap="round" fill="none" stroke-opacity="1.0000" stroke="#c0c0c0">
  <path d="M 29.896 0.0000 L 29.896 880.00"/>
</g> <!-- drawing style -->
</g> <!-- clip2 -->
</g> <!-- transform -->
<g transform="matrix(1.0000, 0.0000, 0.0000, 1.0000, -197.00, -159.00)">
<clipPath id="clip0c73e893-faf6-4482-9ed4-61dfd6ef0328">
  <path d="M 197.00 159.00 L 197.00 583.00 L 823.00 583.00 L 823.00 159.00 z"/>
</clipPath>
<g clip-path="url(#clip3)">
<g stroke-linejoin="round" stroke-linecap="round" fill="none" stroke-opacity="1.0000" stroke="#c0c0c0">
  <path d="M 125.49 0.0000 L 125.49 880.00"/>
</g> <!-- drawing style -->
</g> <!-- clip3 -->
</g> <!-- transform -->
<g transform="matrix(1.0000, 0.0000, 0.0000, 1.0000, -197.00, -159.00)">
<clipPath id="clipcca26930-ab1d-4e61-a907-6418060c0de9">
  <path d="M 197.00 159.00 L 197.00 583.00 L 823.00 583.00 L 823.00 159.00 z"/>
</clipPath>
<g clip-path="url(#clip4)">
<g stroke-linejoin="round" stroke-linecap="round" fill="none" stroke-opacity="1.0000" stroke="#c0c0c0">
  <path d="M 221.07 0.0000 L 221.07 880.00"/>
</g> <!-- drawing style -->
</g> <!-- clip4 -->
</g> <!-- transform -->
<g transform="matrix(1.0000, 0.0000, 0.0000, 1.0000, -197.00, -159.00)">
<clipPath id="clip8f8c59e3-bd14-45a2-996f-6ed74720f7fe">
  <path d="M 197.00 159.00 L 197.00 583.00 L 823.00 583.00 L 823.00 159.00 z"/>
</clipPath>
<g clip-path="url(#clip5)">
<g stroke-linejoin="round" stroke-linecap="round" fill="none" stroke-opacity="1.0000" stroke="#c0c0c0">
  <path d="M 316.66 0.0000 L 316.66 880.00"/>
</g> <!-- drawing style -->
</g> <!-- clip5 -->
</g> <!-- transform -->
<g transform="matrix(1.0000, 0.0000, 0.0000, 1.0000, -197.00, -159.00)">
<clipPath id="clipe5769ee5-fecb-414f-9222-ffd95292c00f">
  <path d="M 197.00 159.00 L 197.00 583.00 L 823.00 583.00 L 823.00 159.00 z"/>
</clipPath>
<g clip-path="url(#clip6)">
<g stroke-linejoin="round" stroke-linecap="round" fill="none" stroke-opacity="1.0000" stroke="#c0c0c0">
  <path d="M 507.84 0.0000 L 507.84 880.00"/>
</g> <!-- drawing style -->
</g> <!-- clip6 -->
</g> <!-- transform -->
<g transform="matrix(1.0000, 0.0000, 0.0000, 1.0000, -197.00, -159.00)">
<clipPath id="clip81cb0d6f-c192-4876-8949-c04f13c67c4b">
  <path d="M 197.00 159.00 L 197.00 583.00 L 823.00 583.00 L 823.00 159.00 z"/>
</clipPath>
<g clip-path="url(#clip7)">
<g stroke-linejoin="round" stroke-linecap="round" fill="none" stroke-opacity="1.0000" stroke="#c0c0c0">
  <path d="M 603.43 0.0000 L 603.43 880.00"/>
</g> <!-- drawing style -->
</g> <!-- clip7 -->
</g> <!-- transform -->
<g transform="matrix(1.0000, 0.0000, 0.0000, 1.0000, -197.00, -159.00)">
<clipPath id="clip18b26f7c-bc35-47e9-adf9-a25788be90f0">
  <path d="M 197.00 159.00 L 197.00 583.00 L 823.00 583.00 L 823.00 159.00 z"/>
</clipPath>
<g clip-path="url(#clip8)">
<g stroke-linejoin="round" stroke-linecap="round" fill="none" stroke-opacity="1.0000" stroke="#c0c0c0">
  <path d="M 699.02 0.0000 L 699.02 880.00"/>
</g> <!-- drawing style -->
</g> <!-- clip8 -->
</g> <!-- transform -->
<g transform="matrix(1.0000, 0.0000, 0.0000, 1.0000, -197.00, -159.00)">
<clipPath id="clipc1272a32-4c2c-4184-afdd-73d07f041a95">
  <path d="M 197.00 159.00 L 197.00 583.00 L 823.00 583.00 L 823.00 159.00 z"/>
</clipPath>
<g clip-path="url(#clip9)">
<g stroke-linejoin="round" stroke-linecap="round" fill="none" stroke-opacity="1.0000" stroke="#c0c0c0">
  <path d="M 794.61 0.0000 L 794.61 880.00"/>
</g> <!-- drawing style -->
</g> <!-- clip9 -->
</g> <!-- transform -->
<g transform="matrix(1.0000, 0.0000, 0.0000, 1.0000, -197.00, -159.00)">
<clipPath id="clip766c1e8a-2a32-4f2b-9aec-6487f63f9138">
  <path d="M 197.00 159.00 L 197.00 583.00 L 823.00 583.00 L 823.00 159.00 z"/>
</clipPath>
<g clip-path="url(#clip10)">
<g stroke-linejoin="round" stroke-linecap="round" fill="none" stroke-opacity="1.0000" stroke="#c0c0c0">
  <path d="M 890.20 0.0000 L 890.20 880.00"/>
</g> <!-- drawing style -->
</g> <!-- clip10 -->
</g> <!-- transform -->
<g transform="matrix(1.0000, 0.0000, 0.0000, 1.0000, -197.00, -159.00)">
<clipPath id="clipa34ad381-4318-47dd-8cea-49af972a9711">
  <path d="M 197.00 159.00 L 197.00 583.00 L 823.00 583.00 L 823.00 159.00 z"/>
</clipPath>
<g clip-path="url(#clip11)">
<g stroke-linejoin="round" stroke-linecap="round" fill="none" stroke-opacity="1.0000" stroke="#c0c0c0">
  <path d="M 985.78 0.0000 L 985.78 880.00"/>
</g> <!-- drawing style -->
</g> <!-- clip11 -->
</g> <!-- transform -->
<g transform="matrix(1.0000, 0.0000, 0.0000, 1.0000, -197.00, -159.00)">
<clipPath id="clip0775c5bb-6ed9-4463-a0f3-1350d03bcb9a">
  <path d="M 197.00 159.00 L 197.00 583.00 L 823.00 583.00 L 823.00 159.00 z"/>
</clipPath>
<g clip-path="url(#clip12)">
<g stroke-linejoin="round" stroke-linecap="round" fill="none" stroke-opacity="1.0000" stroke="#c0c0c0">
  <path d="M 1081.4 0.0000 L 1081.4 880.00"/>
</g> <!-- drawing style -->
</g> <!-- clip12 -->
</g> <!-- transform -->
<g transform="matrix(1.0000, 0.0000, 0.0000, 1.0000, -197.00, -159.00)">
<clipPath id="clip4c6e1654-b86d-43ea-838a-ad61b6c119d4">
  <path d="M 197.00 159.00 L 197.00 583.00 L 823.00 583.00 L 823.00 159.00 z"/>
</clipPath>
<g clip-path="url(#clip13)">
<g stroke-linejoin="round" stroke-linecap="round" fill="none" stroke-opacity="1.0000" stroke="#c0c0c0">
  <path d="M 1177.0 0.0000 L 1177.0 880.00"/>
</g> <!-- drawing style -->
</g> <!-- clip13 -->
</g> <!-- transform -->
<g transform="matrix(1.0000, 0.0000, 0.0000, 1.0000, -197.00, -159.00)">
<clipPath id="clipf045ce73-3a4f-473a-b794-c78621de2e23">
  <path d="M 197.00 159.00 L 197.00 583.00 L 823.00 583.00 L 823.00 159.00 z"/>
</clipPath>
<g clip-path="url(#clip14)">
<g stroke-linejoin="round" stroke-linecap="round" fill="none" stroke-opacity="1.0000" stroke="#c0c0c0">
  <path d="M 1272.6 0.0000 L 1272.6 880.00"/>
</g> <!-- drawing style -->
</g> <!-- clip14 -->
</g> <!-- transform -->
<g transform="matrix(1.0000, 0.0000, 0.0000, 1.0000, -197.00, -159.00)">
<clipPath id="clip2e9ecccf-adf6-4e8c-996a-5f3b55b5d572">
  <path d="M 197.00 159.00 L 197.00 583.00 L 823.00 583.00 L 823.00 159.00 z"/>
</clipPath>
<g clip-path="url(#clip15)">
<g stroke-linejoin="round" stroke-linecap="round" fill="none" stroke-opacity="1.0000" stroke="#c0c0c0">
  <path d="M 0.0000 79.890 L 1295.0 79.890"/>
</g> <!-- drawing style -->
</g> <!-- clip15 -->
</g> <!-- transform -->
<g transform="matrix(1.0000, 0.0000, 0.0000, 1.0000, -197.00, -159.00)">
<clipPath id="clip33b74bf7-3206-4287-84db-70ca3c5fc294">
  <path d="M 197.00 159.00 L 197.00 583.00 L 823.00 583.00 L 823.00 159.00 z"/>
</clipPath>
<g clip-path="url(#clip16)">
<g stroke-linejoin="round" stroke-linecap="round" fill="none" stroke-opacity="1.0000" stroke="#c0c0c0">
  <path d="M 0.0000 79.890 L 1295.0 79.890"/>
</g> <!-- drawing style -->
</g> <!-- clip16 -->
</g> <!-- transform -->
<g transform="matrix(1.0000, 0.0000, 0.0000, 1.0000, -197.00, -159.00)">
<clipPath id="clip19ba65d4-c8e7-47dd-a351-69d0bd65b764">
  <path d="M 197.00 159.00 L 197.00 583.00 L 823.00 583.00 L 823.00 159.00 z"/>
</clipPath>
<g clip-path="url(#clip17)">
<g stroke-linejoin="round" stroke-linecap="round" fill="none" stroke-opacity="1.0000" stroke="#c0c0c0">
  <path d="M 0.0000 175.48 L 1295.0 175.48"/>
</g> <!-- drawing style -->
</g> <!-- clip17 -->
</g> <!-- transform -->
<g transform="matrix(1.0000, 0.0000, 0.0000, 1.0000, -197.00, -159.00)">
<clipPath id="clipa0fa125b-aae9-4ee3-9d13-5f340ed6e140">
  <path d="M 197.00 159.00 L 197.00 583.00 L 823.00 583.00 L 823.00 159.00 z"/>
</clipPath>
<g clip-path="url(#clip18)">
<g stroke-linejoin="round" stroke-linecap="round" fill="none" stroke-opacity="1.0000" stroke="#c0c0c0">
  <path d="M 0.0000 271.07 L 1295.0 271.07"/>
</g> <!-- drawing style -->
</g> <!-- clip18 -->
</g> <!-- transform -->
<g transform="matrix(1.0000, 0.0000, 0.0000, 1.0000, -197.00, -159.00)">
<clipPath id="clip8485bf2f-1c91-4739-8b81-e2f6ced9ca3e">
  <path d="M 197.00 159.00 L 197.00 583.00 L 823.00 583.00 L 823.00 159.00 z"/>
</clipPath>
<g clip-path="url(#clip19)">
<g stroke-linejoin="round" stroke-linecap="round" fill="none" stroke-opacity="1.0000" stroke="#c0c0c0">
  <path d="M 0.0000 366.66 L 1295.0 366.66"/>
</g> <!-- drawing style -->
</g> <!-- clip19 -->
</g> <!-- transform -->
<g transform="matrix(1.0000, 0.0000, 0.0000, 1.0000, -197.00, -159.00)">
<clipPath id="clipede1cf54-5a3e-4293-ac32-45e43addb633">
  <path d="M 197.00 159.00 L 197.00 583.00 L 823.00 583.00 L 823.00 159.00 z"/>
</clipPath>
<g clip-path="url(#clip20)">
<g stroke-linejoin="round" stroke-linecap="round" fill="none" stroke-opacity="1.0000" stroke="#c0c0c0">
  <path d="M 0.0000 557.83 L 1295.0 557.83"/>
</g> <!-- drawing style -->
</g> <!-- clip20 -->
</g> <!-- transform -->
<g transform="matrix(1.0000, 0.0000, 0.0000, 1.0000, -197.00, -159.00)">
<clipPath id="clip4e6f385d-da3a-423d-869c-38794198e8e2">
  <path d="M 197.00 159.00 L 197.00 583.00 L 823.00 583.00 L 823.00 159.00 z"/>
</clipPath>
<g clip-path="url(#clip21)">
<g stroke-linejoin="round" stroke-linecap="round" fill="none" stroke-opacity="1.0000" stroke="#c0c0c0">
  <path d="M 0.0000 653.42 L 1295.0 653.42"/>
</g> <!-- drawing style -->
</g> <!-- clip21 -->
</g> <!-- transform -->
<g transform="matrix(1.0000, 0.0000, 0.0000, 1.0000, -197.00, -159.00)">
<clipPath id="clipe05b091d-28af-4d58-b05d-e1df0be5f460">
  <path d="M 197.00 159.00 L 197.00 583.00 L 823.00 583.00 L 823.00 159.00 z"/>
</clipPath>
<g clip-path="url(#clip22)">
<g stroke-linejoin="round" stroke-linecap="round" fill="none" stroke-opacity="1.0000" stroke="#c0c0c0">
  <path d="M 0.0000 749.01 L 1295.0 749.01"/>
</g> <!-- drawing style -->
</g> <!-- clip22 -->
</g> <!-- transform -->
<g transform="matrix(1.0000, 0.0000, 0.0000, 1.0000, -197.00, -159.00)">
<clipPath id="clipc798b7c2-43ff-4ad7-a592-38899d65041f">
  <path d="M 197.00 159.00 L 197.00 583.00 L 823.00 583.00 L 823.00 159.00 z"/>
</clipPath>
<g clip-path="url(#clip23)">
<g stroke-linejoin="round" stroke-linecap="round" fill="none" stroke-opacity="1.0000" stroke="#c0c0c0">
  <path d="M 0.0000 844.60 L 1295.0 844.60"/>
</g> <!-- drawing style -->
</g> <!-- clip23 -->
</g> <!-- transform -->
<g transform="matrix(1.0000, 0.0000, 0.0000, 1.0000, -197.00, -159.00)">
<clipPath id="clipc4e16bd9-5f6b-4587-83bb-138e083786ba">
  <path d="M 197.00 159.00 L 197.00 583.00 L 823.00 583.00 L 823.00 159.00 z"/>
</clipPath>
<g clip-path="url(#clip24)">
<g stroke-linecap="butt" fill="none" stroke-opacity="1.0000" stroke="#000000">
  <path d="M 412.25 2.0000 L 412.25 880.00"/>
</g> <!-- drawing style -->
</g> <!-- clip24 -->
</g> <!-- transform -->
<g transform="matrix(1.0000, 0.0000, 0.0000, 1.0000, -197.00, -159.00)">
<clipPath id="clip7c9f3151-bc22-495f-b557-7c8dfda21ad8">
  <path d="M 197.00 159.00 L 197.00 583.00 L 823.00 583.00 L 823.00 159.00 z"/>
</clipPath>
<g clip-path="url(#clip25)">
<g stroke-linecap="butt" fill="none" stroke-opacity="1.0000" stroke="#000000">
  <path d="M 412.25 1.0000 L 408.25 5.0000"/>
</g> <!-- drawing style -->
</g> <!-- clip25 -->
</g> <!-- transform -->
<g transform="matrix(1.0000, 0.0000, 0.0000, 1.0000, -197.00, -159.00)">
<clipPath id="clip376b7bac-49c7-4abe-b9d3-f4b1b722dc3a">
  <path d="M 197.00 159.00 L 197.00 583.00 L 823.00 583.00 L 823.00 159.00 z"/>
</clipPath>
<g clip-path="url(#clip26)">
<g stroke-linecap="butt" fill="none" stroke-opacity="1.0000" stroke="#000000">
  <path d="M 412.25 1.0000 L 416.25 5.0000"/>
</g> <!-- drawing style -->
</g> <!-- clip26 -->
</g> <!-- transform -->
<g transform="matrix(1.0000, 0.0000, 0.0000, 1.0000, -197.00, -159.00)">
<clipPath id="clip25d4c823-9d05-4b32-a38f-4b342e00986e">
  <path d="M 197.00 159.00 L 197.00 583.00 L 823.00 583.00 L 823.00 159.00 z"/>
</clipPath>
<g clip-path="url(#clip27)">
<g stroke-linecap="butt" fill="none" stroke-opacity="1.0000" stroke="#000000">
  <path d="M 0.0000 462.25 L 1293.0 462.25"/>
</g> <!-- drawing style -->
</g> <!-- clip27 -->
</g> <!-- transform -->
<g transform="matrix(1.0000, 0.0000, 0.0000, 1.0000, -197.00, -159.00)">
<clipPath id="clip7c8dae8d-456b-40fa-b9f6-14b48b1ea798">
  <path d="M 197.00 159.00 L 197.00 583.00 L 823.00 583.00 L 823.00 159.00 z"/>
</clipPath>
<g clip-path="url(#clip28)">
<g stroke-linecap="butt" fill="none" stroke-opacity="1.0000" stroke="#000000">
  <path d="M 1294.0 462.25 L 1290.0 458.25"/>
</g> <!-- drawing style -->
</g> <!-- clip28 -->
</g> <!-- transform -->
<g transform="matrix(1.0000, 0.0000, 0.0000, 1.0000, -197.00, -159.00)">
<clipPath id="clip13ba019a-a5ef-428e-99cd-82e6540b6d09">
  <path d="M 197.00 159.00 L 197.00 583.00 L 823.00 583.00 L 823.00 159.00 z"/>
</clipPath>
<g clip-path="url(#clip29)">
<g stroke-linecap="butt" fill="none" stroke-opacity="1.0000" stroke="#000000">
  <path d="M 1294.0 462.25 L 1290.0 466.25"/>
</g> <!-- drawing style -->
</g> <!-- clip29 -->
</g> <!-- transform -->
<g transform="matrix(1.0000, 0.0000, 0.0000, 1.0000, -197.00, -159.00)">
<clipPath id="clip82e1a6b7-e7d5-4410-a7b0-e695cc383e50">
  <path d="M 197.00 159.00 L 197.00 583.00 L 823.00 583.00 L 823.00 159.00 z"/>
</clipPath>
<g clip-path="url(#clip30)">
<g fill-opacity="1.0000" fill-rule="nonzero" stroke="none" fill="#000000">
  <path d="M 24.609 474.81 L 24.609 474.02 L 29.391 474.02 L 29.391 474.81 L 24.609 474.81 z M 33.875 478.00 L 33.875 475.94 L 30.156 475.94 L 30.156 474.97 L 34.078 469.41 L 34.938 469.41 L 34.938 474.97 L 36.094 474.97 L 36.094 475.94 L 34.938 475.94 L 34.938 478.00 L 33.875 478.00 z M 33.875 474.97 L 33.875 471.11 L 31.188 474.97 L 33.875 474.97 z"/>
</g> <!-- drawing style -->
</g> <!-- clip30 -->
</g> <!-- transform -->
<g transform="matrix(1.0000, 0.0000, 0.0000, 1.0000, -197.00, -159.00)">
<clipPath id="clipafc5303a-5bbc-4eb2-a78e-2156a5ae72f9">
  <path d="M 197.00 159.00 L 197.00 583.00 L 823.00 583.00 L 823.00 159.00 z"/>
</clipPath>
<g clip-path="url(#clip31)">
<g fill-opacity="1.0000" fill-rule="nonzero" stroke="none" fill="#000000">
  <path d="M 120.61 474.81 L 120.61 474.02 L 125.39 474.02 L 125.39 474.81 L 120.61 474.81 z M 126.50 475.73 L 127.56 475.59 Q 127.73 476.48 128.17 476.88 Q 128.61 477.28 129.23 477.28 Q 129.98 477.28 130.50 476.77 Q 131.02 476.25 131.02 475.48 Q 131.02 474.77 130.54 474.29 Q 130.06 473.81 129.33 473.81 Q 129.03 473.81 128.58 473.94 L 128.70 473.00 Q 128.81 473.02 128.88 473.02 Q 129.55 473.02 130.09 472.66 Q 130.62 472.31 130.62 471.58 Q 130.62 471.00 130.23 470.62 Q 129.84 470.23 129.22 470.23 Q 128.61 470.23 128.20 470.62 Q 127.78 471.02 127.67 471.78 L 126.61 471.59 Q 126.80 470.55 127.48 469.96 Q 128.17 469.38 129.19 469.38 Q 129.89 469.38 130.48 469.68 Q 131.08 469.98 131.39 470.50 Q 131.70 471.02 131.70 471.61 Q 131.70 472.16 131.41 472.62 Q 131.11 473.08 130.53 473.34 Q 131.28 473.52 131.70 474.07 Q 132.12 474.62 132.12 475.47 Q 132.12 476.59 131.30 477.38 Q 130.48 478.16 129.23 478.16 Q 128.11 478.16 127.36 477.48 Q 126.61 476.80 126.50 475.73 z"/>
</g> <!-- drawing style -->
</g> <!-- clip31 -->
</g> <!-- transform -->
<g transform="matrix(1.0000, 0.0000, 0.0000, 1.0000, -197.00, -159.00)">
<clipPath id="clip3c816b76-b056-4413-8be9-8680614a5b5c">
  <path d="M 197.00 159.00 L 197.00 583.00 L 823.00 583.00 L 823.00 159.00 z"/>
</clipPath>
<g clip-path="url(#clip32)">
<g fill-opacity="1.0000" fill-rule="nonzero" stroke="none" fill="#000000">
  <path d="M 216.61 474.81 L 216.61 474.02 L 221.39 474.02 L 221.39 474.81 L 216.61 474.81 z M 228.05 476.98 L 228.05 478.00 L 222.36 478.00 Q 222.36 477.62 222.48 477.27 Q 222.70 476.69 223.18 476.12 Q 223.66 475.56 224.56 474.83 Q 225.97 473.67 226.46 473.00 Q 226.95 472.33 226.95 471.73 Q 226.95 471.11 226.50 470.68 Q 226.05 470.25 225.33 470.25 Q 224.56 470.25 224.11 470.70 Q 223.66 471.16 223.64 471.97 L 222.56 471.86 Q 222.67 470.64 223.40 470.01 Q 224.12 469.38 225.36 469.38 Q 226.59 469.38 227.31 470.06 Q 228.03 470.75 228.03 471.77 Q 228.03 472.28 227.82 472.77 Q 227.61 473.27 227.12 473.82 Q 226.62 474.38 225.50 475.33 Q 224.55 476.12 224.27 476.41 Q 224.00 476.70 223.83 476.98 L 228.05 476.98 z"/>
</g> <!-- drawing style -->
</g> <!-- clip32 -->
</g> <!-- transform -->
<g transform="matrix(1.0000, 0.0000, 0.0000, 1.0000, -197.00, -159.00)">
<clipPath id="clip64d1464d-d8ea-45dd-adb8-560a4e1aac7d">
  <path d="M 197.00 159.00 L 197.00 583.00 L 823.00 583.00 L 823.00 159.00 z"/>
</clipPath>
<g clip-path="url(#clip33)">
<g fill-opacity="1.0000" fill-rule="nonzero" stroke="none" fill="#000000">
  <path d="M 311.61 474.81 L 311.61 474.02 L 316.39 474.02 L 316.39 474.81 L 311.61 474.81 z M 321.47 478.00 L 320.42 478.00 L 320.42 471.28 Q 320.03 471.64 319.41 472.01 Q 318.80 472.38 318.31 472.55 L 318.31 471.53 Q 319.19 471.11 319.85 470.52 Q 320.52 469.94 320.80 469.38 L 321.47 469.38 L 321.47 478.00 z"/>
</g> <!-- drawing style -->
</g> <!-- clip33 -->
</g> <!-- transform -->
<g transform="matrix(1.0000, 0.0000, 0.0000, 1.0000, -197.00, -159.00)">
<clipPath id="clip5136e19e-2c73-44ae-80de-a1655bdf76c6">
  <path d="M 197.00 159.00 L 197.00 583.00 L 823.00 583.00 L 823.00 159.00 z"/>
</clipPath>
<g clip-path="url(#clip34)">
<g fill-opacity="1.0000" fill-rule="nonzero" stroke="none" fill="#000000">
  <path d="M 509.47 478.00 L 508.42 478.00 L 508.42 471.28 Q 508.03 471.64 507.41 472.01 Q 506.80 472.38 506.31 472.55 L 506.31 471.53 Q 507.19 471.11 507.85 470.52 Q 508.52 469.94 508.80 469.38 L 509.47 469.38 L 509.47 478.00 z"/>
</g> <!-- drawing style -->
</g> <!-- clip34 -->
</g> <!-- transform -->
<g transform="matrix(1.0000, 0.0000, 0.0000, 1.0000, -197.00, -159.00)">
<clipPath id="clipe8d46e27-06fb-454c-a2c5-1940f43075ac">
  <path d="M 197.00 159.00 L 197.00 583.00 L 823.00 583.00 L 823.00 159.00 z"/>
</clipPath>
<g clip-path="url(#clip35)">
<g fill-opacity="1.0000" fill-rule="nonzero" stroke="none" fill="#000000">
  <path d="M 607.05 476.98 L 607.05 478.00 L 601.36 478.00 Q 601.36 477.62 601.48 477.27 Q 601.70 476.69 602.18 476.12 Q 602.66 475.56 603.56 474.83 Q 604.97 473.67 605.46 473.00 Q 605.95 472.33 605.95 471.73 Q 605.95 471.11 605.50 470.68 Q 605.05 470.25 604.33 470.25 Q 603.56 470.25 603.11 470.70 Q 602.66 471.16 602.64 471.97 L 601.56 471.86 Q 601.67 470.64 602.40 470.01 Q 603.12 469.38 604.36 469.38 Q 605.59 469.38 606.31 470.06 Q 607.03 470.75 607.03 471.77 Q 607.03 472.28 606.82 472.77 Q 606.61 473.27 606.12 473.82 Q 605.62 474.38 604.50 475.33 Q 603.55 476.12 603.27 476.41 Q 603.00 476.70 602.83 476.98 L 607.05 476.98 z"/>
</g> <!-- drawing style -->
</g> <!-- clip35 -->
</g> <!-- transform -->
<g transform="matrix(1.0000, 0.0000, 0.0000, 1.0000, -197.00, -159.00)">
<clipPath id="clipf949d8b2-b02a-4b1e-bedb-e0b89deb2ca3">
  <path d="M 197.00 159.00 L 197.00 583.00 L 823.00 583.00 L 823.00 159.00 z"/>
</clipPath>
<g clip-path="url(#clip36)">
<g fill-opacity="1.0000" fill-rule="nonzero" stroke="none" fill="#000000">
  <path d="M 697.50 475.73 L 698.56 475.59 Q 698.73 476.48 699.17 476.88 Q 699.61 477.28 700.23 477.28 Q 700.98 477.28 701.50 476.77 Q 702.02 476.25 702.02 475.48 Q 702.02 474.77 701.54 474.29 Q 701.06 473.81 700.33 473.81 Q 700.03 473.81 699.58 473.94 L 699.70 473.00 Q 699.81 473.02 699.88 473.02 Q 700.55 473.02 701.09 472.66 Q 701.62 472.31 701.62 471.58 Q 701.62 471.00 701.23 470.62 Q 700.84 470.23 700.22 470.23 Q 699.61 470.23 699.20 470.62 Q 698.78 471.02 698.67 471.78 L 697.61 471.59 Q 697.80 470.55 698.48 469.96 Q 699.17 469.38 700.19 469.38 Q 700.89 469.38 701.48 469.68 Q 702.08 469.98 702.39 470.50 Q 702.70 471.02 702.70 471.61 Q 702.70 472.16 702.41 472.62 Q 702.11 473.08 701.53 473.34 Q 702.28 473.52 702.70 474.07 Q 703.12 474.62 703.12 475.47 Q 703.12 476.59 702.30 477.38 Q 701.48 478.16 700.23 478.16 Q 699.11 478.16 698.36 477.48 Q 697.61 476.80 697.50 475.73 z"/>
</g> <!-- drawing style -->
</g> <!-- clip36 -->
</g> <!-- transform -->
<g transform="matrix(1.0000, 0.0000, 0.0000, 1.0000, -197.00, -159.00)">
<clipPath id="clip4d1dd5df-a2e2-4e65-a939-2a0531509bed">
  <path d="M 197.00 159.00 L 197.00 583.00 L 823.00 583.00 L 823.00 159.00 z"/>
</clipPath>
<g clip-path="url(#clip37)">
<g fill-opacity="1.0000" fill-rule="nonzero" stroke="none" fill="#000000">
  <path d="M 795.88 478.00 L 795.88 475.94 L 792.16 475.94 L 792.16 474.97 L 796.08 469.41 L 796.94 469.41 L 796.94 474.97 L 798.09 474.97 L 798.09 475.94 L 796.94 475.94 L 796.94 478.00 L 795.88 478.00 z M 795.88 474.97 L 795.88 471.11 L 793.19 474.97 L 795.88 474.97 z"/>
</g> <!-- drawing style -->
</g> <!-- clip37 -->
</g> <!-- transform -->
<g transform="matrix(1.0000, 0.0000, 0.0000, 1.0000, -197.00, -159.00)">
<clipPath id="clip19148def-c3cf-4c70-b35b-7c9272c86780">
  <path d="M 197.00 159.00 L 197.00 583.00 L 823.00 583.00 L 823.00 159.00 z"/>
</clipPath>
<g clip-path="url(#clip38)">
<g fill-opacity="1.0000" fill-rule="nonzero" stroke="none" fill="#000000">
  <path d="M 888.50 475.75 L 889.61 475.66 Q 889.73 476.47 890.18 476.88 Q 890.62 477.28 891.27 477.28 Q 892.02 477.28 892.55 476.70 Q 893.08 476.12 893.08 475.19 Q 893.08 474.28 892.57 473.76 Q 892.06 473.23 891.23 473.23 Q 890.73 473.23 890.32 473.47 Q 889.91 473.70 889.67 474.06 L 888.69 473.94 L 889.52 469.53 L 893.80 469.53 L 893.80 470.53 L 890.36 470.53 L 889.91 472.84 Q 890.67 472.30 891.52 472.30 Q 892.64 472.30 893.41 473.08 Q 894.19 473.86 894.19 475.09 Q 894.19 476.25 893.52 477.11 Q 892.69 478.14 891.27 478.14 Q 890.09 478.14 889.35 477.48 Q 888.61 476.83 888.50 475.75 z"/>
</g> <!-- drawing style -->
</g> <!-- clip38 -->
</g> <!-- transform -->
<g transform="matrix(1.0000, 0.0000, 0.0000, 1.0000, -197.00, -159.00)">
<clipPath id="clip5cc41690-e5dd-415e-a795-b62a2874bc80">
  <path d="M 197.00 159.00 L 197.00 583.00 L 823.00 583.00 L 823.00 159.00 z"/>
</clipPath>
<g clip-path="url(#clip39)">
<g fill-opacity="1.0000" fill-rule="nonzero" stroke="none" fill="#000000">
  <path d="M 988.97 471.52 L 987.92 471.59 Q 987.78 470.97 987.53 470.69 Q 987.09 470.23 986.47 470.23 Q 985.97 470.23 985.58 470.52 Q 985.09 470.89 984.80 471.59 Q 984.52 472.28 984.50 473.56 Q 984.88 472.98 985.43 472.70 Q 985.98 472.42 986.59 472.42 Q 987.64 472.42 988.38 473.20 Q 989.12 473.98 989.12 475.20 Q 989.12 476.02 988.77 476.71 Q 988.42 477.41 987.81 477.77 Q 987.20 478.14 986.44 478.14 Q 985.11 478.14 984.28 477.17 Q 983.45 476.20 983.45 473.98 Q 983.45 471.48 984.38 470.36 Q 985.17 469.38 986.53 469.38 Q 987.55 469.38 988.20 469.95 Q 988.84 470.52 988.97 471.52 z M 984.67 475.22 Q 984.67 475.77 984.90 476.26 Q 985.12 476.75 985.54 477.02 Q 985.95 477.28 986.42 477.28 Q 987.08 477.28 987.56 476.74 Q 988.05 476.20 988.05 475.28 Q 988.05 474.39 987.57 473.88 Q 987.09 473.36 986.38 473.36 Q 985.66 473.36 985.16 473.88 Q 984.67 474.39 984.67 475.22 z"/>
</g> <!-- drawing style -->
</g> <!-- clip39 -->
</g> <!-- transform -->
<g transform="matrix(1.0000, 0.0000, 0.0000, 1.0000, -197.00, -159.00)">
<clipPath id="clip542b55ff-ad90-4da3-8cc9-8965f28b6131">
  <path d="M 197.00 159.00 L 197.00 583.00 L 823.00 583.00 L 823.00 159.00 z"/>
</clipPath>
<g clip-path="url(#clip40)">
<g fill-opacity="1.0000" fill-rule="nonzero" stroke="none" fill="#000000">
  <path d="M 1079.6 470.53 L 1079.6 469.52 L 1085.1 469.52 L 1085.1 470.34 Q 1084.3 471.22 1083.5 472.66 Q 1082.7 474.11 1082.3 475.64 Q 1081.9 476.72 1081.9 478.00 L 1080.8 478.00 Q 1080.8 476.98 1081.2 475.55 Q 1081.5 474.11 1082.3 472.78 Q 1083.0 471.45 1083.8 470.53 L 1079.6 470.53 z"/>
</g> <!-- drawing style -->
</g> <!-- clip40 -->
</g> <!-- transform -->
<g transform="matrix(1.0000, 0.0000, 0.0000, 1.0000, -197.00, -159.00)">
<clipPath id="clip124612d6-59c6-4377-861f-e07c50ad93b8">
  <path d="M 197.00 159.00 L 197.00 583.00 L 823.00 583.00 L 823.00 159.00 z"/>
</clipPath>
<g clip-path="url(#clip41)">
<g fill-opacity="1.0000" fill-rule="nonzero" stroke="none" fill="#000000">
  <path d="M 1176.1 473.34 Q 1175.5 473.09 1175.1 472.65 Q 1174.8 472.20 1174.8 471.59 Q 1174.8 470.66 1175.5 470.02 Q 1176.2 469.38 1177.3 469.38 Q 1178.4 469.38 1179.1 470.03 Q 1179.8 470.69 1179.8 471.62 Q 1179.8 472.22 1179.5 472.66 Q 1179.2 473.09 1178.5 473.34 Q 1179.3 473.59 1179.7 474.17 Q 1180.1 474.75 1180.1 475.55 Q 1180.1 476.64 1179.4 477.39 Q 1178.6 478.14 1177.3 478.14 Q 1176.0 478.14 1175.3 477.39 Q 1174.5 476.64 1174.5 475.52 Q 1174.5 474.67 1174.9 474.11 Q 1175.3 473.55 1176.1 473.34 z M 1175.9 471.55 Q 1175.9 472.16 1176.3 472.55 Q 1176.7 472.94 1177.3 472.94 Q 1177.9 472.94 1178.3 472.55 Q 1178.7 472.17 1178.7 471.61 Q 1178.7 471.03 1178.3 470.63 Q 1177.9 470.23 1177.3 470.23 Q 1176.7 470.23 1176.3 470.62 Q 1175.9 471.02 1175.9 471.55 z M 1175.6 475.52 Q 1175.6 475.97 1175.8 476.39 Q 1176.0 476.81 1176.4 477.05 Q 1176.8 477.28 1177.3 477.28 Q 1178.1 477.28 1178.6 476.80 Q 1179.1 476.31 1179.1 475.56 Q 1179.1 474.80 1178.6 474.30 Q 1178.1 473.80 1177.3 473.80 Q 1176.5 473.80 1176.1 474.29 Q 1175.6 474.78 1175.6 475.52 z"/>
</g> <!-- drawing style -->
</g> <!-- clip41 -->
</g> <!-- transform -->
<g transform="matrix(1.0000, 0.0000, 0.0000, 1.0000, -197.00, -159.00)">
<clipPath id="clipcf6d4055-f1a0-4c95-b241-3cd20773f907">
  <path d="M 197.00 159.00 L 197.00 583.00 L 823.00 583.00 L 823.00 159.00 z"/>
</clipPath>
<g clip-path="url(#clip42)">
<g fill-opacity="1.0000" fill-rule="nonzero" stroke="none" fill="#000000">
  <path d="M 1270.7 476.02 L 1271.7 475.92 Q 1271.8 476.64 1272.2 476.96 Q 1272.5 477.28 1273.1 477.28 Q 1273.6 477.28 1273.9 477.05 Q 1274.3 476.83 1274.5 476.46 Q 1274.8 476.09 1274.9 475.46 Q 1275.1 474.83 1275.1 474.17 Q 1275.1 474.09 1275.1 473.95 Q 1274.8 474.45 1274.2 474.77 Q 1273.7 475.09 1273.0 475.09 Q 1272.0 475.09 1271.2 474.32 Q 1270.5 473.55 1270.5 472.28 Q 1270.5 470.97 1271.3 470.17 Q 1272.0 469.38 1273.2 469.38 Q 1274.0 469.38 1274.7 469.83 Q 1275.4 470.28 1275.8 471.12 Q 1276.1 471.95 1276.1 473.53 Q 1276.1 475.17 1275.8 476.15 Q 1275.4 477.12 1274.7 477.63 Q 1274.0 478.14 1273.1 478.14 Q 1272.1 478.14 1271.4 477.59 Q 1270.8 477.03 1270.7 476.02 z M 1275.0 472.22 Q 1275.0 471.31 1274.5 470.78 Q 1274.0 470.25 1273.3 470.25 Q 1272.6 470.25 1272.1 470.82 Q 1271.6 471.39 1271.6 472.31 Q 1271.6 473.12 1272.1 473.64 Q 1272.6 474.16 1273.3 474.16 Q 1274.0 474.16 1274.5 473.64 Q 1275.0 473.12 1275.0 472.22 z"/>
</g> <!-- drawing style -->
</g> <!-- clip42 -->
</g> <!-- transform -->
<g transform="matrix(1.0000, 0.0000, 0.0000, 1.0000, -197.00, -159.00)">
<clipPath id="clipa1d904fd-3141-4684-bd7d-b0bd8e0115fc">
  <path d="M 197.00 159.00 L 197.00 583.00 L 823.00 583.00 L 823.00 159.00 z"/>
</clipPath>
<g clip-path="url(#clip43)">
<g fill-opacity="1.0000" fill-rule="nonzero" stroke="none" fill="#000000">
  <path d="M 392.61 845.81 L 392.61 845.02 L 397.39 845.02 L 397.39 845.81 L 392.61 845.81 z M 401.88 849.00 L 401.88 846.94 L 398.16 846.94 L 398.16 845.97 L 402.08 840.41 L 402.94 840.41 L 402.94 845.97 L 404.09 845.97 L 404.09 846.94 L 402.94 846.94 L 402.94 849.00 L 401.88 849.00 z M 401.88 845.97 L 401.88 842.11 L 399.19 845.97 L 401.88 845.97 z"/>
</g> <!-- drawing style -->
</g> <!-- clip43 -->
</g> <!-- transform -->
<g transform="matrix(1.0000, 0.0000, 0.0000, 1.0000, -197.00, -159.00)">
<clipPath id="clip3ca15f86-d76c-45df-bd08-049c5d10f9af">
  <path d="M 197.00 159.00 L 197.00 583.00 L 823.00 583.00 L 823.00 159.00 z"/>
</clipPath>
<g clip-path="url(#clip44)">
<g fill-opacity="1.0000" fill-rule="nonzero" stroke="none" fill="#000000">
  <path d="M 392.61 750.81 L 392.61 750.02 L 397.39 750.02 L 397.39 750.81 L 392.61 750.81 z M 398.50 751.73 L 399.56 751.59 Q 399.73 752.48 400.17 752.88 Q 400.61 753.28 401.23 753.28 Q 401.98 753.28 402.50 752.77 Q 403.02 752.25 403.02 751.48 Q 403.02 750.77 402.54 750.29 Q 402.06 749.81 401.33 749.81 Q 401.03 749.81 400.58 749.94 L 400.70 749.00 Q 400.81 749.02 400.88 749.02 Q 401.55 749.02 402.09 748.66 Q 402.62 748.31 402.62 747.58 Q 402.62 747.00 402.23 746.62 Q 401.84 746.23 401.22 746.23 Q 400.61 746.23 400.20 746.62 Q 399.78 747.02 399.67 747.78 L 398.61 747.59 Q 398.80 746.55 399.48 745.96 Q 400.17 745.38 401.19 745.38 Q 401.89 745.38 402.48 745.68 Q 403.08 745.98 403.39 746.50 Q 403.70 747.02 403.70 747.61 Q 403.70 748.16 403.41 748.62 Q 403.11 749.08 402.53 749.34 Q 403.28 749.52 403.70 750.07 Q 404.12 750.62 404.12 751.47 Q 404.12 752.59 403.30 753.38 Q 402.48 754.16 401.23 754.16 Q 400.11 754.16 399.36 753.48 Q 398.61 752.80 398.50 751.73 z"/>
</g> <!-- drawing style -->
</g> <!-- clip44 -->
</g> <!-- transform -->
<g transform="matrix(1.0000, 0.0000, 0.0000, 1.0000, -197.00, -159.00)">
<clipPath id="clip08a6a050-6af0-4da8-8c6b-8f0b5f7256d2">
  <path d="M 197.00 159.00 L 197.00 583.00 L 823.00 583.00 L 823.00 159.00 z"/>
</clipPath>
<g clip-path="url(#clip45)">
<g fill-opacity="1.0000" fill-rule="nonzero" stroke="none" fill="#000000">
  <path d="M 392.61 654.81 L 392.61 654.02 L 397.39 654.02 L 397.39 654.81 L 392.61 654.81 z M 404.05 656.98 L 404.05 658.00 L 398.36 658.00 Q 398.36 657.62 398.48 657.27 Q 398.70 656.69 399.18 656.12 Q 399.66 655.56 400.56 654.83 Q 401.97 653.67 402.46 653.00 Q 402.95 652.33 402.95 651.73 Q 402.95 651.11 402.50 650.68 Q 402.05 650.25 401.33 650.25 Q 400.56 650.25 400.11 650.70 Q 399.66 651.16 399.64 651.97 L 398.56 651.86 Q 398.67 650.64 399.40 650.01 Q 400.12 649.38 401.36 649.38 Q 402.59 649.38 403.31 650.06 Q 404.03 650.75 404.03 651.77 Q 404.03 652.28 403.82 652.77 Q 403.61 653.27 403.12 653.82 Q 402.62 654.38 401.50 655.33 Q 400.55 656.12 400.27 656.41 Q 400.00 656.70 399.83 656.98 L 404.05 656.98 z"/>
</g> <!-- drawing style -->
</g> <!-- clip45 -->
</g> <!-- transform -->
<g transform="matrix(1.0000, 0.0000, 0.0000, 1.0000, -197.00, -159.00)">
<clipPath id="clip67ec7608-14a7-481b-8691-05bdd65d0c49">
  <path d="M 197.00 159.00 L 197.00 583.00 L 823.00 583.00 L 823.00 159.00 z"/>
</clipPath>
<g clip-path="url(#clip46)">
<g fill-opacity="1.0000" fill-rule="nonzero" stroke="none" fill="#000000">
  <path d="M 392.61 558.81 L 392.61 558.02 L 397.39 558.02 L 397.39 558.81 L 392.61 558.81 z M 402.47 562.00 L 401.42 562.00 L 401.42 555.28 Q 401.03 555.64 400.41 556.01 Q 399.80 556.38 399.31 556.55 L 399.31 555.53 Q 400.19 555.11 400.85 554.52 Q 401.52 553.94 401.80 553.38 L 402.47 553.38 L 402.47 562.00 z"/>
</g> <!-- drawing style -->
</g> <!-- clip46 -->
</g> <!-- transform -->
<g transform="matrix(1.0000, 0.0000, 0.0000, 1.0000, -197.00, -159.00)">
<clipPath id="clip08659342-0360-4415-86ad-251018616e32">
  <path d="M 197.00 159.00 L 197.00 583.00 L 823.00 583.00 L 823.00 159.00 z"/>
</clipPath>
<g clip-path="url(#clip47)">
<g fill-opacity="1.0000" fill-rule="nonzero" stroke="none" fill="#000000">
  <path d="M 402.47 371.00 L 401.42 371.00 L 401.42 364.28 Q 401.03 364.64 400.41 365.01 Q 399.80 365.38 399.31 365.55 L 399.31 364.53 Q 400.19 364.11 400.85 363.52 Q 401.52 362.94 401.80 362.38 L 402.47 362.38 L 402.47 371.00 z"/>
</g> <!-- drawing style -->
</g> <!-- clip47 -->
</g> <!-- transform -->
<g transform="matrix(1.0000, 0.0000, 0.0000, 1.0000, -197.00, -159.00)">
<clipPath id="clipf36f836a-631c-4679-802e-34df4fd1f373">
  <path d="M 197.00 159.00 L 197.00 583.00 L 823.00 583.00 L 823.00 159.00 z"/>
</clipPath>
<g clip-path="url(#clip48)">
<g fill-opacity="1.0000" fill-rule="nonzero" stroke="none" fill="#000000">
  <path d="M 404.05 274.98 L 404.05 276.00 L 398.36 276.00 Q 398.36 275.62 398.48 275.27 Q 398.70 274.69 399.18 274.12 Q 399.66 273.56 400.56 272.83 Q 401.97 271.67 402.46 271.00 Q 402.95 270.33 402.95 269.73 Q 402.95 269.11 402.50 268.68 Q 402.05 268.25 401.33 268.25 Q 400.56 268.25 400.11 268.70 Q 399.66 269.16 399.64 269.97 L 398.56 269.86 Q 398.67 268.64 399.40 268.01 Q 400.12 267.38 401.36 267.38 Q 402.59 267.38 403.31 268.06 Q 404.03 268.75 404.03 269.77 Q 404.03 270.28 403.82 270.77 Q 403.61 271.27 403.12 271.82 Q 402.62 272.38 401.50 273.33 Q 400.55 274.12 400.27 274.41 Q 400.00 274.70 399.83 274.98 L 404.05 274.98 z"/>
</g> <!-- drawing style -->
</g> <!-- clip48 -->
</g> <!-- transform -->
<g transform="matrix(1.0000, 0.0000, 0.0000, 1.0000, -197.00, -159.00)">
<clipPath id="clipabf81b7b-ea99-417c-934d-5ff8f73e6c8e">
  <path d="M 197.00 159.00 L 197.00 583.00 L 823.00 583.00 L 823.00 159.00 z"/>
</clipPath>
<g clip-path="url(#clip49)">
<g fill-opacity="1.0000" fill-rule="nonzero" stroke="none" fill="#000000">
  <path d="M 398.50 177.73 L 399.56 177.59 Q 399.73 178.48 400.17 178.88 Q 400.61 179.28 401.23 179.28 Q 401.98 179.28 402.50 178.77 Q 403.02 178.25 403.02 177.48 Q 403.02 176.77 402.54 176.29 Q 402.06 175.81 401.33 175.81 Q 401.03 175.81 400.58 175.94 L 400.70 175.00 Q 400.81 175.02 400.88 175.02 Q 401.55 175.02 402.09 174.66 Q 402.62 174.31 402.62 173.58 Q 402.62 173.00 402.23 172.62 Q 401.84 172.23 401.22 172.23 Q 400.61 172.23 400.20 172.62 Q 399.78 173.02 399.67 173.78 L 398.61 173.59 Q 398.80 172.55 399.48 171.96 Q 400.17 171.38 401.19 171.38 Q 401.89 171.38 402.48 171.68 Q 403.08 171.98 403.39 172.50 Q 403.70 173.02 403.70 173.61 Q 403.70 174.16 403.41 174.62 Q 403.11 175.08 402.53 175.34 Q 403.28 175.52 403.70 176.07 Q 404.12 176.62 404.12 177.47 Q 404.12 178.59 403.30 179.38 Q 402.48 180.16 401.23 180.16 Q 400.11 180.16 399.36 179.48 Q 398.61 178.80 398.50 177.73 z"/>
</g> <!-- drawing style -->
</g> <!-- clip49 -->
</g> <!-- transform -->
<g transform="matrix(1.0000, 0.0000, 0.0000, 1.0000, -197.00, -159.00)">
<clipPath id="clip67db25ca-e741-402d-bf8a-520b57f9ec4b">
  <path d="M 197.00 159.00 L 197.00 583.00 L 823.00 583.00 L 823.00 159.00 z"/>
</clipPath>
<g clip-path="url(#clip50)">
<g fill-opacity="1.0000" fill-rule="nonzero" stroke="none" fill="#000000">
  <path d="M 401.88 84.000 L 401.88 81.938 L 398.16 81.938 L 398.16 80.969 L 402.08 75.406 L 402.94 75.406 L 402.94 80.969 L 404.09 80.969 L 404.09 81.938 L 402.94 81.938 L 402.94 84.000 L 401.88 84.000 z M 401.88 80.969 L 401.88 77.109 L 399.19 80.969 L 401.88 80.969 z"/>
</g> <!-- drawing style -->
</g> <!-- clip50 -->
</g> <!-- transform -->
<g transform="matrix(1.0000, 0.0000, 0.0000, 1.0000, -197.00, -159.00)">
<clipPath id="clip41ac323c-7f94-472b-a1e6-1a34cfe367f0">
  <path d="M 197.00 159.00 L 197.00 583.00 L 823.00 583.00 L 823.00 159.00 z"/>
</clipPath>
<g clip-path="url(#clip51)">
<g fill-opacity="1.0000" fill-rule="nonzero" stroke="none" fill="#000000">
  <path d="M 398.50 473.77 Q 398.50 472.23 398.81 471.30 Q 399.12 470.38 399.74 469.88 Q 400.36 469.38 401.30 469.38 Q 401.98 469.38 402.51 469.66 Q 403.03 469.94 403.38 470.46 Q 403.72 470.98 403.91 471.73 Q 404.09 472.48 404.09 473.77 Q 404.09 475.28 403.79 476.20 Q 403.48 477.12 402.87 477.63 Q 402.25 478.14 401.30 478.14 Q 400.06 478.14 399.34 477.25 Q 398.50 476.19 398.50 473.77 z M 399.58 473.77 Q 399.58 475.88 400.08 476.58 Q 400.58 477.28 401.30 477.28 Q 402.03 477.28 402.52 476.58 Q 403.02 475.88 403.02 473.77 Q 403.02 471.64 402.52 470.95 Q 402.03 470.25 401.28 470.25 Q 400.56 470.25 400.12 470.86 Q 399.58 471.64 399.58 473.77 z"/>
</g> <!-- drawing style -->
</g> <!-- clip51 -->
</g> <!-- transform -->
<g id="misc">
</g><!-- misc -->
<g id="layer0">
<g transform="matrix(1.0000, 0.0000, 0.0000, 1.0000, -197.00, -159.00)">
<clipPath id="clip83909001-9c56-41d0-9c9d-51fc3c3337dc">
  <path d="M 197.00 159.00 L 197.00 583.00 L 823.00 583.00 L 823.00 159.00 z"/>
</clipPath>
<g clip-path="url(#clip52)">
<g stroke-linejoin="round" stroke-width="2.5000" stroke-linecap="round" fill="none" stroke-opacity=".69804" stroke="#993300">
  <path d="M 271.27 -6.9897 L 271.90 -1.6528 L 272.53 3.6388 L 273.16 8.8853 L 273.80 14.087 L 274.43 19.244 L 275.06 24.356 L 275.69 29.424 L 276.33 34.448 L 276.96 39.428 L 278.22 49.256 L 279.49 58.910 L 280.75 68.391 L 282.02 77.700 L 283.28 86.839 L 284.55 95.809 L 285.81 104.61 L 287.08 113.25 L 288.34 121.72 L 289.60 130.03 L 290.87 138.17 L 292.13 146.16 L 293.40 153.98 L 294.66 161.65 L 295.93 169.16 L 297.19 176.51 L 298.46 183.71 L 299.72 190.76 L 300.99 197.66 L 302.25 204.40 L 303.52 211.00 L 304.78 217.44 L 306.04 223.75 L 307.31 229.90 L 308.57 235.92 L 309.84 241.79 L 311.10 247.52 L 312.37 253.11 L 313.63 258.56 L 314.90 263.87 L 316.16 269.05 L 318.69 279.01 L 321.22 288.44 L 323.75 297.35 L 326.28 305.76 L 328.81 313.67 L 331.34 321.10 L 333.87 328.06 L 336.40 334.55 L 338.93 340.59 L 341.46 346.18 L 343.98 351.35 L 349.04 360.43 L 354.10 367.91 L 359.16 373.88 L 364.22 378.42 L 369.28 381.62 L 371.81 382.75 L 374.34 383.57 L 379.39 384.34 L 381.92 384.31 L 384.45 384.02 L 389.51 382.70 L 394.57 380.46 L 399.63 377.39 L 404.69 373.57 L 409.75 369.09 L 414.80 364.04 L 419.86 358.49 L 424.92 352.53 L 429.98 346.25 L 435.04 339.73 L 440.10 333.06 L 445.16 326.32 L 450.21 319.60 L 455.27 312.99 L 460.33 306.56 L 465.39 300.40 L 470.45 294.60 L 475.51 289.24 L 480.57 284.41 L 485.62 280.19 L 490.68 276.67 L 495.74 273.94 L 500.80 272.07 L 503.33 271.48 L 505.86 271.15 L 510.92 271.27 L 513.45 271.74 L 515.98 272.51 L 521.04 274.96 L 523.56 276.67 L 526.09 278.70 L 531.15 283.82 L 536.21 290.41 L 541.27 298.54 L 546.33 308.30 L 548.86 313.82 L 551.39 319.78 L 553.92 326.19 L 556.45 333.06 L 558.97 340.41 L 561.50 348.23 L 564.03 356.55 L 566.56 365.38 L 569.09 374.71 L 571.62 384.58 L 572.89 389.71 L 574.15 394.97 L 575.42 400.38 L 576.68 405.92 L 577.94 411.60 L 579.21 417.42 L 580.47 423.38 L 581.74 429.49 L 583.00 435.74 L 584.27 442.14 L 585.53 448.68 L 586.80 455.37 L 588.06 462.21 L 589.33 469.21 L 590.59 476.35 L 591.86 483.65 L 593.12 491.11 L 594.38 498.72 L 595.65 506.49 L 596.91 514.42 L 598.18 522.51 L 599.44 530.76 L 600.71 539.17 L 601.97 547.75 L 603.24 556.49 L 604.50 565.40 L 605.77 574.48 L 607.03 583.73 L 608.30 593.15 L 609.56 602.74 L 610.83 612.51 L 612.09 622.45 L 612.72 627.49 L 613.35 632.57 L 613.99 637.69 L 614.62 642.86 L 615.25 648.08 L 615.88 653.34 L 616.52 658.64 L 617.15 663.99 L 617.78 669.39 L 618.41 674.83 L 619.05 680.32 L 619.68 685.85 L 620.31 691.43 L 620.94 697.06 L 621.57 702.73 L 622.21 708.45 L 622.84 714.21 L 623.47 720.02 L 624.10 725.88 L 624.74 731.79 L 625.37 737.74 L 626.00 743.74 L 626.63 749.79 L 627.27 755.89 L 627.90 762.03 L 628.53 768.23 L 629.16 774.47 L 629.79 780.76 L 630.43 787.10 L 631.06 793.49 L 631.69 799.92 L 632.32 806.41 L 632.96 812.95 L 633.59 819.53 L 634.22 826.17 L 634.85 832.85 L 635.49 839.59 L 636.12 846.37 L 636.75 853.21 L 637.38 860.09 L 638.02 867.03 L 638.65 874.02 L 639.28 881.06 L 639.91 888.15"/>
<title>Fonction f</title>
<desc>f(x) = -x³ + x² + x + 1</desc>

</g> <!-- drawing style -->
</g> <!-- clip52 -->
</g> <!-- transform -->
<g transform="matrix(1.0000, 0.0000, 0.0000, 1.0000, -197.00, -159.00)">
<clipPath id="clip11321b7c-b069-4bda-b834-fe87b408c5a8">
  <path d="M 197.00 159.00 L 197.00 583.00 L 823.00 583.00 L 823.00 159.00 z"/>
</clipPath>
<g clip-path="url(#clip53)">
<g fill-opacity="1.0000" fill-rule="nonzero" stroke="none" fill="#993300">
  <path d="M 273.39 24.000 L 273.39 16.797 L 272.16 16.797 L 272.16 15.703 L 273.39 15.703 L 273.39 14.812 Q 273.39 13.984 273.55 13.578 Q 273.75 13.031 274.26 12.688 Q 274.77 12.344 275.69 12.344 Q 276.28 12.344 277.00 12.484 L 276.80 13.719 Q 276.36 13.641 275.97 13.641 Q 275.33 13.641 275.06 13.914 Q 274.80 14.188 274.80 14.938 L 274.80 15.703 L 276.41 15.703 L 276.41 16.797 L 274.80 16.797 L 274.80 24.000 L 273.39 24.000 z"/>
<title>Fonction f</title>
<desc>f(x) = -x³ + x² + x + 1</desc>

</g> <!-- drawing style -->
</g> <!-- clip53 -->
</g> <!-- transform -->
</g><!-- layer0 -->
</g> <!-- default stroke -->
</svg> <!-- bounding box -->
