<?xml version='1.0' encoding='UTF-8'?>
<!-- This file was generated by dvisvgm 2.13.1 -->
<svg version='1.1' xmlns='http://www.w3.org/2000/svg' xmlns:xlink='http://www.w3.org/1999/xlink' width='185.251968pt' height='132.509643pt' viewBox='99.679134 173.413386 185.251968 132.509643'>
<defs>
<path id='g0-48' d='M5.702615-3.765878C5.702615-5.379826 5.152677-7.711083 3.132254-7.711083S.561893-5.379826 .561893-3.765878C.561893-2.139975 1.099875 .179328 3.132254 .179328S5.702615-2.139975 5.702615-3.765878ZM4.638605-3.765878C4.638605-3.048568 4.60274-2.271482 4.363636-1.590037L2.49863-6.766625C2.689913-6.886177 2.905106-6.945953 3.132254-6.945953C4.566874-6.945953 4.638605-4.782067 4.638605-3.765878ZM3.765878-.74122C3.574595-.621669 3.359402-.561893 3.132254-.561893C1.709589-.561893 1.637858-2.761644 1.637858-3.765878C1.637858-4.471233 1.673724-5.236364 1.912827-5.905853L3.765878-.74122Z'/>
<path id='g0-49' d='M5.332005 0V-.753176H3.945205V-7.711083L1.613948-6.73076V-6.001494L2.940971-6.479701V-.753176H1.554172V0H5.332005Z'/>
<path id='g0-50' d='M5.164633-5.654795C5.164633-6.981818 4.112578-7.711083 2.86924-7.711083C2.235616-7.711083 1.613948-7.555666 1.0401-7.316563V-6.216687H1.912827V-6.802491C2.187796-6.886177 2.486675-6.945953 2.773599-6.945953C3.56264-6.945953 4.088667-6.419925 4.088667-5.630884C4.088667-4.638605 3.347447-3.957161 2.701868-3.299626C1.984558-2.570361 1.327024-1.78132 .848817-.872727V0H5.116812V-1.613948H4.244085V-.872727H2.044334C2.49863-2.809465 5.164633-3.694147 5.164633-5.654795Z'/>
<path id='g0-51' d='M5.332005-2.080199C5.332005-3.144209 4.722291-3.777833 3.753923-4.112578C4.542964-4.483188 5.104857-5.080946 5.104857-5.989539C5.104857-7.220922 4.076712-7.711083 2.976837-7.711083C2.402989-7.711083 1.841096-7.603487 1.303113-7.412204V-6.539477C1.80523-6.77858 2.355168-6.945953 2.917061-6.945953C3.610461-6.945953 4.112578-6.539477 4.112578-5.822167C4.112578-4.459278 2.929016-4.387547 1.876961-4.387547V-3.670237C3.036613-3.670237 4.27995-3.550685 4.27995-2.080199C4.27995-1.171606 3.670237-.561893 2.761644-.561893C2.223661-.561893 1.685679-.74122 1.183562-.920548V-.035866C1.685679 .095641 2.211706 .179328 2.737733 .179328C4.148443 .179328 5.332005-.549938 5.332005-2.080199Z'/>
<path id='g0-52' d='M5.642839-2.008468V-2.761644H4.638605V-7.519801H3.694147L.561893-2.84533V-2.008468H3.694147V-.753176H2.857285V0H5.475467V-.753176H4.638605V-2.008468H5.642839ZM3.694147-2.761644H1.398755L3.694147-6.168867V-2.761644Z'/>
<path id='g0-53' d='M5.236364-2.199751C5.236364-3.88543 3.90934-4.686426 2.355168-4.686426V-6.647073H5.033126V-7.519801H1.518306V-3.93325C2.737733-4.016936 4.160399-3.813699 4.160399-2.271482C4.160399-1.422665 3.694147-.561893 2.749689-.561893C2.271482-.561893 1.80523-.71731 1.374844-.896638V-.035866C1.829141 .083686 2.295392 .179328 2.773599 .179328C4.148443 .179328 5.236364-.800996 5.236364-2.199751Z'/>
<path id='g0-54' d='M5.702615-2.450809C5.702615-3.658281 4.865753-4.805978 3.58655-4.805978C2.86924-4.805978 2.271482-4.423412 1.876961-3.849564C1.876961-5.140722 2.223661-6.957908 3.861519-6.957908C4.351681-6.957908 4.853798-6.75467 5.296139-6.563387V-7.424159C4.805978-7.579577 4.291905-7.711083 3.765878-7.711083C1.566127-7.711083 .824907-5.451557 .824907-3.610461C.824907-1.948692 1.267248 .179328 3.335492 .179328C4.829888 .179328 5.702615-1.0401 5.702615-2.450809ZM4.734247-2.259527C4.734247-1.494396 4.363636-.561893 3.466999-.561893C2.402989-.561893 1.996513-1.542217 1.996513-2.462765C1.996513-3.311582 2.426899-4.088667 3.359402-4.088667C4.339726-4.088667 4.734247-3.096389 4.734247-2.259527Z'/>
<path id='g0-55' d='M5.559153-6.682939V-7.519801H1.016189V-6.575342H4.60274C3.706102-4.99726 1.649813-1.865006 1.422665 0H2.618182C2.905106-2.211706 4.387547-4.794022 5.559153-6.682939Z'/>
<path id='g0-56' d='M5.595019-1.972603C5.595019-3.048568 4.817933-3.646326 3.969116-4.136488C4.674471-4.566874 5.296139-5.212453 5.296139-6.085181C5.296139-7.256787 4.399502-7.711083 3.347447-7.711083C2.187796-7.711083 1.195517-7.065504 1.195517-5.822167C1.195517-5.092902 1.649813-4.519054 2.211706-4.100623C1.41071-3.598506 .812951-2.86924 .812951-1.888917C.812951-.549938 1.900872 .179328 3.156164 .179328C4.435367 .179328 5.595019-.597758 5.595019-1.972603ZM4.387547-5.917808C4.387547-5.284184 3.921295-4.794022 3.407223-4.483188C2.84533-4.805978 2.12802-5.236364 2.12802-5.965629C2.12802-6.623163 2.642092-6.945953 3.251806-6.945953C3.873474-6.945953 4.387547-6.575342 4.387547-5.917808ZM4.590785-1.769365C4.590785-1.0401 3.921295-.561893 3.239851-.561893C2.379078-.561893 1.80523-1.171606 1.80523-2.020423C1.80523-2.701868 2.259527-3.275716 2.761644-3.682192C3.466999-3.263761 4.590785-2.725778 4.590785-1.769365Z'/>
<path id='g0-57' d='M5.642839-3.90934C5.642839-5.571108 5.188543-7.711083 3.120299-7.711083C1.625903-7.711083 .765131-6.455791 .765131-5.057036C.765131-3.849564 1.566127-2.713823 2.857285-2.713823C3.598506-2.713823 4.184309-3.084433 4.590785-3.682192C4.590785-2.402989 4.23213-.561893 2.606227-.561893C2.12802-.561893 1.601993-.765131 1.159651-.932503V-.071731C1.661768 .059776 2.175841 .179328 2.701868 .179328C4.889664 .179328 5.642839-2.080199 5.642839-3.90934ZM4.459278-5.057036C4.459278-4.208219 4.028892-3.431133 3.096389-3.431133C2.12802-3.431133 1.721544-4.423412 1.721544-5.260274C1.721544-6.03736 2.10411-6.945953 3.000747-6.945953C4.052802-6.945953 4.459278-5.965629 4.459278-5.057036Z'/>
</defs>
<g id='page1'>
<g transform='matrix(0.996264 0 0 0.996264 99.6791 173.413)'>
<path d='M 29.2056 120.003L 185.696 120.003' fill='none' stroke='#808080' stroke-linecap='round' stroke-linejoin='round' stroke-miterlimit='10.0375' stroke-width='0.501875'/>
</g>
<g transform='matrix(0.996264 0 0 0.996264 99.6791 173.413)'>
<path d='M 36.0022 110.045L 0.752812 110.045' fill='none' stroke='#ff8000' stroke-linecap='round' stroke-linejoin='round' stroke-miterlimit='10.0375' stroke-width='1.50562'/>
</g>
<g transform='matrix(0.996264 0 0 0.996264 99.6791 173.413)'>
<path d='M 36.0022 109.292C 33.1792 107.222 31.937 104.098 31.937 103.797C 31.937 103.458 32.2382 103.345 32.5016 103.345C 32.9157 103.345 32.991 103.533 33.1039 103.721C 33.6685 105.001 34.873 107.749 38.6371 109.518C 39.0888 109.744 39.164 109.782 39.164 110.045C 39.164 110.308 39.0888 110.346 38.6371 110.572C 34.873 112.341 33.6685 115.089 33.1039 116.369C 32.991 116.557 32.9157 116.745 32.5016 116.745C 32.2382 116.745 31.937 116.632 31.937 116.293C 31.937 115.992 33.1792 112.868 36.0022 110.798L 36.0022 109.292Z' fill='#ff8000'/>
</g>
<g transform='matrix(0.996264 0 0 0.996264 99.6791 173.413)'>
<path d='M 36.0022 90.1281L 0.752812 90.1281' fill='none' stroke='#ff8000' stroke-linecap='round' stroke-linejoin='round' stroke-miterlimit='10.0375' stroke-width='1.50562'/>
</g>
<g transform='matrix(0.996264 0 0 0.996264 99.6791 173.413)'>
<path d='M 36.0022 89.3752C 33.1792 87.305 31.937 84.1808 31.937 83.8797C 31.937 83.5409 32.2382 83.428 32.5016 83.428C 32.9157 83.428 32.991 83.6162 33.1039 83.8044C 33.6685 85.0842 34.873 87.832 38.6371 89.6011C 39.0888 89.8269 39.164 89.8646 39.164 90.1281C 39.164 90.3915 39.0888 90.4292 38.6371 90.655C 34.873 92.4241 33.6685 95.1719 33.1039 96.4517C 32.991 96.6399 32.9157 96.8281 32.5016 96.8281C 32.2382 96.8281 31.937 96.7152 31.937 96.3764C 31.937 96.0753 33.1792 92.9511 36.0022 90.8809L 36.0022 89.3752Z' fill='#ff8000'/>
</g>
<g transform='matrix(0.996264 0 0 0.996264 99.6791 173.413)'>
<path d='M 39.164 120.003L 47.6999 120.003L 47.6999 80.1696L 39.164 80.1696L 39.164 120.003Z' fill='#ffff80'/>
</g>
<g transform='matrix(0.996264 0 0 0.996264 99.6791 173.413)'>
<path d='M 39.164 120.003L 47.6999 120.003L 47.6999 80.1696L 39.164 80.1696L 39.164 120.003Z' fill='none' stroke='#808080' stroke-linecap='round' stroke-linejoin='round' stroke-miterlimit='10.0375' stroke-width='1.00375'/>
</g>
<g fill='#808080'>
<use x='139.814411' y='304.188152' xlink:href='#g0-48'/>
</g>
<g transform='matrix(0.996264 0 0 0.996264 99.6791 173.413)'>
<path d='M 39.164 100.087L 47.6999 100.087' fill='none' stroke='#808080' stroke-linecap='round' stroke-linejoin='round' stroke-miterlimit='10.0375' stroke-width='1.00375'/>
</g>
<g transform='matrix(0.996264 0 0 0.996264 99.6791 173.413)'>
<path d='M 53.3904 120.003L 61.9262 120.003L 61.9262 100.087L 53.3904 100.087L 53.3904 120.003Z' fill='#8080ff'/>
</g>
<g transform='matrix(0.996264 0 0 0.996264 99.6791 173.413)'>
<path d='M 53.3904 120.003L 61.9262 120.003L 61.9262 100.087L 53.3904 100.087L 53.3904 120.003Z' fill='none' stroke='#808080' stroke-linecap='round' stroke-linejoin='round' stroke-miterlimit='10.0375' stroke-width='1.00375'/>
</g>
<g fill='#808080'>
<use x='153.98764' y='304.188182' xlink:href='#g0-49'/>
</g>
<g transform='matrix(0.996264 0 0 0.996264 99.6791 173.413)'>
<path d='M 64.455 70.2111L 0.752812 70.2111' fill='none' stroke='#ff8000' stroke-linecap='round' stroke-linejoin='round' stroke-miterlimit='10.0375' stroke-width='1.50562'/>
</g>
<g transform='matrix(0.996264 0 0 0.996264 99.6791 173.413)'>
<path d='M 64.455 69.4583C 61.6319 67.3881 60.3898 64.2639 60.3898 63.9628C 60.3898 63.624 60.6909 63.5111 60.9544 63.5111C 61.3684 63.5111 61.4437 63.6993 61.5566 63.8875C 62.1213 65.1673 63.3258 67.915 67.0898 69.6842C 67.5415 69.91 67.6168 69.9476 67.6168 70.2111C 67.6168 70.4746 67.5415 70.5123 67.0898 70.7381C 63.3258 72.5072 62.1213 75.255 61.5566 76.5348C 61.4437 76.723 61.3684 76.9112 60.9544 76.9112C 60.6909 76.9112 60.3898 76.7982 60.3898 76.4595C 60.3898 76.1583 61.6319 73.0342 64.455 70.9639L 64.455 69.4583Z' fill='#ff8000'/>
</g>
<g transform='matrix(0.996264 0 0 0.996264 99.6791 173.413)'>
<path d='M 64.455 50.2942L 0.752812 50.2942' fill='none' stroke='#ff8000' stroke-linecap='round' stroke-linejoin='round' stroke-miterlimit='10.0375' stroke-width='1.50562'/>
</g>
<g transform='matrix(0.996264 0 0 0.996264 99.6791 173.413)'>
<path d='M 64.455 49.5414C 61.6319 47.4712 60.3898 44.347 60.3898 44.0459C 60.3898 43.7071 60.6909 43.5942 60.9544 43.5942C 61.3684 43.5942 61.4437 43.7824 61.5566 43.9706C 62.1213 45.2504 63.3258 47.9981 67.0898 49.7672C 67.5415 49.9931 67.6168 50.0307 67.6168 50.2942C 67.6168 50.5577 67.5415 50.5953 67.0898 50.8212C 63.3258 52.5903 62.1213 55.338 61.5566 56.6178C 61.4437 56.806 61.3684 56.9942 60.9544 56.9942C 60.6909 56.9942 60.3898 56.8813 60.3898 56.5425C 60.3898 56.2414 61.6319 53.1172 64.455 51.047L 64.455 49.5414Z' fill='#ff8000'/>
</g>
<g transform='matrix(0.996264 0 0 0.996264 99.6791 173.413)'>
<path d='M 67.6168 120.003L 76.1526 120.003L 76.1526 40.3357L 67.6168 40.3357L 67.6168 120.003Z' fill='#ffff80'/>
</g>
<g transform='matrix(0.996264 0 0 0.996264 99.6791 173.413)'>
<path d='M 67.6168 120.003L 76.1526 120.003L 76.1526 40.3357L 67.6168 40.3357L 67.6168 120.003Z' fill='none' stroke='#808080' stroke-linecap='round' stroke-linejoin='round' stroke-miterlimit='10.0375' stroke-width='1.00375'/>
</g>
<g fill='#808080'>
<use x='168.16087' y='304.188182' xlink:href='#g0-50'/>
</g>
<g transform='matrix(0.996264 0 0 0.996264 99.6791 173.413)'>
<path d='M 67.6168 100.087L 76.1526 100.087' fill='none' stroke='#808080' stroke-linecap='round' stroke-linejoin='round' stroke-miterlimit='10.0375' stroke-width='1.00375'/>
</g>
<g transform='matrix(0.996264 0 0 0.996264 99.6791 173.413)'>
<path d='M 67.6168 80.1696L 76.1526 80.1696' fill='none' stroke='#808080' stroke-linecap='round' stroke-linejoin='round' stroke-miterlimit='10.0375' stroke-width='1.00375'/>
</g>
<g transform='matrix(0.996264 0 0 0.996264 99.6791 173.413)'>
<path d='M 67.6168 60.2527L 76.1526 60.2527' fill='none' stroke='#808080' stroke-linecap='round' stroke-linejoin='round' stroke-miterlimit='10.0375' stroke-width='1.00375'/>
</g>
<g transform='matrix(0.996264 0 0 0.996264 99.6791 173.413)'>
<path d='M 81.8432 120.003L 90.379 120.003L 90.379 80.1696L 81.8432 80.1696L 81.8432 120.003Z' fill='#8080ff'/>
</g>
<g transform='matrix(0.996264 0 0 0.996264 99.6791 173.413)'>
<path d='M 81.8432 120.003L 90.379 120.003L 90.379 80.1696L 81.8432 80.1696L 81.8432 120.003Z' fill='none' stroke='#808080' stroke-linecap='round' stroke-linejoin='round' stroke-miterlimit='10.0375' stroke-width='1.00375'/>
</g>
<g fill='#808080'>
<use x='182.3341' y='304.188152' xlink:href='#g0-51'/>
</g>
<g transform='matrix(0.996264 0 0 0.996264 99.6791 173.413)'>
<path d='M 81.8432 100.087L 90.379 100.087' fill='none' stroke='#808080' stroke-linecap='round' stroke-linejoin='round' stroke-miterlimit='10.0375' stroke-width='1.00375'/>
</g>
<g transform='matrix(0.996264 0 0 0.996264 99.6791 173.413)'>
<path d='M 96.0695 120.003L 104.605 120.003L 104.605 120.003L 96.0695 120.003L 96.0695 120.003Z' fill='#8080ff'/>
</g>
<g transform='matrix(0.996264 0 0 0.996264 99.6791 173.413)'>
<path d='M 96.0695 120.003L 104.605 120.003L 104.605 120.003L 96.0695 120.003L 96.0695 120.003Z' fill='none' stroke='#808080' stroke-linecap='round' stroke-linejoin='round' stroke-miterlimit='10.0375' stroke-width='1.00375'/>
</g>
<g fill='#808080'>
<use x='196.50733' y='304.014836' xlink:href='#g0-52'/>
</g>
<g transform='matrix(0.996264 0 0 0.996264 99.6791 173.413)'>
<path d='M 110.296 120.003L 118.832 120.003L 118.832 40.3357L 110.296 40.3357L 110.296 120.003Z' fill='#8080ff'/>
</g>
<g transform='matrix(0.996264 0 0 0.996264 99.6791 173.413)'>
<path d='M 110.296 120.003L 118.832 120.003L 118.832 40.3357L 110.296 40.3357L 110.296 120.003Z' fill='none' stroke='#808080' stroke-linecap='round' stroke-linejoin='round' stroke-miterlimit='10.0375' stroke-width='1.00375'/>
</g>
<g fill='#808080'>
<use x='210.680559' y='304.014882' xlink:href='#g0-53'/>
</g>
<g transform='matrix(0.996264 0 0 0.996264 99.6791 173.413)'>
<path d='M 110.296 100.087L 118.832 100.087' fill='none' stroke='#808080' stroke-linecap='round' stroke-linejoin='round' stroke-miterlimit='10.0375' stroke-width='1.00375'/>
</g>
<g transform='matrix(0.996264 0 0 0.996264 99.6791 173.413)'>
<path d='M 110.296 80.1696L 118.832 80.1696' fill='none' stroke='#808080' stroke-linecap='round' stroke-linejoin='round' stroke-miterlimit='10.0375' stroke-width='1.00375'/>
</g>
<g transform='matrix(0.996264 0 0 0.996264 99.6791 173.413)'>
<path d='M 110.296 60.2527L 118.832 60.2527' fill='none' stroke='#808080' stroke-linecap='round' stroke-linejoin='round' stroke-miterlimit='10.0375' stroke-width='1.00375'/>
</g>
<g transform='matrix(0.996264 0 0 0.996264 99.6791 173.413)'>
<path d='M 121.36 30.3773L 0.752812 30.3773' fill='none' stroke='#ff8000' stroke-linecap='round' stroke-linejoin='round' stroke-miterlimit='10.0375' stroke-width='1.50562'/>
</g>
<g transform='matrix(0.996264 0 0 0.996264 99.6791 173.413)'>
<path d='M 121.36 29.6245C 118.537 27.5542 117.295 24.43 117.295 24.1289C 117.295 23.7902 117.596 23.6772 117.86 23.6772C 118.274 23.6772 118.349 23.8654 118.462 24.0536C 119.027 25.3334 120.231 28.0812 123.995 29.8503C 124.447 30.0761 124.522 30.1138 124.522 30.3773C 124.522 30.6408 124.447 30.6784 123.995 30.9042C 120.231 32.6733 119.027 35.4211 118.462 36.7009C 118.349 36.8891 118.274 37.0773 117.86 37.0773C 117.596 37.0773 117.295 36.9644 117.295 36.6256C 117.295 36.3245 118.537 33.2003 121.36 31.1301L 121.36 29.6245Z' fill='#ff8000'/>
</g>
<g transform='matrix(0.996264 0 0 0.996264 99.6791 173.413)'>
<path d='M 124.522 120.003L 133.058 120.003L 133.058 20.4188L 124.522 20.4188L 124.522 120.003Z' fill='#ffff80'/>
</g>
<g transform='matrix(0.996264 0 0 0.996264 99.6791 173.413)'>
<path d='M 124.522 120.003L 133.058 120.003L 133.058 20.4188L 124.522 20.4188L 124.522 120.003Z' fill='none' stroke='#808080' stroke-linecap='round' stroke-linejoin='round' stroke-miterlimit='10.0375' stroke-width='1.00375'/>
</g>
<g fill='#808080'>
<use x='224.853774' y='304.188152' xlink:href='#g0-54'/>
</g>
<g transform='matrix(0.996264 0 0 0.996264 99.6791 173.413)'>
<path d='M 124.522 100.087L 133.058 100.087' fill='none' stroke='#808080' stroke-linecap='round' stroke-linejoin='round' stroke-miterlimit='10.0375' stroke-width='1.00375'/>
</g>
<g transform='matrix(0.996264 0 0 0.996264 99.6791 173.413)'>
<path d='M 124.522 80.1696L 133.058 80.1696' fill='none' stroke='#808080' stroke-linecap='round' stroke-linejoin='round' stroke-miterlimit='10.0375' stroke-width='1.00375'/>
</g>
<g transform='matrix(0.996264 0 0 0.996264 99.6791 173.413)'>
<path d='M 124.522 60.2527L 133.058 60.2527' fill='none' stroke='#808080' stroke-linecap='round' stroke-linejoin='round' stroke-miterlimit='10.0375' stroke-width='1.00375'/>
</g>
<g transform='matrix(0.996264 0 0 0.996264 99.6791 173.413)'>
<path d='M 124.522 40.3357L 133.058 40.3357' fill='none' stroke='#808080' stroke-linecap='round' stroke-linejoin='round' stroke-miterlimit='10.0375' stroke-width='1.00375'/>
</g>
<g transform='matrix(0.996264 0 0 0.996264 99.6791 173.413)'>
<path d='M 138.749 120.003L 147.285 120.003L 147.285 60.2527L 138.749 60.2527L 138.749 120.003Z' fill='#8080ff'/>
</g>
<g transform='matrix(0.996264 0 0 0.996264 99.6791 173.413)'>
<path d='M 138.749 120.003L 147.285 120.003L 147.285 60.2527L 138.749 60.2527L 138.749 120.003Z' fill='none' stroke='#808080' stroke-linecap='round' stroke-linejoin='round' stroke-miterlimit='10.0375' stroke-width='1.00375'/>
</g>
<g fill='#808080'>
<use x='239.027004' y='304.014836' xlink:href='#g0-55'/>
</g>
<g transform='matrix(0.996264 0 0 0.996264 99.6791 173.413)'>
<path d='M 138.749 100.087L 147.285 100.087' fill='none' stroke='#808080' stroke-linecap='round' stroke-linejoin='round' stroke-miterlimit='10.0375' stroke-width='1.00375'/>
</g>
<g transform='matrix(0.996264 0 0 0.996264 99.6791 173.413)'>
<path d='M 138.749 80.1696L 147.285 80.1696' fill='none' stroke='#808080' stroke-linecap='round' stroke-linejoin='round' stroke-miterlimit='10.0375' stroke-width='1.00375'/>
</g>
<g transform='matrix(0.996264 0 0 0.996264 99.6791 173.413)'>
<path d='M 152.975 120.003L 161.511 120.003L 161.511 20.4188L 152.975 20.4188L 152.975 120.003Z' fill='#8080ff'/>
</g>
<g transform='matrix(0.996264 0 0 0.996264 99.6791 173.413)'>
<path d='M 152.975 120.003L 161.511 120.003L 161.511 20.4188L 152.975 20.4188L 152.975 120.003Z' fill='none' stroke='#808080' stroke-linecap='round' stroke-linejoin='round' stroke-miterlimit='10.0375' stroke-width='1.00375'/>
</g>
<g fill='#808080'>
<use x='253.200234' y='304.188152' xlink:href='#g0-56'/>
</g>
<g transform='matrix(0.996264 0 0 0.996264 99.6791 173.413)'>
<path d='M 152.975 100.087L 161.511 100.087' fill='none' stroke='#808080' stroke-linecap='round' stroke-linejoin='round' stroke-miterlimit='10.0375' stroke-width='1.00375'/>
</g>
<g transform='matrix(0.996264 0 0 0.996264 99.6791 173.413)'>
<path d='M 152.975 80.1696L 161.511 80.1696' fill='none' stroke='#808080' stroke-linecap='round' stroke-linejoin='round' stroke-miterlimit='10.0375' stroke-width='1.00375'/>
</g>
<g transform='matrix(0.996264 0 0 0.996264 99.6791 173.413)'>
<path d='M 152.975 60.2527L 161.511 60.2527' fill='none' stroke='#808080' stroke-linecap='round' stroke-linejoin='round' stroke-miterlimit='10.0375' stroke-width='1.00375'/>
</g>
<g transform='matrix(0.996264 0 0 0.996264 99.6791 173.413)'>
<path d='M 152.975 40.3357L 161.511 40.3357' fill='none' stroke='#808080' stroke-linecap='round' stroke-linejoin='round' stroke-miterlimit='10.0375' stroke-width='1.00375'/>
</g>
<g transform='matrix(0.996264 0 0 0.996264 99.6791 173.413)'>
<path d='M 164.04 10.4603L 0.752812 10.4603' fill='none' stroke='#ff8000' stroke-linecap='round' stroke-linejoin='round' stroke-miterlimit='10.0375' stroke-width='1.50562'/>
</g>
<g transform='matrix(0.996264 0 0 0.996264 99.6791 173.413)'>
<path d='M 164.04 9.70753C 161.217 7.63729 159.974 4.51312 159.974 4.212C 159.974 3.87323 160.276 3.76031 160.539 3.76031C 160.953 3.76031 161.028 3.94851 161.141 4.13671C 161.706 5.4165 162.91 8.16426 166.674 9.93337C 167.126 10.1592 167.201 10.1969 167.201 10.4603C 167.201 10.7238 167.126 10.7615 166.674 10.9873C 162.91 12.7564 161.706 15.5042 161.141 16.784C 161.028 16.9722 160.953 17.1604 160.539 17.1604C 160.276 17.1604 159.974 17.0474 159.974 16.7087C 159.974 16.4076 161.217 13.2834 164.04 11.2132L 164.04 9.70753Z' fill='#ff8000'/>
</g>
<g transform='matrix(0.996264 0 0 0.996264 99.6791 173.413)'>
<path d='M 167.201 120.003L 175.737 120.003L 175.737 0.501875L 167.201 0.501875L 167.201 120.003Z' fill='#ffff80'/>
</g>
<g transform='matrix(0.996264 0 0 0.996264 99.6791 173.413)'>
<path d='M 167.201 120.003L 175.737 120.003L 175.737 0.501875L 167.201 0.501875L 167.201 120.003Z' fill='none' stroke='#808080' stroke-linecap='round' stroke-linejoin='round' stroke-miterlimit='10.0375' stroke-width='1.00375'/>
</g>
<g fill='#808080'>
<use x='267.373463' y='304.188152' xlink:href='#g0-57'/>
</g>
<g transform='matrix(0.996264 0 0 0.996264 99.6791 173.413)'>
<path d='M 167.201 100.087L 175.737 100.087' fill='none' stroke='#808080' stroke-linecap='round' stroke-linejoin='round' stroke-miterlimit='10.0375' stroke-width='1.00375'/>
</g>
<g transform='matrix(0.996264 0 0 0.996264 99.6791 173.413)'>
<path d='M 167.201 80.1696L 175.737 80.1696' fill='none' stroke='#808080' stroke-linecap='round' stroke-linejoin='round' stroke-miterlimit='10.0375' stroke-width='1.00375'/>
</g>
<g transform='matrix(0.996264 0 0 0.996264 99.6791 173.413)'>
<path d='M 167.201 60.2527L 175.737 60.2527' fill='none' stroke='#808080' stroke-linecap='round' stroke-linejoin='round' stroke-miterlimit='10.0375' stroke-width='1.00375'/>
</g>
<g transform='matrix(0.996264 0 0 0.996264 99.6791 173.413)'>
<path d='M 167.201 40.3357L 175.737 40.3357' fill='none' stroke='#808080' stroke-linecap='round' stroke-linejoin='round' stroke-miterlimit='10.0375' stroke-width='1.00375'/>
</g>
<g transform='matrix(0.996264 0 0 0.996264 99.6791 173.413)'>
<path d='M 167.201 20.4188L 175.737 20.4188' fill='none' stroke='#808080' stroke-linecap='round' stroke-linejoin='round' stroke-miterlimit='10.0375' stroke-width='1.00375'/>
</g>
</g>
</svg>