<?xml version="1.0" encoding="UTF-8"?>
<svg xmlns="http://www.w3.org/2000/svg" xmlns:xlink="http://www.w3.org/1999/xlink"
     width="320" height="400" viewBox="-160.0 -200.0 320 400">
<defs>
</defs>
<path d="M-150,-100 L-139.0,-100.0" stroke="black" stroke-width="1" />
<path d="M-139.0,-100.0 L-133.5,-109.52627944162883" stroke="black" stroke-width="1" />
<path d="M-133.5,-109.52627944162883 L-128.0,-100.0" stroke="black" stroke-width="1" />
<path d="M-128.0,-100.0 L-117.0,-100.0" stroke="black" stroke-width="1" />
<path d="M-117.0,-100.0 L-111.5,-109.52627944162883" stroke="black" stroke-width="1" />
<path d="M-111.5,-109.52627944162883 L-117.0,-119.05255888325766" stroke="black" stroke-width="1" />
<path d="M-117.0,-119.05255888325766 L-106.0,-119.05255888325766" stroke="black" stroke-width="1" />
<path d="M-106.0,-119.05255888325766 L-100.5,-128.57883832488648" stroke="black" stroke-width="1" />
<path d="M-100.5,-128.57883832488648 L-95.0,-119.05255888325765" stroke="black" stroke-width="1" />
<path d="M-95.0,-119.05255888325765 L-84.0,-119.05255888325765" stroke="black" stroke-width="1" />
<path d="M-84.0,-119.05255888325765 L-89.5,-109.52627944162882" stroke="black" stroke-width="1" />
<path d="M-89.5,-109.52627944162882 L-84.0,-99.99999999999999" stroke="black" stroke-width="1" />
<path d="M-84.0,-99.99999999999999 L-73.0,-99.99999999999999" stroke="black" stroke-width="1" />
<path d="M-73.0,-99.99999999999999 L-67.5,-109.52627944162882" stroke="black" stroke-width="1" />
<path d="M-67.5,-109.52627944162882 L-62.0,-99.99999999999999" stroke="black" stroke-width="1" />
<path d="M-62.0,-99.99999999999999 L-51.0,-99.99999999999999" stroke="black" stroke-width="1" />
<path d="M-51.0,-99.99999999999999 L-45.5,-109.52627944162882" stroke="black" stroke-width="1" />
<path d="M-45.5,-109.52627944162882 L-51.0,-119.05255888325765" stroke="black" stroke-width="1" />
<path d="M-51.0,-119.05255888325765 L-40.0,-119.05255888325765" stroke="black" stroke-width="1" />
<path d="M-40.0,-119.05255888325765 L-34.5,-128.57883832488648" stroke="black" stroke-width="1" />
<path d="M-34.5,-128.57883832488648 L-40.0,-138.1051177665153" stroke="black" stroke-width="1" />
<path d="M-40.0,-138.1051177665153 L-51.0,-138.1051177665153" stroke="black" stroke-width="1" />
<path d="M-51.0,-138.1051177665153 L-45.5,-147.6313972081441" stroke="black" stroke-width="1" />
<path d="M-45.5,-147.6313972081441 L-51.0,-157.15767664977292" stroke="black" stroke-width="1" />
<path d="M-51.0,-157.15767664977292 L-40.0,-157.15767664977292" stroke="black" stroke-width="1" />
<path d="M-40.0,-157.15767664977292 L-34.5,-166.68395609140174" stroke="black" stroke-width="1" />
<path d="M-34.5,-166.68395609140174 L-29.0,-157.15767664977292" stroke="black" stroke-width="1" />
<path d="M-29.0,-157.15767664977292 L-18.0,-157.15767664977292" stroke="black" stroke-width="1" />
<path d="M-18.0,-157.15767664977292 L-12.5,-166.68395609140174" stroke="black" stroke-width="1" />
<path d="M-12.5,-166.68395609140174 L-17.999999999999996,-176.21023553303056" stroke="black" stroke-width="1" />
<path d="M-17.999999999999996,-176.21023553303056 L-6.9999999999999964,-176.21023553303056" stroke="black" stroke-width="1" />
<path d="M-6.9999999999999964,-176.21023553303056 L-1.4999999999999956,-185.73651497465937" stroke="black" stroke-width="1" />
<path d="M-1.4999999999999956,-185.73651497465937 L4.000000000000005,-176.21023553303056" stroke="black" stroke-width="1" />
<path d="M4.000000000000005,-176.21023553303056 L15.000000000000005,-176.21023553303056" stroke="black" stroke-width="1" />
<path d="M15.000000000000005,-176.21023553303056 L9.500000000000007,-166.68395609140174" stroke="black" stroke-width="1" />
<path d="M9.500000000000007,-166.68395609140174 L15.000000000000007,-157.15767664977292" stroke="black" stroke-width="1" />
<path d="M15.000000000000007,-157.15767664977292 L26.000000000000007,-157.15767664977292" stroke="black" stroke-width="1" />
<path d="M26.000000000000007,-157.15767664977292 L31.500000000000007,-166.68395609140174" stroke="black" stroke-width="1" />
<path d="M31.500000000000007,-166.68395609140174 L37.00000000000001,-157.15767664977292" stroke="black" stroke-width="1" />
<path d="M37.00000000000001,-157.15767664977292 L48.00000000000001,-157.15767664977292" stroke="black" stroke-width="1" />
<path d="M48.00000000000001,-157.15767664977292 L42.50000000000001,-147.6313972081441" stroke="black" stroke-width="1" />
<path d="M42.50000000000001,-147.6313972081441 L48.00000000000001,-138.1051177665153" stroke="black" stroke-width="1" />
<path d="M48.00000000000001,-138.1051177665153 L37.00000000000001,-138.1051177665153" stroke="black" stroke-width="1" />
<path d="M37.00000000000001,-138.1051177665153 L31.50000000000001,-128.57883832488648" stroke="black" stroke-width="1" />
<path d="M31.50000000000001,-128.57883832488648 L37.000000000000014,-119.05255888325765" stroke="black" stroke-width="1" />
<path d="M37.000000000000014,-119.05255888325765 L48.000000000000014,-119.05255888325765" stroke="black" stroke-width="1" />
<path d="M48.000000000000014,-119.05255888325765 L42.500000000000014,-109.52627944162882" stroke="black" stroke-width="1" />
<path d="M42.500000000000014,-109.52627944162882 L48.000000000000014,-99.99999999999999" stroke="black" stroke-width="1" />
<path d="M48.000000000000014,-99.99999999999999 L59.000000000000014,-99.99999999999999" stroke="black" stroke-width="1" />
<path d="M59.000000000000014,-99.99999999999999 L64.50000000000001,-109.52627944162882" stroke="black" stroke-width="1" />
<path d="M64.50000000000001,-109.52627944162882 L70.00000000000001,-99.99999999999999" stroke="black" stroke-width="1" />
<path d="M70.00000000000001,-99.99999999999999 L81.00000000000001,-99.99999999999999" stroke="black" stroke-width="1" />
<path d="M81.00000000000001,-99.99999999999999 L86.50000000000001,-109.52627944162882" stroke="black" stroke-width="1" />
<path d="M86.50000000000001,-109.52627944162882 L81.00000000000001,-119.05255888325765" stroke="black" stroke-width="1" />
<path d="M81.00000000000001,-119.05255888325765 L92.00000000000001,-119.05255888325765" stroke="black" stroke-width="1" />
<path d="M92.00000000000001,-119.05255888325765 L97.50000000000001,-128.57883832488648" stroke="black" stroke-width="1" />
<path d="M97.50000000000001,-128.57883832488648 L103.00000000000001,-119.05255888325765" stroke="black" stroke-width="1" />
<path d="M103.00000000000001,-119.05255888325765 L114.00000000000001,-119.05255888325765" stroke="black" stroke-width="1" />
<path d="M114.00000000000001,-119.05255888325765 L108.50000000000001,-109.52627944162882" stroke="black" stroke-width="1" />
<path d="M108.50000000000001,-109.52627944162882 L114.00000000000001,-99.99999999999999" stroke="black" stroke-width="1" />
<path d="M114.00000000000001,-99.99999999999999 L125.00000000000001,-99.99999999999999" stroke="black" stroke-width="1" />
<path d="M125.00000000000001,-99.99999999999999 L130.50000000000003,-109.52627944162882" stroke="black" stroke-width="1" />
<path d="M130.50000000000003,-109.52627944162882 L136.00000000000003,-99.99999999999999" stroke="black" stroke-width="1" />
<path d="M136.00000000000003,-99.99999999999999 L147.00000000000003,-99.99999999999999" stroke="black" stroke-width="1" />
<path d="M147.00000000000003,-99.99999999999999 L141.50000000000003,-90.47372055837116" stroke="black" stroke-width="1" />
<path d="M141.50000000000003,-90.47372055837116 L147.00000000000003,-80.94744111674233" stroke="black" stroke-width="1" />
<path d="M147.00000000000003,-80.94744111674233 L136.00000000000003,-80.94744111674233" stroke="black" stroke-width="1" />
<path d="M136.00000000000003,-80.94744111674233 L130.50000000000003,-71.4211616751135" stroke="black" stroke-width="1" />
<path d="M130.50000000000003,-71.4211616751135 L136.00000000000003,-61.89488223348467" stroke="black" stroke-width="1" />
<path d="M136.00000000000003,-61.89488223348467 L147.00000000000003,-61.89488223348467" stroke="black" stroke-width="1" />
<path d="M147.00000000000003,-61.89488223348467 L141.50000000000003,-52.36860279185585" stroke="black" stroke-width="1" />
<path d="M141.50000000000003,-52.36860279185585 L147.00000000000003,-42.842323350227026" stroke="black" stroke-width="1" />
<path d="M147.00000000000003,-42.842323350227026 L136.00000000000003,-42.842323350227026" stroke="black" stroke-width="1" />
<path d="M136.00000000000003,-42.842323350227026 L130.50000000000003,-33.3160439085982" stroke="black" stroke-width="1" />
<path d="M130.50000000000003,-33.3160439085982 L125.00000000000003,-42.842323350227026" stroke="black" stroke-width="1" />
<path d="M125.00000000000003,-42.842323350227026 L114.00000000000003,-42.842323350227026" stroke="black" stroke-width="1" />
<path d="M114.00000000000003,-42.842323350227026 L108.50000000000003,-33.3160439085982" stroke="black" stroke-width="1" />
<path d="M108.50000000000003,-33.3160439085982 L114.00000000000003,-23.78976446696938" stroke="black" stroke-width="1" />
<path d="M114.00000000000003,-23.78976446696938 L103.00000000000003,-23.78976446696938" stroke="black" stroke-width="1" />
<path d="M103.00000000000003,-23.78976446696938 L97.50000000000003,-14.263485025340554" stroke="black" stroke-width="1" />
<path d="M97.50000000000003,-14.263485025340554 L103.00000000000003,-4.737205583711729" stroke="black" stroke-width="1" />
<path d="M103.00000000000003,-4.737205583711729 L114.00000000000003,-4.737205583711729" stroke="black" stroke-width="1" />
<path d="M114.00000000000003,-4.737205583711729 L108.50000000000003,4.7890738579170975" stroke="black" stroke-width="1" />
<path d="M108.50000000000003,4.7890738579170975 L114.00000000000003,14.315353299545922" stroke="black" stroke-width="1" />
<path d="M114.00000000000003,14.315353299545922 L125.00000000000003,14.315353299545922" stroke="black" stroke-width="1" />
<path d="M125.00000000000003,14.315353299545922 L130.50000000000003,4.7890738579170975" stroke="black" stroke-width="1" />
<path d="M130.50000000000003,4.7890738579170975 L136.00000000000003,14.315353299545922" stroke="black" stroke-width="1" />
<path d="M136.00000000000003,14.315353299545922 L147.00000000000003,14.315353299545922" stroke="black" stroke-width="1" />
<path d="M147.00000000000003,14.315353299545922 L141.50000000000003,23.84163274117475" stroke="black" stroke-width="1" />
<path d="M141.50000000000003,23.84163274117475 L147.00000000000003,33.36791218280357" stroke="black" stroke-width="1" />
<path d="M147.00000000000003,33.36791218280357 L136.00000000000003,33.36791218280357" stroke="black" stroke-width="1" />
<path d="M136.00000000000003,33.36791218280357 L130.50000000000003,42.894191624432395" stroke="black" stroke-width="1" />
<path d="M130.50000000000003,42.894191624432395 L136.00000000000003,52.42047106606122" stroke="black" stroke-width="1" />
<path d="M136.00000000000003,52.42047106606122 L147.00000000000003,52.42047106606122" stroke="black" stroke-width="1" />
<path d="M147.00000000000003,52.42047106606122 L141.50000000000003,61.94675050769004" stroke="black" stroke-width="1" />
<path d="M141.50000000000003,61.94675050769004 L147.00000000000003,71.47302994931887" stroke="black" stroke-width="1" />
<path d="M147.00000000000003,71.47302994931887 L136.00000000000003,71.47302994931887" stroke="black" stroke-width="1" />
<path d="M136.00000000000003,71.47302994931887 L130.50000000000003,80.9993093909477" stroke="black" stroke-width="1" />
<path d="M130.50000000000003,80.9993093909477 L125.00000000000003,71.47302994931889" stroke="black" stroke-width="1" />
<path d="M125.00000000000003,71.47302994931889 L114.00000000000003,71.47302994931889" stroke="black" stroke-width="1" />
<path d="M114.00000000000003,71.47302994931889 L108.50000000000003,80.99930939094772" stroke="black" stroke-width="1" />
<path d="M108.50000000000003,80.99930939094772 L114.00000000000003,90.52558883257655" stroke="black" stroke-width="1" />
<path d="M114.00000000000003,90.52558883257655 L103.00000000000003,90.52558883257655" stroke="black" stroke-width="1" />
<path d="M103.00000000000003,90.52558883257655 L97.50000000000003,100.05186827420538" stroke="black" stroke-width="1" />
<path d="M97.50000000000003,100.05186827420538 L92.00000000000003,90.52558883257655" stroke="black" stroke-width="1" />
<path d="M92.00000000000003,90.52558883257655 L81.00000000000003,90.52558883257655" stroke="black" stroke-width="1" />
<path d="M81.00000000000003,90.52558883257655 L86.50000000000003,80.99930939094772" stroke="black" stroke-width="1" />
<path d="M86.50000000000003,80.99930939094772 L81.00000000000003,71.47302994931889" stroke="black" stroke-width="1" />
<path d="M81.00000000000003,71.47302994931889 L70.00000000000003,71.47302994931889" stroke="black" stroke-width="1" />
<path d="M70.00000000000003,71.47302994931889 L64.50000000000003,80.99930939094772" stroke="black" stroke-width="1" />
<path d="M64.50000000000003,80.99930939094772 L59.00000000000002,71.47302994931889" stroke="black" stroke-width="1" />
<path d="M59.00000000000002,71.47302994931889 L48.00000000000002,71.47302994931889" stroke="black" stroke-width="1" />
<path d="M48.00000000000002,71.47302994931889 L42.50000000000002,80.99930939094772" stroke="black" stroke-width="1" />
<path d="M42.50000000000002,80.99930939094772 L48.00000000000002,90.52558883257655" stroke="black" stroke-width="1" />
<path d="M48.00000000000002,90.52558883257655 L37.00000000000002,90.52558883257655" stroke="black" stroke-width="1" />
<path d="M37.00000000000002,90.52558883257655 L31.500000000000025,100.05186827420538" stroke="black" stroke-width="1" />
<path d="M31.500000000000025,100.05186827420538 L37.00000000000003,109.5781477158342" stroke="black" stroke-width="1" />
<path d="M37.00000000000003,109.5781477158342 L48.00000000000003,109.5781477158342" stroke="black" stroke-width="1" />
<path d="M48.00000000000003,109.5781477158342 L42.50000000000003,119.10442715746304" stroke="black" stroke-width="1" />
<path d="M42.50000000000003,119.10442715746304 L48.00000000000003,128.63070659909187" stroke="black" stroke-width="1" />
<path d="M48.00000000000003,128.63070659909187 L37.00000000000003,128.63070659909187" stroke="black" stroke-width="1" />
<path d="M37.00000000000003,128.63070659909187 L31.500000000000032,138.15698604072068" stroke="black" stroke-width="1" />
<path d="M31.500000000000032,138.15698604072068 L26.00000000000003,128.63070659909187" stroke="black" stroke-width="1" />
<path d="M26.00000000000003,128.63070659909187 L15.000000000000028,128.63070659909187" stroke="black" stroke-width="1" />
<path d="M15.000000000000028,128.63070659909187 L9.500000000000032,138.15698604072068" stroke="black" stroke-width="1" />
<path d="M9.500000000000032,138.15698604072068 L15.000000000000032,147.6832654823495" stroke="black" stroke-width="1" />
<path d="M15.000000000000032,147.6832654823495 L4.000000000000032,147.6832654823495" stroke="black" stroke-width="1" />
<path d="M4.000000000000032,147.6832654823495 L-1.4999999999999654,157.2095449239783" stroke="black" stroke-width="1" />
<path d="M-1.4999999999999654,157.2095449239783 L-6.999999999999971,147.6832654823495" stroke="black" stroke-width="1" />
<path d="M-6.999999999999971,147.6832654823495 L-17.99999999999997,147.6832654823495" stroke="black" stroke-width="1" />
<path d="M-17.99999999999997,147.6832654823495 L-12.499999999999972,138.15698604072068" stroke="black" stroke-width="1" />
<path d="M-12.499999999999972,138.15698604072068 L-17.99999999999998,128.63070659909187" stroke="black" stroke-width="1" />
<path d="M-17.99999999999998,128.63070659909187 L-28.99999999999998,128.63070659909187" stroke="black" stroke-width="1" />
<path d="M-28.99999999999998,128.63070659909187 L-34.49999999999998,138.15698604072068" stroke="black" stroke-width="1" />
<path d="M-34.49999999999998,138.15698604072068 L-39.999999999999986,128.63070659909187" stroke="black" stroke-width="1" />
<path d="M-39.999999999999986,128.63070659909187 L-50.999999999999986,128.63070659909187" stroke="black" stroke-width="1" />
<path d="M-50.999999999999986,128.63070659909187 L-45.499999999999986,119.10442715746304" stroke="black" stroke-width="1" />
<path d="M-45.499999999999986,119.10442715746304 L-50.99999999999999,109.5781477158342" stroke="black" stroke-width="1" />
<path d="M-50.99999999999999,109.5781477158342 L-39.99999999999999,109.5781477158342" stroke="black" stroke-width="1" />
<path d="M-39.99999999999999,109.5781477158342 L-34.49999999999999,100.05186827420538" stroke="black" stroke-width="1" />
<path d="M-34.49999999999999,100.05186827420538 L-40.0,90.52558883257655" stroke="black" stroke-width="1" />
<path d="M-40.0,90.52558883257655 L-51.0,90.52558883257655" stroke="black" stroke-width="1" />
<path d="M-51.0,90.52558883257655 L-45.5,80.99930939094772" stroke="black" stroke-width="1" />
<path d="M-45.5,80.99930939094772 L-51.00000000000001,71.47302994931889" stroke="black" stroke-width="1" />
<path d="M-51.00000000000001,71.47302994931889 L-62.00000000000001,71.47302994931889" stroke="black" stroke-width="1" />
<path d="M-62.00000000000001,71.47302994931889 L-67.5,80.99930939094772" stroke="black" stroke-width="1" />
<path d="M-67.5,80.99930939094772 L-73.0,71.47302994931889" stroke="black" stroke-width="1" />
<path d="M-73.0,71.47302994931889 L-84.0,71.47302994931889" stroke="black" stroke-width="1" />
<path d="M-84.0,71.47302994931889 L-89.5,80.99930939094772" stroke="black" stroke-width="1" />
<path d="M-89.5,80.99930939094772 L-84.0,90.52558883257655" stroke="black" stroke-width="1" />
<path d="M-84.0,90.52558883257655 L-95.0,90.52558883257655" stroke="black" stroke-width="1" />
<path d="M-95.0,90.52558883257655 L-100.5,100.05186827420538" stroke="black" stroke-width="1" />
<path d="M-100.5,100.05186827420538 L-106.0,90.52558883257655" stroke="black" stroke-width="1" />
<path d="M-106.0,90.52558883257655 L-117.0,90.52558883257655" stroke="black" stroke-width="1" />
<path d="M-117.0,90.52558883257655 L-111.5,80.99930939094772" stroke="black" stroke-width="1" />
<path d="M-111.5,80.99930939094772 L-117.0,71.47302994931889" stroke="black" stroke-width="1" />
<path d="M-117.0,71.47302994931889 L-128.0,71.47302994931889" stroke="black" stroke-width="1" />
<path d="M-128.0,71.47302994931889 L-133.5,80.99930939094772" stroke="black" stroke-width="1" />
<path d="M-133.5,80.99930939094772 L-139.0,71.47302994931889" stroke="black" stroke-width="1" />
<path d="M-139.0,71.47302994931889 L-150.0,71.47302994931889" stroke="black" stroke-width="1" />
<path d="M-150.0,71.47302994931889 L-144.5,61.94675050769006" stroke="black" stroke-width="1" />
<path d="M-144.5,61.94675050769006 L-150.0,52.42047106606124" stroke="black" stroke-width="1" />
<path d="M-150.0,52.42047106606124 L-139.0,52.42047106606124" stroke="black" stroke-width="1" />
<path d="M-139.0,52.42047106606124 L-133.5,42.894191624432416" stroke="black" stroke-width="1" />
<path d="M-133.5,42.894191624432416 L-139.0,33.36791218280359" stroke="black" stroke-width="1" />
<path d="M-139.0,33.36791218280359 L-150.0,33.36791218280359" stroke="black" stroke-width="1" />
<path d="M-150.0,33.36791218280359 L-144.5,23.84163274117477" stroke="black" stroke-width="1" />
<path d="M-144.5,23.84163274117477 L-150.0,14.315353299545947" stroke="black" stroke-width="1" />
<path d="M-150.0,14.315353299545947 L-139.0,14.315353299545944" stroke="black" stroke-width="1" />
<path d="M-139.0,14.315353299545944 L-133.5,4.789073857917119" stroke="black" stroke-width="1" />
<path d="M-133.5,4.789073857917119 L-128.0,14.315353299545945" stroke="black" stroke-width="1" />
<path d="M-128.0,14.315353299545945 L-117.0,14.315353299545942" stroke="black" stroke-width="1" />
<path d="M-117.0,14.315353299545942 L-111.5,4.789073857917117" stroke="black" stroke-width="1" />
<path d="M-111.5,4.789073857917117 L-117.0,-4.737205583711706" stroke="black" stroke-width="1" />
<path d="M-117.0,-4.737205583711706 L-106.0,-4.737205583711709" stroke="black" stroke-width="1" />
<path d="M-106.0,-4.737205583711709 L-100.5,-14.263485025340533" stroke="black" stroke-width="1" />
<path d="M-100.5,-14.263485025340533 L-106.0,-23.789764466969356" stroke="black" stroke-width="1" />
<path d="M-106.0,-23.789764466969356 L-117.0,-23.789764466969356" stroke="black" stroke-width="1" />
<path d="M-117.0,-23.789764466969356 L-111.5,-33.31604390859818" stroke="black" stroke-width="1" />
<path d="M-111.5,-33.31604390859818 L-117.0,-42.842323350227005" stroke="black" stroke-width="1" />
<path d="M-117.0,-42.842323350227005 L-128.0,-42.842323350227005" stroke="black" stroke-width="1" />
<path d="M-128.0,-42.842323350227005 L-133.5,-33.316043908598175" stroke="black" stroke-width="1" />
<path d="M-133.5,-33.316043908598175 L-139.0,-42.842323350227" stroke="black" stroke-width="1" />
<path d="M-139.0,-42.842323350227 L-150.0,-42.842323350227" stroke="black" stroke-width="1" />
<path d="M-150.0,-42.842323350227 L-144.5,-52.36860279185582" stroke="black" stroke-width="1" />
<path d="M-144.5,-52.36860279185582 L-150.0,-61.894882233484644" stroke="black" stroke-width="1" />
<path d="M-150.0,-61.894882233484644 L-139.0,-61.894882233484644" stroke="black" stroke-width="1" />
<path d="M-139.0,-61.894882233484644 L-133.5,-71.42116167511347" stroke="black" stroke-width="1" />
<path d="M-133.5,-71.42116167511347 L-139.0,-80.94744111674228" stroke="black" stroke-width="1" />
<path d="M-139.0,-80.94744111674228 L-150.0,-80.94744111674228" stroke="black" stroke-width="1" />
<path d="M-150.0,-80.94744111674228 L-144.5,-90.47372055837111" stroke="black" stroke-width="1" />
<path d="M-144.5,-90.47372055837111 L-150.0,-99.99999999999994" stroke="black" stroke-width="1" />
</svg>