<?xml version='1.0' encoding='UTF-8'?>
<!-- This file was generated by dvisvgm 2.13.3 -->
<svg version='1.1' xmlns='http://www.w3.org/2000/svg' xmlns:xlink='http://www.w3.org/1999/xlink' width='252.121pt' height='66.531708pt' viewBox='-72.00005 -68.680118 252.121 66.531708'>
<defs>
<font id='cmr10' horiz-adv-x='0'>
<font-face font-family='cmr10' units-per-em='1000' ascent='750' descent='250'/>
<glyph unicode='2' horiz-adv-x='500' vert-adv-y='500' glyph-name='two' d='M127 77L233 180C389 318 449 372 449 472C449 586 359 666 237 666C124 666 50 574 50 485C50 429 100 429 103 429C120 429 155 441 155 482C155 508 137 534 102 534C94 534 92 534 89 533C112 598 166 635 224 635C315 635 358 554 358 472C358 392 308 313 253 251L61 37C50 26 50 24 50 0H421L449 174H424C419 144 412 100 402 85C395 77 329 77 307 77H127Z'/>
<glyph unicode='5' horiz-adv-x='500' vert-adv-y='500' glyph-name='five' d='M449 201C449 320 367 420 259 420C211 420 168 404 132 369V564C152 558 185 551 217 551C340 551 410 642 410 655C410 661 407 666 400 666C399 666 397 666 392 663C372 654 323 634 256 634C216 634 170 641 123 662C115 665 113 665 111 665C101 665 101 657 101 641V345C101 327 101 319 115 319C122 319 124 322 128 328C139 344 176 398 257 398C309 398 334 352 342 334C358 297 360 258 360 208C360 173 360 113 336 71C312 32 275 6 229 6C156 6 99 59 82 118C85 117 88 116 99 116C132 116 149 141 149 165S132 214 99 214C85 214 50 207 50 161C50 75 119-22 231-22C347-22 449 74 449 201Z'/>
<glyph unicode='8' horiz-adv-x='500' vert-adv-y='500' glyph-name='eight' d='M163 457C117 487 113 521 113 538C113 599 178 641 249 641C322 641 386 589 386 517C386 460 347 412 287 377L163 457ZM309 362C381 399 430 451 430 517C430 609 341 666 250 666C150 666 69 592 69 499C69 481 71 436 113 389C124 377 161 352 186 335C128 306 42 250 42 151C42 45 144-22 249-22C362-22 457 61 457 168C457 204 446 249 408 291C389 312 373 322 309 362ZM209 320L332 242C360 223 407 193 407 132C407 58 332 6 250 6C164 6 92 68 92 151C92 209 124 273 209 320Z'/>
<glyph unicode='9' horiz-adv-x='500' vert-adv-y='500' glyph-name='nine' d='M367 318V286C367 52 263 6 205 6C188 6 134 8 107 42C151 42 159 71 159 88C159 119 135 134 113 134C97 134 67 125 67 86C67 19 121-22 206-22C335-22 457 114 457 329C457 598 342 666 253 666C198 666 149 648 106 603C65 558 42 516 42 441C42 316 130 218 242 218C303 218 344 260 367 318ZM243 241C227 241 181 241 150 304C132 341 132 391 132 440C132 494 132 541 153 578C180 628 218 641 253 641C299 641 332 607 349 562C361 530 365 467 365 421C365 338 331 241 243 241Z'/>
<glyph unicode='L' horiz-adv-x='625' vert-adv-y='625' glyph-name='L' d='M582 258H557C546 156 532 31 356 31H274C227 31 225 38 225 71V604C225 638 225 652 320 652H353V683C317 680 226 680 185 680C146 680 68 680 33 683V652H57C134 652 136 641 136 605V78C136 42 134 31 57 31H33V0H554L582 258Z'/>
<glyph unicode='a' horiz-adv-x='500' vert-adv-y='500' glyph-name='a' d='M333 76C337 36 364-6 411-6C432-6 493 8 493 89V145H468V89C468 31 443 25 432 25C399 25 395 70 395 75V275C395 317 395 356 359 393C320 432 270 448 222 448C140 448 71 401 71 335C71 305 91 288 117 288C145 288 163 308 163 334C163 346 158 379 112 380C139 415 188 426 220 426C269 426 326 387 326 298V261C275 258 205 255 142 225C67 191 42 139 42 95C42 14 139-11 202-11C268-11 314 29 333 76ZM326 240V140C326 45 254 11 209 11C160 11 119 46 119 96C119 151 161 234 326 240Z'/>
<glyph unicode='e' horiz-adv-x='444' vert-adv-y='444' glyph-name='e' d='M112 252C118 401 202 426 236 426C339 426 349 291 349 252H112ZM111 231H390C412 231 415 231 415 252C415 351 361 448 236 448C120 448 28 345 28 220C28 86 133-11 248-11C370-11 415 100 415 119C415 129 407 131 402 131C393 131 391 125 389 117C354 14 264 14 254 14C204 14 164 44 141 81C111 129 111 195 111 231Z'/>
<glyph unicode='i' horiz-adv-x='277' vert-adv-y='277' glyph-name='i' d='M177 442L37 431V400C102 400 111 394 111 345V76C111 31 100 31 33 31V0C65 1 119 3 143 3C178 3 213 1 247 0V31C181 31 177 36 177 75V442ZM181 616C181 648 156 669 128 669C97 669 75 642 75 616C75 589 97 563 128 563C156 563 181 584 181 616Z'/>
<glyph unicode='l' horiz-adv-x='277' vert-adv-y='277' glyph-name='l' d='M177 694L33 683V652C103 652 111 645 111 596V76C111 31 100 31 33 31V0C66 1 119 3 144 3S218 1 255 0V31C188 31 177 31 177 76V694Z'/>
<glyph unicode='m' horiz-adv-x='833' vert-adv-y='833' glyph-name='m' d='M110 344V76C110 31 99 31 32 31V0C67 1 118 3 145 3C171 3 223 1 257 0V31C190 31 179 31 179 76V260C179 364 250 420 314 420C377 420 388 366 388 309V76C388 31 377 31 310 31V0C345 1 396 3 423 3C449 3 501 1 535 0V31C468 31 457 31 457 76V260C457 364 528 420 592 420C655 420 666 366 666 309V76C666 31 655 31 588 31V0C623 1 674 3 701 3C727 3 779 1 813 0V31C761 31 736 31 735 61V252C735 338 735 369 704 405C690 422 657 442 599 442C515 442 471 382 454 344C440 431 366 442 321 442C248 442 201 399 173 337V442L32 431V400C102 400 110 393 110 344Z'/>
<glyph unicode='n' horiz-adv-x='555' vert-adv-y='555' glyph-name='n' d='M110 344V76C110 31 99 31 32 31V0C67 1 118 3 145 3C171 3 223 1 257 0V31C190 31 179 31 179 76V260C179 364 250 420 314 420C377 420 388 366 388 309V76C388 31 377 31 310 31V0C345 1 396 3 423 3C449 3 501 1 535 0V31C483 31 458 31 457 61V252C457 338 457 369 426 405C412 422 379 442 321 442C248 442 201 399 173 337V442L32 431V400C102 400 110 393 110 344Z'/>
<glyph unicode='o' horiz-adv-x='500' vert-adv-y='500' glyph-name='o' d='M471 214C471 342 371 448 250 448C125 448 28 339 28 214C28 85 132-11 249-11C370-11 471 87 471 214ZM250 14C207 14 163 35 136 81C111 125 111 186 111 222C111 261 111 315 135 359C162 405 209 426 249 426C293 426 336 404 362 361S388 260 388 222C388 186 388 132 366 88C344 43 300 14 250 14Z'/>
<glyph unicode='p' horiz-adv-x='555' vert-adv-y='555' glyph-name='p' d='M172 376V442L28 431V400C99 400 106 394 106 350V-118C106-163 95-163 28-163V-194C62-193 114-191 140-191C167-191 218-193 253-194V-163C186-163 175-163 175-118V50V59C180 43 222-11 298-11C417-11 521 87 521 216C521 343 424 442 312 442C234 442 192 398 172 376ZM175 114V337C204 388 253 417 304 417C377 417 438 329 438 216C438 95 368 11 294 11C254 11 216 31 189 72C175 93 175 94 175 114Z'/>
<glyph unicode='r' horiz-adv-x='391' vert-adv-y='391' glyph-name='r' d='M167 332V442L28 431V400C98 400 106 393 106 344V76C106 31 95 31 28 31V0C67 1 114 3 142 3C182 3 229 3 269 0V31H248C174 31 172 42 172 78V232C172 331 214 420 290 420C297 420 299 420 301 419C298 418 278 406 278 380C278 352 299 337 321 337C339 337 364 349 364 381S333 442 290 442C217 442 181 375 167 332Z'/>
<glyph unicode='s' horiz-adv-x='394' vert-adv-y='394' glyph-name='s' d='M208 194C230 190 312 174 312 102C312 51 277 11 199 11C115 11 79 68 60 153C57 166 56 170 46 170C33 170 33 163 33 145V13C33-4 33-11 44-11C49-11 50-10 69 9C71 11 71 13 89 32C133-10 178-11 199-11C314-11 360 56 360 128C360 181 330 211 318 223C285 255 246 263 204 271C148 282 81 295 81 353C81 388 107 429 193 429C303 429 308 339 310 308C311 299 320 299 322 299C335 299 335 304 335 323V424C335 441 335 448 324 448C319 448 317 448 304 436C301 432 291 423 287 420C249 448 208 448 193 448C71 448 33 381 33 325C33 290 49 262 76 240C108 214 136 208 208 194Z'/>
<glyph unicode='t' horiz-adv-x='388' vert-adv-y='388' glyph-name='t' d='M173 400H316V431H173V615H148C147 533 117 426 19 422V400H104V124C104 1 197-11 233-11C304-11 332 60 332 124V181H307V126C307 52 277 14 240 14C173 14 173 105 173 122V400Z'/>
</font>
</defs>
<style type='text/css'>
<![CDATA[text.f0 {font-family:cmr10;font-size:9.96264px}
]]>
</style>
<g id='page1'>
<path d='M-7.1719-36.3633V-53.3711H9.8398V-36.3633Z' fill='#e6e6e6'/>
<path d='M-7.1719-36.3633V-53.3711H9.8398V-36.3633Z' stroke='#000' fill='none' stroke-width='.3985' stroke-miterlimit='10'/>
<path d='M9.8398-36.3633V-53.3711H26.8477V-36.3633Z' fill='#e6e6e6'/>
<path d='M9.8398-36.3633V-53.3711H26.8477V-36.3633Z' stroke='#000' fill='none' stroke-width='.3985' stroke-miterlimit='10'/>
<path d='M43.8555-36.3633V-53.3711H60.8633V-36.3633Z' fill='#e6e6e6'/>
<path d='M43.8555-36.3633V-53.3711H60.8633V-36.3633Z' stroke='#000' fill='none' stroke-width='.3985' stroke-miterlimit='10'/>
<path d='M60.8633-36.3633V-53.3711H77.8707V-36.3633Z' fill='#e6e6e6'/>
<path d='M60.8633-36.3633V-53.3711H77.8707V-36.3633Z' stroke='#000' fill='none' stroke-width='.3985' stroke-miterlimit='10'/>
<path d='M94.8787-36.3633V-53.3711H111.8867V-36.3633Z' fill='#e6e6e6'/>
<path d='M94.8787-36.3633V-53.3711H111.8867V-36.3633Z' stroke='#000' fill='none' stroke-width='.3985' stroke-miterlimit='10'/>
<path d='M111.8867-36.3633V-53.3711H128.8947V-36.3633Z' fill='#e6e6e6'/>
<path d='M111.8867-36.3633V-53.3711H128.8947V-36.3633Z' stroke='#000' fill='none' stroke-width='.3985' stroke-miterlimit='10'/>
<path d='M145.9067-36.3633V-53.3711H162.9137V-36.3633Z' fill='#e6e6e6'/>
<path d='M145.9067-36.3633V-53.3711H162.9137V-36.3633Z' stroke='#000' fill='none' stroke-width='.3985' stroke-miterlimit='10'/>
<path d='M162.9137-36.3633V-53.3711H179.9217V-36.3633Z' fill='#e6e6e6'/>
<path d='M162.9137-36.3633V-53.3711H179.9217V-36.3633Z' stroke='#000' fill='none' stroke-width='.3985' stroke-miterlimit='10'/>
<path d='M-7.1719-2.34766V-19.35547H9.8398V-2.34766Z' stroke='#000' fill='none' stroke-width='.3985' stroke-miterlimit='10'/>
<path d='M43.8555-2.34766V-19.35547H60.8633V-2.34766Z' stroke='#000' fill='none' stroke-width='.3985' stroke-miterlimit='10'/>
<path d='M94.8787-2.34766V-19.35547H111.8867V-2.34766Z' stroke='#000' fill='none' stroke-width='.3985' stroke-miterlimit='10'/>
<path d='M145.9067-2.34766V-19.35547H162.9137V-2.34766Z' stroke='#000' fill='none' stroke-width='.3985' stroke-miterlimit='10'/>
<path d='M-32.683593-44.8672H-10.9297' stroke='#00f' fill='none' stroke-width='.49814' stroke-miterlimit='10'/>
<path d='M-7.66802-44.86719L-10.804736-46.73438V-44.86719V-43Z' fill='#00f'/>
<path d='M-7.66802-44.86719L-10.804736-46.73438V-44.86719V-43Z' stroke='#00f' fill='none' stroke-width='.49814' stroke-miterlimit='10'/>
<text class='f0' x='-32.682266' y='-10.849923' transform='matrix(1 0 0 1 -27.6214 -51.0224)'>Liste</text>
<path d='M-71.8008-32.9609V-56.7734H-29.28125V-32.9609Z' stroke='#000' fill='none' stroke-width='.3985' stroke-miterlimit='10'/>
<text class='f0' x='-32.682266' y='-10.849923' transform='matrix(1 0 0 1 -33.6406 -31.6582)'>premier</text>
<text class='f0' x='-32.682266' y='-10.849923' transform='matrix(1 0 0 1 26.46945 -47.5655)'>maillon</text>
<path d='M20.3672-44.8672H40.0977' stroke='#00f' fill='none' stroke-width='.49814' stroke-miterlimit='10'/>
<path d='M16.89064-44.86719C16.89064-43.906252 17.66798-43.12891 18.62892-43.12891C19.58985-43.12891 20.367199-43.906252 20.367199-44.86719C20.367199-45.828127 19.58985-46.60547 18.62892-46.60547C17.66798-46.60547 16.89064-45.828127 16.89064-44.86719Z' fill='#00f'/>
<path d='M16.89064-44.86719C16.89064-43.906252 17.66798-43.12891 18.62892-43.12891C19.58985-43.12891 20.367199-43.906252 20.367199-44.86719C20.367199-45.828127 19.58985-46.60547 18.62892-46.60547C17.66798-46.60547 16.89064-45.828127 16.89064-44.86719Z' stroke='#00f' fill='none' stroke-width='.49814' stroke-miterlimit='10'/>
<path d='M43.35543-44.86719L40.222616-46.73438V-44.86719V-43Z' fill='#00f'/>
<path d='M43.35543-44.86719L40.222616-46.73438V-44.86719V-43Z' stroke='#00f' fill='none' stroke-width='.49814' stroke-miterlimit='10'/>
<path d='M71.3907-44.8672H91.1207' stroke='#00f' fill='none' stroke-width='.49814' stroke-miterlimit='10'/>
<path d='M67.91409-44.86719C67.91409-43.906252 68.69534-43.12891 69.65237-43.12891C70.61331-43.12891 71.390656-43.906252 71.390656-44.86719C71.390656-45.828127 70.61331-46.60547 69.65237-46.60547C68.69534-46.60547 67.91409-45.828127 67.91409-44.86719Z' fill='#00f'/>
<path d='M67.91409-44.86719C67.91409-43.906252 68.69534-43.12891 69.65237-43.12891C70.61331-43.12891 71.390656-43.906252 71.390656-44.86719C71.390656-45.828127 70.61331-46.60547 69.65237-46.60547C68.69534-46.60547 67.91409-45.828127 67.91409-44.86719Z' stroke='#00f' fill='none' stroke-width='.49814' stroke-miterlimit='10'/>
<path d='M94.38282-44.86719L91.2461-46.73438V-44.86719V-43Z' fill='#00f'/>
<path d='M94.38282-44.86719L91.2461-46.73438V-44.86719V-43Z' stroke='#00f' fill='none' stroke-width='.49814' stroke-miterlimit='10'/>
<path d='M122.4177-44.8672H142.1447' stroke='#00f' fill='none' stroke-width='.49814' stroke-miterlimit='10'/>
<path d='M118.94177-44.86719C118.94177-43.906252 119.71912-43.12891 120.68005-43.12891C121.63708-43.12891 122.418335-43.906252 122.418335-44.86719C122.418335-45.828127 121.63708-46.60547 120.68005-46.60547C119.71912-46.60547 118.94177-45.828127 118.94177-44.86719Z' fill='#00f'/>
<path d='M118.94177-44.86719C118.94177-43.906252 119.71912-43.12891 120.68005-43.12891C121.63708-43.12891 122.418335-43.906252 122.418335-44.86719C122.418335-45.828127 121.63708-46.60547 120.68005-46.60547C119.71912-46.60547 118.94177-45.828127 118.94177-44.86719Z' stroke='#00f' fill='none' stroke-width='.49814' stroke-miterlimit='10'/>
<path d='M145.40648-44.86719L142.269757-46.73438V-44.86719V-43Z' fill='#00f'/>
<path d='M145.40648-44.86719L142.269757-46.73438V-44.86719V-43Z' stroke='#00f' fill='none' stroke-width='.49814' stroke-miterlimit='10'/>
<path d='M1.3359-42.8438V-23.1133' stroke='#00f' fill='none' stroke-width='.49814' stroke-miterlimit='10'/>
<path d='M1.33594-46.31644C.375002-46.31644-.40234-45.53909-.40234-44.57816C-.40234-43.62112 .375002-42.84378 1.33594-42.84378C2.292971-42.84378 3.07422-43.62112 3.07422-44.57816C3.07422-45.53909 2.292971-46.31644 1.33594-46.31644Z' fill='#00f'/>
<path d='M1.33594-46.31644C.375002-46.31644-.40234-45.53909-.40234-44.57816C-.40234-43.62112 .375002-42.84378 1.33594-42.84378C2.292971-42.84378 3.07422-43.62112 3.07422-44.57816C3.07422-45.53909 2.292971-46.31644 1.33594-46.31644Z' stroke='#00f' fill='none' stroke-width='.49814' stroke-miterlimit='10'/>
<path d='M1.33594-19.85153L3.20313-22.988252H1.33594H-.53515Z' fill='#00f'/>
<path d='M1.33594-19.85153L3.20313-22.988252H1.33594H-.53515Z' stroke='#00f' fill='none' stroke-width='.49814' stroke-miterlimit='10'/>
<path d='M52.3594-42.8438V-23.1133' stroke='#00f' fill='none' stroke-width='.49814' stroke-miterlimit='10'/>
<path d='M52.359393-46.31644C51.398455-46.31644 50.62111-45.53909 50.62111-44.57816C50.62111-43.62112 51.398455-42.84378 52.359393-42.84378C53.32033-42.84378 54.09767-43.62112 54.09767-44.57816C54.09767-45.53909 53.32033-46.31644 52.359393-46.31644Z' fill='#00f'/>
<path d='M52.359393-46.31644C51.398455-46.31644 50.62111-45.53909 50.62111-44.57816C50.62111-43.62112 51.398455-42.84378 52.359393-42.84378C53.32033-42.84378 54.09767-43.62112 54.09767-44.57816C54.09767-45.53909 53.32033-46.31644 52.359393-46.31644Z' stroke='#00f' fill='none' stroke-width='.49814' stroke-miterlimit='10'/>
<path d='M52.359393-19.85153L54.22658-22.988252H52.359393H50.49221Z' fill='#00f'/>
<path d='M52.359393-19.85153L54.22658-22.988252H52.359393H50.49221Z' stroke='#00f' fill='none' stroke-width='.49814' stroke-miterlimit='10'/>
<path d='M103.3827-42.8438V-23.1133' stroke='#00f' fill='none' stroke-width='.49814' stroke-miterlimit='10'/>
<path d='M103.383054-46.31644C102.422116-46.31644 101.64477-45.53909 101.64477-44.57816C101.64477-43.62112 102.422116-42.84378 103.383054-42.84378C104.343991-42.84378 105.12134-43.62112 105.12134-44.57816C105.12134-45.53909 104.343991-46.31644 103.383054-46.31644Z' fill='#00f'/>
<path d='M103.383054-46.31644C102.422116-46.31644 101.64477-45.53909 101.64477-44.57816C101.64477-43.62112 102.422116-42.84378 103.383054-42.84378C104.343991-42.84378 105.12134-43.62112 105.12134-44.57816C105.12134-45.53909 104.343991-46.31644 103.383054-46.31644Z' stroke='#00f' fill='none' stroke-width='.49814' stroke-miterlimit='10'/>
<path d='M103.383054-19.85153L105.25024-22.988252H103.383054H101.51587Z' fill='#00f'/>
<path d='M103.383054-19.85153L105.25024-22.988252H103.383054H101.51587Z' stroke='#00f' fill='none' stroke-width='.49814' stroke-miterlimit='10'/>
<path d='M154.4097-42.8438V-23.1133' stroke='#00f' fill='none' stroke-width='.49814' stroke-miterlimit='10'/>
<path d='M154.410617-46.31644C153.44968-46.31644 152.67234-45.53909 152.67234-44.57816C152.67234-43.62112 153.44968-42.84378 154.410617-42.84378C155.367649-42.84378 156.1489-43.62112 156.1489-44.57816C156.1489-45.53909 155.367649-46.31644 154.410617-46.31644Z' fill='#00f'/>
<path d='M154.410617-46.31644C153.44968-46.31644 152.67234-45.53909 152.67234-44.57816C152.67234-43.62112 153.44968-42.84378 154.410617-42.84378C155.367649-42.84378 156.1489-43.62112 156.1489-44.57816C156.1489-45.53909 155.367649-46.31644 154.410617-46.31644Z' stroke='#00f' fill='none' stroke-width='.49814' stroke-miterlimit='10'/>
<path d='M154.410617-19.85153L156.2778-22.988252H154.410617H152.53952Z' fill='#00f'/>
<path d='M154.410617-19.85153L156.2778-22.988252H154.410617H152.53952Z' stroke='#00f' fill='none' stroke-width='.49814' stroke-miterlimit='10'/>
<path d='M173.1167-44.8672C173.1167-45.8047 172.3557-46.5664 171.4177-46.5664C170.4767-46.5664 169.7147-45.8047 169.7147-44.8672C169.7147-43.9258 170.4767-43.1641 171.4177-43.1641C172.3557-43.1641 173.1167-43.9258 173.1167-44.8672Z' fill='#00f'/>
<path d='M173.1167-44.8672C173.1167-45.8047 172.3557-46.5664 171.4177-46.5664C170.4767-46.5664 169.7147-45.8047 169.7147-44.8672C169.7147-43.9258 170.4767-43.1641 171.4177-43.1641C172.3557-43.1641 173.1167-43.9258 173.1167-44.8672Z' stroke='#00f' fill='none' stroke-width='.3985' stroke-miterlimit='10'/>
<text class='f0' x='-32.682266' y='-10.849923' transform='matrix(1 0 0 1 31.5258 3.2102)'>5</text>
<text class='f0' x='-32.682266' y='-10.849923' transform='matrix(1 0 0 1 82.5506 3.2102)'>8</text>
<text class='f0' x='-32.682266' y='-10.849923' transform='matrix(1 0 0 1 133.5753 3.2102)'>2</text>
<text class='f0' x='-32.682266' y='-10.849923' transform='matrix(1 0 0 1 184.6003 3.2102)'>9</text>
</g>
</svg>