<?xml version="1.0" encoding="UTF-8"?>
<svg xmlns="http://www.w3.org/2000/svg" xmlns:xlink="http://www.w3.org/1999/xlink"
     viewBox="-50.0 -100.0 100 110">
<defs>
</defs>
<path d="M6.123233995736766e-15,0.0 L9.184850993605149e-15,-50.0" stroke="black" stroke-width="1" />
<path d="M9.184850993605149e-15,-50.0 L25.00000000000001,-50.0" stroke="black" stroke-width="1" />
<path d="M25.00000000000001,-50.0 L25.00000000000001,-37.5" stroke="black" stroke-width="1" />
<path d="M25.00000000000001,-37.5 L18.75000000000001,-37.5" stroke="black" stroke-width="1" />
<path d="M18.75000000000001,-37.5 L18.75000000000001,-40.625" stroke="black" stroke-width="1" />
<path d="M18.75000000000001,-37.5 L15.62500000000001,-37.5" stroke="black" stroke-width="1" />
<path d="M18.75000000000001,-37.5 L18.75000000000001,-34.375" stroke="black" stroke-width="1" />
<path d="M25.00000000000001,-37.5 L25.00000000000001,-31.25" stroke="black" stroke-width="1" />
<path d="M25.00000000000001,-31.25 L21.87500000000001,-31.25" stroke="black" stroke-width="1" />
<path d="M25.00000000000001,-31.25 L25.00000000000001,-28.125" stroke="black" stroke-width="1" />
<path d="M25.00000000000001,-31.25 L28.12500000000001,-31.25" stroke="black" stroke-width="1" />
<path d="M25.00000000000001,-37.5 L31.25000000000001,-37.5" stroke="black" stroke-width="1" />
<path d="M31.25000000000001,-37.5 L31.25000000000001,-34.375" stroke="black" stroke-width="1" />
<path d="M31.25000000000001,-37.5 L34.375000000000014,-37.5" stroke="black" stroke-width="1" />
<path d="M31.25000000000001,-37.5 L31.25000000000001,-40.625" stroke="black" stroke-width="1" />
<path d="M25.00000000000001,-50.0 L37.500000000000014,-50.0" stroke="black" stroke-width="1" />
<path d="M37.500000000000014,-50.0 L37.500000000000014,-43.75" stroke="black" stroke-width="1" />
<path d="M37.500000000000014,-43.75 L34.375000000000014,-43.75" stroke="black" stroke-width="1" />
<path d="M37.500000000000014,-43.75 L37.500000000000014,-40.625" stroke="black" stroke-width="1" />
<path d="M37.500000000000014,-43.75 L40.625000000000014,-43.75" stroke="black" stroke-width="1" />
<path d="M37.500000000000014,-50.0 L43.750000000000014,-50.0" stroke="black" stroke-width="1" />
<path d="M43.750000000000014,-50.0 L43.750000000000014,-46.875" stroke="black" stroke-width="1" />
<path d="M43.750000000000014,-50.0 L46.875000000000014,-50.0" stroke="black" stroke-width="1" />
<path d="M43.750000000000014,-50.0 L43.750000000000014,-53.125" stroke="black" stroke-width="1" />
<path d="M37.500000000000014,-50.0 L37.500000000000014,-56.25" stroke="black" stroke-width="1" />
<path d="M37.500000000000014,-56.25 L40.625000000000014,-56.25" stroke="black" stroke-width="1" />
<path d="M37.500000000000014,-56.25 L37.500000000000014,-59.375" stroke="black" stroke-width="1" />
<path d="M37.500000000000014,-56.25 L34.375000000000014,-56.25" stroke="black" stroke-width="1" />
<path d="M25.00000000000001,-50.0 L25.00000000000001,-62.5" stroke="black" stroke-width="1" />
<path d="M25.00000000000001,-62.5 L31.25000000000001,-62.5" stroke="black" stroke-width="1" />
<path d="M31.25000000000001,-62.5 L31.25000000000001,-59.375" stroke="black" stroke-width="1" />
<path d="M31.25000000000001,-62.5 L34.375000000000014,-62.5" stroke="black" stroke-width="1" />
<path d="M31.25000000000001,-62.5 L31.25000000000001,-65.625" stroke="black" stroke-width="1" />
<path d="M25.00000000000001,-62.5 L25.00000000000001,-68.75" stroke="black" stroke-width="1" />
<path d="M25.00000000000001,-68.75 L28.12500000000001,-68.75" stroke="black" stroke-width="1" />
<path d="M25.00000000000001,-68.75 L25.00000000000001,-71.875" stroke="black" stroke-width="1" />
<path d="M25.00000000000001,-68.75 L21.87500000000001,-68.75" stroke="black" stroke-width="1" />
<path d="M25.00000000000001,-62.5 L18.75000000000001,-62.5" stroke="black" stroke-width="1" />
<path d="M18.75000000000001,-62.5 L18.75000000000001,-65.625" stroke="black" stroke-width="1" />
<path d="M18.75000000000001,-62.5 L15.62500000000001,-62.5" stroke="black" stroke-width="1" />
<path d="M18.75000000000001,-62.5 L18.75000000000001,-59.375" stroke="black" stroke-width="1" />
<path d="M9.184850993605149e-15,-50.0 L1.071565949253934e-14,-75.0" stroke="black" stroke-width="1" />
<path d="M1.071565949253934e-14,-75.0 L12.50000000000001,-75.0" stroke="black" stroke-width="1" />
<path d="M12.50000000000001,-75.0 L12.50000000000001,-68.75" stroke="black" stroke-width="1" />
<path d="M12.50000000000001,-68.75 L9.37500000000001,-68.75" stroke="black" stroke-width="1" />
<path d="M12.50000000000001,-68.75 L12.50000000000001,-65.625" stroke="black" stroke-width="1" />
<path d="M12.50000000000001,-68.75 L15.62500000000001,-68.75" stroke="black" stroke-width="1" />
<path d="M12.50000000000001,-75.0 L18.75000000000001,-75.0" stroke="black" stroke-width="1" />
<path d="M18.75000000000001,-75.0 L18.75000000000001,-71.875" stroke="black" stroke-width="1" />
<path d="M18.75000000000001,-75.0 L21.87500000000001,-75.0" stroke="black" stroke-width="1" />
<path d="M18.75000000000001,-75.0 L18.75000000000001,-78.125" stroke="black" stroke-width="1" />
<path d="M12.50000000000001,-75.0 L12.50000000000001,-81.25" stroke="black" stroke-width="1" />
<path d="M12.50000000000001,-81.25 L15.62500000000001,-81.25" stroke="black" stroke-width="1" />
<path d="M12.50000000000001,-81.25 L12.50000000000001,-84.375" stroke="black" stroke-width="1" />
<path d="M12.50000000000001,-81.25 L9.37500000000001,-81.25" stroke="black" stroke-width="1" />
<path d="M1.071565949253934e-14,-75.0 L1.1481063742006436e-14,-87.5" stroke="black" stroke-width="1" />
<path d="M1.1481063742006436e-14,-87.5 L6.2500000000000115,-87.5" stroke="black" stroke-width="1" />
<path d="M6.2500000000000115,-87.5 L6.2500000000000115,-84.375" stroke="black" stroke-width="1" />
<path d="M6.2500000000000115,-87.5 L9.37500000000001,-87.5" stroke="black" stroke-width="1" />
<path d="M6.2500000000000115,-87.5 L6.2500000000000115,-90.625" stroke="black" stroke-width="1" />
<path d="M1.1481063742006436e-14,-87.5 L1.1863765866739983e-14,-93.75" stroke="black" stroke-width="1" />
<path d="M1.1863765866739983e-14,-93.75 L3.125000000000012,-93.75" stroke="black" stroke-width="1" />
<path d="M1.1863765866739983e-14,-93.75 L1.2055116929106757e-14,-96.875" stroke="black" stroke-width="1" />
<path d="M1.1863765866739983e-14,-93.75 L-3.124999999999988,-93.75" stroke="black" stroke-width="1" />
<path d="M1.1481063742006436e-14,-87.5 L-6.2499999999999885,-87.5" stroke="black" stroke-width="1" />
<path d="M-6.2499999999999885,-87.5 L-6.2499999999999885,-90.625" stroke="black" stroke-width="1" />
<path d="M-6.2499999999999885,-87.5 L-9.37499999999999,-87.5" stroke="black" stroke-width="1" />
<path d="M-6.2499999999999885,-87.5 L-6.249999999999989,-84.375" stroke="black" stroke-width="1" />
<path d="M1.071565949253934e-14,-75.0 L-12.49999999999999,-75.0" stroke="black" stroke-width="1" />
<path d="M-12.49999999999999,-75.0 L-12.49999999999999,-81.25" stroke="black" stroke-width="1" />
<path d="M-12.49999999999999,-81.25 L-9.37499999999999,-81.25" stroke="black" stroke-width="1" />
<path d="M-12.49999999999999,-81.25 L-12.49999999999999,-84.375" stroke="black" stroke-width="1" />
<path d="M-12.49999999999999,-81.25 L-15.62499999999999,-81.25" stroke="black" stroke-width="1" />
<path d="M-12.49999999999999,-75.0 L-18.74999999999999,-75.0" stroke="black" stroke-width="1" />
<path d="M-18.74999999999999,-75.0 L-18.74999999999999,-78.125" stroke="black" stroke-width="1" />
<path d="M-18.74999999999999,-75.0 L-21.87499999999999,-75.0" stroke="black" stroke-width="1" />
<path d="M-18.74999999999999,-75.0 L-18.74999999999999,-71.875" stroke="black" stroke-width="1" />
<path d="M-12.49999999999999,-75.0 L-12.499999999999991,-68.75" stroke="black" stroke-width="1" />
<path d="M-12.499999999999991,-68.75 L-15.624999999999991,-68.75" stroke="black" stroke-width="1" />
<path d="M-12.499999999999991,-68.75 L-12.499999999999991,-65.625" stroke="black" stroke-width="1" />
<path d="M-12.499999999999991,-68.75 L-9.374999999999991,-68.75" stroke="black" stroke-width="1" />
<path d="M9.184850993605149e-15,-50.0 L-24.99999999999999,-50.0" stroke="black" stroke-width="1" />
<path d="M-24.99999999999999,-50.0 L-24.99999999999999,-62.5" stroke="black" stroke-width="1" />
<path d="M-24.99999999999999,-62.5 L-18.74999999999999,-62.5" stroke="black" stroke-width="1" />
<path d="M-18.74999999999999,-62.5 L-18.74999999999999,-59.375" stroke="black" stroke-width="1" />
<path d="M-18.74999999999999,-62.5 L-15.62499999999999,-62.5" stroke="black" stroke-width="1" />
<path d="M-18.74999999999999,-62.5 L-18.74999999999999,-65.625" stroke="black" stroke-width="1" />
<path d="M-24.99999999999999,-62.5 L-24.99999999999999,-68.75" stroke="black" stroke-width="1" />
<path d="M-24.99999999999999,-68.75 L-21.87499999999999,-68.75" stroke="black" stroke-width="1" />
<path d="M-24.99999999999999,-68.75 L-24.99999999999999,-71.875" stroke="black" stroke-width="1" />
<path d="M-24.99999999999999,-68.75 L-28.12499999999999,-68.75" stroke="black" stroke-width="1" />
<path d="M-24.99999999999999,-62.5 L-31.24999999999999,-62.5" stroke="black" stroke-width="1" />
<path d="M-31.24999999999999,-62.5 L-31.24999999999999,-65.625" stroke="black" stroke-width="1" />
<path d="M-31.24999999999999,-62.5 L-34.374999999999986,-62.5" stroke="black" stroke-width="1" />
<path d="M-31.24999999999999,-62.5 L-31.24999999999999,-59.375" stroke="black" stroke-width="1" />
<path d="M-24.99999999999999,-50.0 L-37.499999999999986,-50.0" stroke="black" stroke-width="1" />
<path d="M-37.499999999999986,-50.0 L-37.499999999999986,-56.25" stroke="black" stroke-width="1" />
<path d="M-37.499999999999986,-56.25 L-34.374999999999986,-56.25" stroke="black" stroke-width="1" />
<path d="M-37.499999999999986,-56.25 L-37.499999999999986,-59.375" stroke="black" stroke-width="1" />
<path d="M-37.499999999999986,-56.25 L-40.624999999999986,-56.25" stroke="black" stroke-width="1" />
<path d="M-37.499999999999986,-50.0 L-43.749999999999986,-50.0" stroke="black" stroke-width="1" />
<path d="M-43.749999999999986,-50.0 L-43.749999999999986,-53.125" stroke="black" stroke-width="1" />
<path d="M-43.749999999999986,-50.0 L-46.874999999999986,-50.0" stroke="black" stroke-width="1" />
<path d="M-43.749999999999986,-50.0 L-43.749999999999986,-46.875" stroke="black" stroke-width="1" />
<path d="M-37.499999999999986,-50.0 L-37.499999999999986,-43.75" stroke="black" stroke-width="1" />
<path d="M-37.499999999999986,-43.75 L-40.624999999999986,-43.75" stroke="black" stroke-width="1" />
<path d="M-37.499999999999986,-43.75 L-37.499999999999986,-40.625" stroke="black" stroke-width="1" />
<path d="M-37.499999999999986,-43.75 L-34.374999999999986,-43.75" stroke="black" stroke-width="1" />
<path d="M-24.99999999999999,-50.0 L-24.999999999999993,-37.5" stroke="black" stroke-width="1" />
<path d="M-24.999999999999993,-37.5 L-31.249999999999993,-37.5" stroke="black" stroke-width="1" />
<path d="M-31.249999999999993,-37.5 L-31.249999999999993,-40.625" stroke="black" stroke-width="1" />
<path d="M-31.249999999999993,-37.5 L-34.37499999999999,-37.5" stroke="black" stroke-width="1" />
<path d="M-31.249999999999993,-37.5 L-31.249999999999993,-34.375" stroke="black" stroke-width="1" />
<path d="M-24.999999999999993,-37.5 L-24.999999999999993,-31.25" stroke="black" stroke-width="1" />
<path d="M-24.999999999999993,-31.25 L-28.124999999999993,-31.25" stroke="black" stroke-width="1" />
<path d="M-24.999999999999993,-31.25 L-24.999999999999993,-28.125" stroke="black" stroke-width="1" />
<path d="M-24.999999999999993,-31.25 L-21.874999999999993,-31.25" stroke="black" stroke-width="1" />
<path d="M-24.999999999999993,-37.5 L-18.749999999999993,-37.5" stroke="black" stroke-width="1" />
<path d="M-18.749999999999993,-37.5 L-18.749999999999993,-34.375" stroke="black" stroke-width="1" />
<path d="M-18.749999999999993,-37.5 L-15.624999999999993,-37.5" stroke="black" stroke-width="1" />
<path d="M-18.749999999999993,-37.5 L-18.749999999999993,-40.625" stroke="black" stroke-width="1" />
</svg>