<?xml version='1.0' encoding='UTF-8'?>
<!-- This file was generated by dvisvgm 3.0.1 -->
<svg version='1.1' xmlns='http://www.w3.org/2000/svg' xmlns:xlink='http://www.w3.org/1999/xlink' width='147pt' height='80pt' viewBox='0 -80 147 80'>
<g id='page1'>
<g transform='scale(1 -1)'>
<g stroke='#000' fill='none' stroke-width='.5' stroke-linecap='round' stroke-linejoin='round'>
<path d='M43.957 .25H146.004V79.6211H43.957V.25Z'/>
<path d='M43.957 20.0938H69.4688'/>
<path d='M69.4688 .25V20.0938'/>
<path d='M120.492 .25V20.0938'/>
<path d='M43.957 39.9336H69.4688'/>
<path d='M94.9805 39.9336H120.492'/>
<path d='M120.492 20.0938V39.9336'/>
<path d='M120.492 39.9336H146.004'/>
<path d='M69.4688 39.9336V59.7773'/>
<path d='M69.4688 59.7773H94.9805'/>
<path d='M94.9805 39.9336V59.7773'/>
<path d='M94.9805 59.7773H120.492'/>
<path d='M120.492 39.9336V59.7773'/>
<path d='M120.492 59.7773H146.004'/>
<path d='M94.9805 59.7773V79.6211'/>
<path d='M120.492 59.7773V79.6211'/>
</g>
<path d='M60.0234 10.1211C60.0234 11.1719 60.0078 12.9609 59.2852 14.3359C58.6484 15.5391 57.6328 15.9688 56.7383 15.9688C55.9141 15.9688 54.8633 15.5938 54.2109 14.3516C53.5234 13.0625 53.4531 11.4648 53.4531 10.1211C53.4531 9.14063 53.4688 7.64453 54.0039 6.33594C54.7422 4.56641 56.0703 4.32422 56.7383 4.32422C57.5313 4.32422 58.7344 4.65234 59.4414 6.28516C59.957 7.47266 60.0234 8.86719 60.0234 10.1211ZM56.7383 4.60156C55.6406 4.60156 54.9844 5.54688 54.7422 6.85156C54.5547 7.86719 54.5547 9.34766 54.5547 10.3125C54.5547 11.6367 54.5547 12.7344 54.7773 13.7852C55.1055 15.25 56.0703 15.6953 56.7383 15.6953C57.4453 15.6953 58.3555 15.2305 58.6836 13.8203C58.9063 12.8398 58.9219 11.6875 58.9219 10.3125C58.9219 9.19141 58.9219 7.81641 58.7188 6.80078C58.3555 4.92578 57.3398 4.60156 56.7383 4.60156'/>
<path d='M82.1016 10.4492C83.6328 10.4492 84.3047 9.125 84.3047 7.59375C84.3047 5.52734 83.2031 4.73828 82.2031 4.73828C81.293 4.73828 79.8125 5.18359 79.3516 6.50781C79.4375 6.47656 79.5234 6.47656 79.6094 6.47656C80.0195 6.47656 80.3281 6.75 80.3281 7.19531C80.3281 7.69531 79.9531 7.92188 79.6094 7.92188C79.3164 7.92188 78.8672 7.78125 78.8672 7.14453C78.8672 5.5625 80.4141 4.32422 82.2383 4.32422C84.1484 4.32422 85.6094 5.82031 85.6094 7.57813C85.6094 9.24219 84.2344 10.4492 82.6016 10.6367C83.9063 10.9141 85.1641 12.082 85.1641 13.6484C85.1641 14.9922 83.8047 15.9688 82.2578 15.9688C80.6914 15.9688 79.3164 15.0078 79.3164 13.6328C79.3164 13.0313 79.7617 12.9258 79.9844 12.9258C80.3477 12.9258 80.6563 13.1484 80.6563 13.5977C80.6563 14.043 80.3477 14.2656 79.9844 14.2656C79.918 14.2656 79.832 14.2656 79.7617 14.2344C80.2617 15.3672 81.6211 15.5742 82.2227 15.5742C82.8242 15.5742 83.9609 15.2813 83.9609 13.6328C83.9609 13.1484 83.8906 12.2891 83.3047 11.5313C82.7891 10.8594 82.2031 10.8281 81.6367 10.7734C81.5508 10.7734 81.1563 10.7422 81.0859 10.7422C80.9648 10.7227 80.8984 10.707 80.8984 10.5859S80.9141 10.4492 81.2578 10.4492H82.1016'/>
<path d='M107.602 10.4492C109.133 10.4492 109.805 9.125 109.805 7.59375C109.805 5.52734 108.703 4.73828 107.703 4.73828C106.793 4.73828 105.313 5.18359 104.852 6.50781C104.938 6.47656 105.023 6.47656 105.109 6.47656C105.52 6.47656 105.828 6.75 105.828 7.19531C105.828 7.69531 105.453 7.92188 105.109 7.92188C104.816 7.92188 104.367 7.78125 104.367 7.14453C104.367 5.5625 105.914 4.32422 107.738 4.32422C109.648 4.32422 111.109 5.82031 111.109 7.57813C111.109 9.24219 109.734 10.4492 108.102 10.6367C109.406 10.9141 110.664 12.082 110.664 13.6484C110.664 14.9922 109.305 15.9688 107.758 15.9688C106.191 15.9688 104.816 15.0078 104.816 13.6328C104.816 13.0313 105.262 12.9258 105.484 12.9258C105.848 12.9258 106.156 13.1484 106.156 13.5977C106.156 14.043 105.848 14.2656 105.484 14.2656C105.418 14.2656 105.332 14.2656 105.262 14.2344C105.762 15.3672 107.121 15.5742 107.723 15.5742C108.324 15.5742 109.461 15.2813 109.461 13.6328C109.461 13.1484 109.391 12.2891 108.805 11.5313C108.289 10.8594 107.703 10.8281 107.137 10.7734C107.051 10.7734 106.656 10.7422 106.586 10.7422C106.465 10.7227 106.398 10.707 106.398 10.5859S106.414 10.4492 106.758 10.4492H107.602'/>
<path d='M136.523 10.1211C136.523 11.1719 136.508 12.9609 135.785 14.3359C135.148 15.5391 134.133 15.9688 133.238 15.9688C132.414 15.9688 131.363 15.5938 130.711 14.3516C130.023 13.0625 129.953 11.4648 129.953 10.1211C129.953 9.14063 129.969 7.64453 130.504 6.33594C131.242 4.56641 132.57 4.32422 133.238 4.32422C134.031 4.32422 135.234 4.65234 135.941 6.28516C136.457 7.47266 136.523 8.86719 136.523 10.1211ZM133.238 4.60156C132.141 4.60156 131.484 5.54688 131.242 6.85156C131.055 7.86719 131.055 9.34766 131.055 10.3125C131.055 11.6367 131.055 12.7344 131.277 13.7852C131.605 15.25 132.57 15.6953 133.238 15.6953C133.945 15.6953 134.855 15.2305 135.184 13.8203C135.406 12.8398 135.422 11.6875 135.422 10.3125C135.422 9.19141 135.422 7.81641 135.219 6.80078C134.855 4.92578 133.84 4.60156 133.238 4.60156'/>
<path d='M56.6016 30.3477C58.1328 30.3477 58.8047 29.0234 58.8047 27.4922C58.8047 25.4297 57.7031 24.6367 56.7031 24.6367C55.793 24.6367 54.3125 25.0859 53.8516 26.4102C53.9375 26.375 54.0234 26.375 54.1094 26.375C54.5195 26.375 54.8281 26.6484 54.8281 27.0977C54.8281 27.5977 54.4531 27.8203 54.1094 27.8203C53.8164 27.8203 53.3672 27.6836 53.3672 27.0469C53.3672 25.4648 54.9141 24.2266 56.7383 24.2266C58.6484 24.2266 60.1094 25.7227 60.1094 27.4766C60.1094 29.1445 58.7344 30.3477 57.1016 30.5391C58.4063 30.8125 59.6641 31.9844 59.6641 33.5469C59.6641 34.8906 58.3047 35.8711 56.7578 35.8711C55.1914 35.8711 53.8164 34.9063 53.8164 33.5313C53.8164 32.9297 54.2617 32.8242 54.4844 32.8242C54.8477 32.8242 55.1563 33.0508 55.1563 33.4961C55.1563 33.9453 54.8477 34.168 54.4844 34.168C54.418 34.168 54.332 34.168 54.2617 34.1328C54.7617 35.2695 56.1211 35.4766 56.7227 35.4766C57.3242 35.4766 58.4609 35.1836 58.4609 33.5313C58.4609 33.0508 58.3906 32.1875 57.8047 31.4336C57.2891 30.7617 56.7031 30.7266 56.1367 30.6758C56.0508 30.6758 55.6563 30.6406 55.5859 30.6406C55.4648 30.625 55.3984 30.6055 55.3984 30.4844C55.3984 30.3672 55.4141 30.3477 55.7578 30.3477H56.6016'/>
<path d='M81.8906 30.1953C83.8164 30.1953 83.8164 28.4063 83.8164 27.5781C83.8164 26.8047 83.8164 24.9805 81.957 24.9805C81.5977 24.9805 80.4609 25.0313 79.6367 25.6172C80.375 25.7734 80.6328 26.3047 80.6328 26.8203C80.6328 27.5273 80.1328 28.0273 79.4297 28.0273C78.707 28.0273 78.207 27.5273 78.207 26.8047C78.207 25.2227 79.9297 24.293 82.043 24.293C84.8828 24.293 86.2422 25.8594 86.2422 27.5781C86.2422 28.4219 85.8125 30.0547 83.1445 30.5195C84.6602 30.9844 85.707 32.0508 85.707 33.4102C85.707 34.6992 84.4688 35.7852 82.0781 35.7852C80.1523 35.7852 78.7422 34.7695 78.7422 33.375C78.7422 32.5156 79.4141 32.2422 79.8594 32.2422C80.3594 32.2422 80.9609 32.5664 80.9609 33.3594C80.9609 33.7539 80.7891 34.3398 79.9805 34.4609C80.7031 35.1641 81.8711 35.1641 81.9766 35.1641C83.5078 35.1641 83.5078 33.9766 83.5078 33.4609C83.5078 32.9453 83.4375 32.1563 82.8867 31.4492C82.4414 30.8633 81.9922 30.8281 81.3398 30.7969C81.1328 30.7773 80.7891 30.7617 80.7188 30.7266C80.6172 30.6758 80.6172 30.5547 80.6172 30.4844C80.6172 30.1953 80.7188 30.1953 81.0625 30.1953H81.8906'/>
<path d='M107.602 30.3477C109.133 30.3477 109.805 29.0234 109.805 27.4922C109.805 25.4297 108.703 24.6367 107.703 24.6367C106.793 24.6367 105.313 25.0859 104.852 26.4102C104.938 26.375 105.023 26.375 105.109 26.375C105.52 26.375 105.828 26.6484 105.828 27.0977C105.828 27.5977 105.453 27.8203 105.109 27.8203C104.816 27.8203 104.367 27.6836 104.367 27.0469C104.367 25.4648 105.914 24.2266 107.738 24.2266C109.648 24.2266 111.109 25.7227 111.109 27.4766C111.109 29.1445 109.734 30.3477 108.102 30.5391C109.406 30.8125 110.664 31.9844 110.664 33.5469C110.664 34.8906 109.305 35.8711 107.758 35.8711C106.191 35.8711 104.816 34.9063 104.816 33.5313C104.816 32.9297 105.262 32.8242 105.484 32.8242C105.848 32.8242 106.156 33.0508 106.156 33.4961C106.156 33.9453 105.848 34.168 105.484 34.168C105.418 34.168 105.332 34.168 105.262 34.1328C105.762 35.2695 107.121 35.4766 107.723 35.4766C108.324 35.4766 109.461 35.1836 109.461 33.5313C109.461 33.0508 109.391 32.1875 108.805 31.4336C108.289 30.7617 107.703 30.7266 107.137 30.6758C107.051 30.6758 106.656 30.6406 106.586 30.6406C106.465 30.625 106.398 30.6055 106.398 30.4844C106.398 30.3672 106.414 30.3477 106.758 30.3477H107.602'/>
<path d='M136.523 30.0234C136.523 31.0703 136.508 32.8594 135.785 34.2344C135.148 35.4414 134.133 35.8711 133.238 35.8711C132.414 35.8711 131.363 35.4922 130.711 34.2539C130.023 32.9648 129.953 31.3633 129.953 30.0234C129.953 29.0391 129.969 27.5469 130.504 26.2383C131.242 24.4648 132.57 24.2266 133.238 24.2266C134.031 24.2266 135.234 24.5508 135.941 26.1875C136.457 27.375 136.523 28.7656 136.523 30.0234ZM133.238 24.5C132.141 24.5 131.484 25.4453 131.242 26.7539C131.055 27.7695 131.055 29.25 131.055 30.2109C131.055 31.5352 131.055 32.6367 131.277 33.6875C131.605 35.1484 132.57 35.5938 133.238 35.5938C133.945 35.5938 134.855 35.1328 135.184 33.7188C135.406 32.7383 135.422 31.5859 135.422 30.2109C135.422 29.0938 135.422 27.7188 135.219 26.7031C134.855 24.8281 133.84 24.5 133.238 24.5'/>
<path d='M60.0234 49.8203C60.0234 50.8711 60.0078 52.6602 59.2852 54.0352C58.6484 55.2422 57.6328 55.6719 56.7383 55.6719C55.9141 55.6719 54.8633 55.293 54.2109 54.0547C53.5234 52.7656 53.4531 51.1641 53.4531 49.8203C53.4531 48.8398 53.4688 47.3438 54.0039 46.0391C54.7422 44.2656 56.0703 44.0234 56.7383 44.0234C57.5313 44.0234 58.7344 44.3516 59.4414 45.9844C59.957 47.1719 60.0234 48.5664 60.0234 49.8203ZM56.7383 44.3008C55.6406 44.3008 54.9844 45.2461 54.7422 46.5547C54.5547 47.5703 54.5547 49.0469 54.5547 50.0117C54.5547 51.3359 54.5547 52.4375 54.7773 53.4844C55.1055 54.9492 56.0703 55.3945 56.7383 55.3945C57.4453 55.3945 58.3555 54.9297 58.6836 53.5195C58.9063 52.5391 58.9219 51.3867 58.9219 50.0117C58.9219 48.8906 58.9219 47.5156 58.7188 46.5C58.3555 44.625 57.3398 44.3008 56.7383 44.3008'/>
<path d='M82.1016 50.1484C83.6328 50.1484 84.3047 48.8242 84.3047 47.293C84.3047 45.2266 83.2031 44.4375 82.2031 44.4375C81.293 44.4375 79.8125 44.8828 79.3516 46.2109C79.4375 46.1758 79.5234 46.1758 79.6094 46.1758C80.0195 46.1758 80.3281 46.4492 80.3281 46.8984C80.3281 47.3984 79.9531 47.6211 79.6094 47.6211C79.3164 47.6211 78.8672 47.4844 78.8672 46.8438C78.8672 45.2656 80.4141 44.0234 82.2383 44.0234C84.1484 44.0234 85.6094 45.5234 85.6094 47.2773C85.6094 48.9453 84.2344 50.1484 82.6016 50.3359C83.9063 50.6133 85.1641 51.7813 85.1641 53.3477C85.1641 54.6914 83.8047 55.6719 82.2578 55.6719C80.6914 55.6719 79.3164 54.707 79.3164 53.332C79.3164 52.7305 79.7617 52.625 79.9844 52.625C80.3477 52.625 80.6563 52.8516 80.6563 53.2969S80.3477 53.9688 79.9844 53.9688C79.918 53.9688 79.832 53.9688 79.7617 53.9336C80.2617 55.0703 81.6211 55.2734 82.2227 55.2734C82.8242 55.2734 83.9609 54.9844 83.9609 53.332C83.9609 52.8516 83.8906 51.9883 83.3047 51.2344C82.7891 50.5625 82.2031 50.5273 81.6367 50.4766C81.5508 50.4766 81.1563 50.4414 81.0859 50.4414C80.9648 50.4219 80.8984 50.4063 80.8984 50.2852S80.9141 50.1484 81.2578 50.1484H82.1016'/>
<path d='M111.023 49.8203C111.023 50.8711 111.008 52.6602 110.285 54.0352C109.648 55.2422 108.633 55.6719 107.738 55.6719C106.914 55.6719 105.863 55.293 105.211 54.0547C104.523 52.7656 104.453 51.1641 104.453 49.8203C104.453 48.8398 104.469 47.3438 105.004 46.0391C105.742 44.2656 107.07 44.0234 107.738 44.0234C108.531 44.0234 109.734 44.3516 110.441 45.9844C110.957 47.1719 111.023 48.5664 111.023 49.8203ZM107.738 44.3008C106.641 44.3008 105.984 45.2461 105.742 46.5547C105.555 47.5703 105.555 49.0469 105.555 50.0117C105.555 51.3359 105.555 52.4375 105.777 53.4844C106.105 54.9492 107.07 55.3945 107.738 55.3945C108.445 55.3945 109.355 54.9297 109.684 53.5195C109.906 52.5391 109.922 51.3867 109.922 50.0117C109.922 48.8906 109.922 47.5156 109.719 46.5C109.355 44.625 108.34 44.3008 107.738 44.3008'/>
<path d='M133.875 55.293C133.875 55.6523 133.859 55.6719 133.617 55.6719C132.945 54.8633 131.93 54.6055 130.969 54.5703C130.918 54.5703 130.832 54.5703 130.813 54.5352C130.797 54.5 130.797 54.4648 130.797 54.1055C131.328 54.1055 132.227 54.207 132.914 54.6211V45.5547C132.914 44.9531 132.879 44.7461 131.398 44.7461H130.883V44.3008C131.707 44.3164 132.57 44.3359 133.395 44.3359C134.219 44.3359 135.078 44.3164 135.906 44.3008V44.7461H135.391C133.91 44.7461 133.875 44.9375 133.875 45.5547V55.293'/>
<path d='M60.0234 69.7227C60.0234 70.7734 60.0078 72.5586 59.2852 73.9375C58.6484 75.1406 57.6328 75.5703 56.7383 75.5703C55.9141 75.5703 54.8633 75.1914 54.2109 73.9531C53.5234 72.6641 53.4531 71.0625 53.4531 69.7227C53.4531 68.7422 53.4688 67.2461 54.0039 65.9375C54.7422 64.1641 56.0703 63.9258 56.7383 63.9258C57.5313 63.9258 58.7344 64.25 59.4414 65.8867C59.957 67.0742 60.0234 68.4648 60.0234 69.7227ZM56.7383 64.1992C55.6406 64.1992 54.9844 65.1484 54.7422 66.4531C54.5547 67.4688 54.5547 68.9492 54.5547 69.9102C54.5547 71.2344 54.5547 72.3359 54.7773 73.3867C55.1055 74.8477 56.0703 75.2969 56.7383 75.2969C57.4453 75.2969 58.3555 74.832 58.6836 73.4219C58.9063 72.4375 58.9219 71.2891 58.9219 69.9102C58.9219 68.793 58.9219 67.418 58.7188 66.4023C58.3555 64.5273 57.3398 64.1992 56.7383 64.1992'/>
<path d='M85.5234 69.7227C85.5234 70.7734 85.5078 72.5586 84.7852 73.9375C84.1484 75.1406 83.1328 75.5703 82.2383 75.5703C81.4141 75.5703 80.3633 75.1914 79.7109 73.9531C79.0234 72.6641 78.9531 71.0625 78.9531 69.7227C78.9531 68.7422 78.9688 67.2461 79.5039 65.9375C80.2422 64.1641 81.5703 63.9258 82.2383 63.9258C83.0313 63.9258 84.2344 64.25 84.9414 65.8867C85.457 67.0742 85.5234 68.4648 85.5234 69.7227ZM82.2383 64.1992C81.1406 64.1992 80.4844 65.1484 80.2422 66.4531C80.0547 67.4688 80.0547 68.9492 80.0547 69.9102C80.0547 71.2344 80.0547 72.3359 80.2773 73.3867C80.6055 74.8477 81.5703 75.2969 82.2383 75.2969C82.9453 75.2969 83.8555 74.832 84.1836 73.4219C84.4063 72.4375 84.4219 71.2891 84.4219 69.9102C84.4219 68.793 84.4219 67.418 84.2188 66.4023C83.8555 64.5273 82.8398 64.1992 82.2383 64.1992'/>
<path d='M108.375 75.1914C108.375 75.5547 108.359 75.5703 108.117 75.5703C107.445 74.7617 106.43 74.5039 105.469 74.4688C105.418 74.4688 105.332 74.4688 105.313 74.4336C105.297 74.3984 105.297 74.3672 105.297 74.0039C105.828 74.0039 106.727 74.1094 107.414 74.5234V65.457C107.414 64.8516 107.379 64.6484 105.898 64.6484H105.383V64.1992C106.207 64.2188 107.07 64.2344 107.895 64.2344C108.719 64.2344 109.578 64.2188 110.406 64.1992V64.6484H109.891C108.41 64.6484 108.375 64.8359 108.375 65.457V75.1914'/>
<path d='M136.523 69.7227C136.523 70.7734 136.508 72.5586 135.785 73.9375C135.148 75.1406 134.133 75.5703 133.238 75.5703C132.414 75.5703 131.363 75.1914 130.711 73.9531C130.023 72.6641 129.953 71.0625 129.953 69.7227C129.953 68.7422 129.969 67.2461 130.504 65.9375C131.242 64.1641 132.57 63.9258 133.238 63.9258C134.031 63.9258 135.234 64.25 135.941 65.8867C136.457 67.0742 136.523 68.4648 136.523 69.7227ZM133.238 64.1992C132.141 64.1992 131.484 65.1484 131.242 66.4531C131.055 67.4688 131.055 68.9492 131.055 69.9102C131.055 71.2344 131.055 72.3359 131.277 73.3867C131.605 74.8477 132.57 75.2969 133.238 75.2969C133.945 75.2969 134.855 74.832 135.184 73.4219C135.406 72.4375 135.422 71.2891 135.422 69.9102C135.422 68.793 135.422 67.418 135.219 66.4023C134.855 64.5273 133.84 64.1992 133.238 64.1992'/>
<path d='M5.49609 45.5742C5.39063 45.832 5.375 45.8477 5.01563 45.8477H2.8125V45.4023C4 45.4023 4.1875 45.4023 4.1875 44.6289V35.7852C4.1875 35.3555 4.1875 34.5469 2.8125 34.5469V34.1016C3.20703 34.1328 3.92969 34.1328 4.35938 34.1328C4.78906 34.1328 5.51172 34.1328 5.90625 34.1016V34.5469C4.53125 34.5469 4.53125 35.3555 4.53125 35.7852V45.332H4.54688L8.59375 34.375C8.66016 34.2031 8.69531 34.1016 8.83203 34.1016S9.00391 34.2031 9.07422 34.375L13.1484 45.418H13.168V35.3203C13.168 34.5469 12.9766 34.5469 11.7891 34.5469V34.1016C12.2578 34.1328 13.1836 34.1328 13.6836 34.1328S15.1289 34.1328 15.5938 34.1016V34.5469C14.4063 34.5469 14.2188 34.5469 14.2188 35.3203V44.6289C14.2188 45.4023 14.4063 45.4023 15.5938 45.4023V45.8477H13.4063C13.0469 45.8477 13.0313 45.832 12.9258 45.5742L9.21094 35.4922L5.49609 45.5742'/>
<path d='M32.7617 39.6211C33.0195 39.6211 33.2773 39.6211 33.2773 39.9141C33.2773 40.2227 32.9844 40.2227 32.6914 40.2227H23.0781C22.7852 40.2227 22.4922 40.2227 22.4922 39.9141C22.4922 39.6211 22.75 39.6211 23.0078 39.6211H32.7617ZM32.6914 36.5586C32.9844 36.5586 33.2773 36.5586 33.2773 36.8672C33.2773 37.1641 33.0195 37.1641 32.7617 37.1641H23.0078C22.75 37.1641 22.4922 37.1641 22.4922 36.8672C22.4922 36.5586 22.7852 36.5586 23.0781 36.5586H32.6914'/>
</g>
</g>
</svg>